CBMC version 5.4 64-bit x86_64 macos
Parsing input/c/c_seq/act_java.c
Converting
Type-checking act_java
file input/c/c_seq/act_java.c line 584 function main: function `nondet_uint' is not declared
Generating GOTO Program
Adding CPROVER library (x86_64)
Function Pointer Removal
Partial Inlining
Generic Property Instrumentation
Starting Bounded Model Checking
Unwinding loop main.0 iteration 1 (10 max) file input/c/c_seq/act_java.c line 581 function main thread 0
Unwinding loop main.0 iteration 2 (10 max) file input/c/c_seq/act_java.c line 581 function main thread 0
Unwinding loop main.0 iteration 3 (10 max) file input/c/c_seq/act_java.c line 581 function main thread 0
Unwinding loop main.0 iteration 4 (10 max) file input/c/c_seq/act_java.c line 581 function main thread 0
Unwinding loop main.0 iteration 5 (10 max) file input/c/c_seq/act_java.c line 581 function main thread 0
Unwinding loop main.0 iteration 6 (10 max) file input/c/c_seq/act_java.c line 581 function main thread 0
Unwinding loop main.0 iteration 7 (10 max) file input/c/c_seq/act_java.c line 581 function main thread 0
Unwinding loop main.0 iteration 8 (10 max) file input/c/c_seq/act_java.c line 581 function main thread 0
Unwinding loop main.0 iteration 9 (10 max) file input/c/c_seq/act_java.c line 581 function main thread 0
Not unwinding loop main.0 iteration 10 (10 max) file input/c/c_seq/act_java.c line 581 function main thread 0
size of program expression: 9572 steps
simple slicing removed 3 assignments
Generated 250 VCC(s), 250 remaining after simplification
Passing problem to propositional reduction
converting SSA
Running propositional reduction
Post-processing
Solving with Glucose Syrup with simplifier
302084 variables, 1284239 clauses
SAT checker: instance is SATISFIABLE
Runtime decision procedure: 14.925s
Building error trace

Counterexample:

State 41 file input/c/c_seq/act_java.c line 560 function init thread 0
----------------------------------------------------
  pc[0]=0 (00000000000000000000000000000000)

State 42 file input/c/c_seq/act_java.c line 561 function init thread 0
----------------------------------------------------
  size[0]=0 (00000000000000000000000000000000)

State 43 file input/c/c_seq/act_java.c line 563 function init thread 0
----------------------------------------------------
  pc[1]=0 (00000000000000000000000000000000)

State 44 file input/c/c_seq/act_java.c line 564 function init thread 0
----------------------------------------------------
  pc[2]=0 (00000000000000000000000000000000)

State 45 file input/c/c_seq/act_java.c line 565 function init thread 0
----------------------------------------------------
  pc[3]=0 (00000000000000000000000000000000)

State 46 file input/c/c_seq/act_java.c line 566 function init thread 0
----------------------------------------------------
  ssize=0 (00000000000000000000000000000000)

State 47 file input/c/c_seq/act_java.c line 566 function init thread 0
----------------------------------------------------
  ssize=33 (00000000000000000000000000100001)

State 48 file input/c/c_seq/act_java.c line 567 function init thread 0
----------------------------------------------------
  size[1]=33 (00000000000000000000000000100001)

State 49 file input/c/c_seq/act_java.c line 568 function init thread 0
----------------------------------------------------
  size[2]=33 (00000000000000000000000000100001)

State 50 file input/c/c_seq/act_java.c line 569 function init thread 0
----------------------------------------------------
  size[3]=33 (00000000000000000000000000100001)

State 51 file input/c/c_seq/act_java.c line 571 function init thread 0
----------------------------------------------------
  t1=0 (00000000000000000000000000000000)

State 52 file input/c/c_seq/act_java.c line 571 function init thread 0
----------------------------------------------------
  t2=0 (00000000000000000000000000000000)

State 53 file input/c/c_seq/act_java.c line 571 function init thread 0
----------------------------------------------------
  t3=0 (00000000000000000000000000000000)

State 56 file input/c/c_seq/act_java.c line 573 function init thread 0
----------------------------------------------------
  t=0 (00000000000000000000000000000000)

State 57 file input/c/c_seq/act_java.c line 573 function init thread 0
----------------------------------------------------
  id=1 (00000000000000000000000000000001)

State 58 file input/c/c_seq/act_java.c line 21 function create thread 0
----------------------------------------------------
  active[1]=1 (00000000000000000000000000000001)

State 59 file input/c/c_seq/act_java.c line 22 function create thread 0
----------------------------------------------------
  t=1 (00000000000000000000000000000001)

State 63 file input/c/c_seq/act_java.c line 574 function init thread 0
----------------------------------------------------
  t=0 (00000000000000000000000000000000)

State 64 file input/c/c_seq/act_java.c line 574 function init thread 0
----------------------------------------------------
  id=2 (00000000000000000000000000000010)

State 65 file input/c/c_seq/act_java.c line 21 function create thread 0
----------------------------------------------------
  active[2]=1 (00000000000000000000000000000001)

State 66 file input/c/c_seq/act_java.c line 22 function create thread 0
----------------------------------------------------
  t=2 (00000000000000000000000000000010)

State 70 file input/c/c_seq/act_java.c line 575 function init thread 0
----------------------------------------------------
  t=0 (00000000000000000000000000000000)

State 71 file input/c/c_seq/act_java.c line 575 function init thread 0
----------------------------------------------------
  id=3 (00000000000000000000000000000011)

State 72 file input/c/c_seq/act_java.c line 21 function create thread 0
----------------------------------------------------
  active[3]=1 (00000000000000000000000000000001)

State 73 file input/c/c_seq/act_java.c line 22 function create thread 0
----------------------------------------------------
  t=3 (00000000000000000000000000000011)

State 76 file input/c/c_seq/act_java.c line 582 function main thread 0
----------------------------------------------------
  ct=1 (00000000000000000000000000000001)

State 78 file input/c/c_seq/act_java.c line 584 function main thread 0
----------------------------------------------------
  cs=0 (00000000000000000000000000000000)

State 121 file input/c/c_seq/act_java.c line 587 function main thread 0
----------------------------------------------------
  pc[1]=0 (00000000000000000000000000000000)

State 122 file input/c/c_seq/act_java.c line 588 function main thread 0
----------------------------------------------------
  active[1]=1 (00000000000000000000000000000001)

State 123 file input/c/c_seq/act_java.c line 589 function main thread 0
----------------------------------------------------
  dead=0 (00000000000000000000000000000000)

State 124 file input/c/c_seq/act_java.c line 592 function main thread 0
----------------------------------------------------
  ct=2 (00000000000000000000000000000010)

State 126 file input/c/c_seq/act_java.c line 594 function main thread 0
----------------------------------------------------
  cs=25 (00000000000000000000000000011001)

State 135 file input/c/c_seq/act_java.c line 241 function t_two thread 0
----------------------------------------------------
  i=1 (00000000000000000000000000000001)

State 137 file input/c/c_seq/act_java.c line 243 function t_two thread 0
----------------------------------------------------
  MyClaim=1 (00000000000000000000000000000001)

State 139 file input/c/c_seq/act_java.c line 246 function t_two thread 0
----------------------------------------------------
  y=1 (00000000000000000000000000000001)

State 142 file input/c/c_seq/act_java.c line 258 function t_two thread 0
----------------------------------------------------
  stock=21 (00000000000000000000000000010101)

State 146 file input/c/c_seq/act_java.c line 274 function t_two thread 0
----------------------------------------------------
  FullAllocation=1 (00000000000000000000000000000001)

State 148 file input/c/c_seq/act_java.c line 276 function t_two thread 0
----------------------------------------------------
  i=2 (00000000000000000000000000000010)

State 150 file input/c/c_seq/act_java.c line 278 function t_two thread 0
----------------------------------------------------
  MyClaim=2 (00000000000000000000000000000010)

State 152 file input/c/c_seq/act_java.c line 281 function t_two thread 0
----------------------------------------------------
  y=2 (00000000000000000000000000000010)

State 155 file input/c/c_seq/act_java.c line 293 function t_two thread 0
----------------------------------------------------
  stock=19 (00000000000000000000000000010011)

State 159 file input/c/c_seq/act_java.c line 309 function t_two thread 0
----------------------------------------------------
  FullAllocation=3 (00000000000000000000000000000011)

State 161 file input/c/c_seq/act_java.c line 311 function t_two thread 0
----------------------------------------------------
  i=3 (00000000000000000000000000000011)

State 163 file input/c/c_seq/act_java.c line 313 function t_two thread 0
----------------------------------------------------
  MyClaim=3 (00000000000000000000000000000011)

State 165 file input/c/c_seq/act_java.c line 316 function t_two thread 0
----------------------------------------------------
  y=3 (00000000000000000000000000000011)

State 168 file input/c/c_seq/act_java.c line 328 function t_two thread 0
----------------------------------------------------
  stock=16 (00000000000000000000000000010000)

State 172 file input/c/c_seq/act_java.c line 344 function t_two thread 0
----------------------------------------------------
  FullAllocation=6 (00000000000000000000000000000110)

State 174 file input/c/c_seq/act_java.c line 346 function t_two thread 0
----------------------------------------------------
  i=4 (00000000000000000000000000000100)

State 185 file input/c/c_seq/act_java.c line 597 function main thread 0
----------------------------------------------------
  pc[2]=25 (00000000000000000000000000011001)

State 186 file input/c/c_seq/act_java.c line 598 function main thread 0
----------------------------------------------------
  active[2]=1 (00000000000000000000000000000001)

State 187 file input/c/c_seq/act_java.c line 599 function main thread 0
----------------------------------------------------
  dead=0 (00000000000000000000000000000000)

State 188 file input/c/c_seq/act_java.c line 602 function main thread 0
----------------------------------------------------
  ct=3 (00000000000000000000000000000011)

State 190 file input/c/c_seq/act_java.c line 604 function main thread 0
----------------------------------------------------
  cs=9 (00000000000000000000000000001001)

State 199 file input/c/c_seq/act_java.c line 404 function t_three thread 0
----------------------------------------------------
  i=1 (00000000000000000000000000000001)

State 201 file input/c/c_seq/act_java.c line 406 function t_three thread 0
----------------------------------------------------
  MyClaim=1 (00000000000000000000000000000001)

State 203 file input/c/c_seq/act_java.c line 409 function t_three thread 0
----------------------------------------------------
  y=1 (00000000000000000000000000000001)

State 206 file input/c/c_seq/act_java.c line 421 function t_three thread 0
----------------------------------------------------
  stock=15 (00000000000000000000000000001111)

State 210 file input/c/c_seq/act_java.c line 437 function t_three thread 0
----------------------------------------------------
  FullAllocation=1 (00000000000000000000000000000001)

State 212 file input/c/c_seq/act_java.c line 439 function t_three thread 0
----------------------------------------------------
  i=2 (00000000000000000000000000000010)

State 239 file input/c/c_seq/act_java.c line 607 function main thread 0
----------------------------------------------------
  pc[3]=9 (00000000000000000000000000001001)

State 240 file input/c/c_seq/act_java.c line 608 function main thread 0
----------------------------------------------------
  active[3]=1 (00000000000000000000000000000001)

State 241 file input/c/c_seq/act_java.c line 609 function main thread 0
----------------------------------------------------
  dead=0 (00000000000000000000000000000000)

State 244 file input/c/c_seq/act_java.c line 582 function main thread 0
----------------------------------------------------
  ct=1 (00000000000000000000000000000001)

State 246 file input/c/c_seq/act_java.c line 584 function main thread 0
----------------------------------------------------
  cs=23 (00000000000000000000000000010111)

State 255 file input/c/c_seq/act_java.c line 77 function t_one thread 0
----------------------------------------------------
  i=1 (00000000000000000000000000000001)

State 257 file input/c/c_seq/act_java.c line 79 function t_one thread 0
----------------------------------------------------
  MyClaim=1 (00000000000000000000000000000001)

State 259 file input/c/c_seq/act_java.c line 82 function t_one thread 0
----------------------------------------------------
  y=1 (00000000000000000000000000000001)

State 262 file input/c/c_seq/act_java.c line 94 function t_one thread 0
----------------------------------------------------
  stock=14 (00000000000000000000000000001110)

State 266 file input/c/c_seq/act_java.c line 110 function t_one thread 0
----------------------------------------------------
  FullAllocation=1 (00000000000000000000000000000001)

State 268 file input/c/c_seq/act_java.c line 112 function t_one thread 0
----------------------------------------------------
  i=2 (00000000000000000000000000000010)

State 270 file input/c/c_seq/act_java.c line 114 function t_one thread 0
----------------------------------------------------
  MyClaim=2 (00000000000000000000000000000010)

State 272 file input/c/c_seq/act_java.c line 117 function t_one thread 0
----------------------------------------------------
  y=2 (00000000000000000000000000000010)

State 275 file input/c/c_seq/act_java.c line 129 function t_one thread 0
----------------------------------------------------
  stock=12 (00000000000000000000000000001100)

State 279 file input/c/c_seq/act_java.c line 145 function t_one thread 0
----------------------------------------------------
  FullAllocation=3 (00000000000000000000000000000011)

State 281 file input/c/c_seq/act_java.c line 147 function t_one thread 0
----------------------------------------------------
  i=3 (00000000000000000000000000000011)

State 283 file input/c/c_seq/act_java.c line 149 function t_one thread 0
----------------------------------------------------
  MyClaim=3 (00000000000000000000000000000011)

State 285 file input/c/c_seq/act_java.c line 152 function t_one thread 0
----------------------------------------------------
  y=3 (00000000000000000000000000000011)

State 288 file input/c/c_seq/act_java.c line 164 function t_one thread 0
----------------------------------------------------
  stock=9 (00000000000000000000000000001001)

State 303 file input/c/c_seq/act_java.c line 587 function main thread 0
----------------------------------------------------
  pc[1]=23 (00000000000000000000000000010111)

State 304 file input/c/c_seq/act_java.c line 588 function main thread 0
----------------------------------------------------
  active[1]=1 (00000000000000000000000000000001)

State 305 file input/c/c_seq/act_java.c line 589 function main thread 0
----------------------------------------------------
  dead=0 (00000000000000000000000000000000)

State 306 file input/c/c_seq/act_java.c line 592 function main thread 0
----------------------------------------------------
  ct=2 (00000000000000000000000000000010)

State 308 file input/c/c_seq/act_java.c line 594 function main thread 0
----------------------------------------------------
  cs=25 (00000000000000000000000000011001)

State 351 file input/c/c_seq/act_java.c line 597 function main thread 0
----------------------------------------------------
  pc[2]=25 (00000000000000000000000000011001)

State 352 file input/c/c_seq/act_java.c line 598 function main thread 0
----------------------------------------------------
  active[2]=1 (00000000000000000000000000000001)

State 353 file input/c/c_seq/act_java.c line 599 function main thread 0
----------------------------------------------------
  dead=0 (00000000000000000000000000000000)

State 354 file input/c/c_seq/act_java.c line 602 function main thread 0
----------------------------------------------------
  ct=3 (00000000000000000000000000000011)

State 356 file input/c/c_seq/act_java.c line 604 function main thread 0
----------------------------------------------------
  cs=33 (00000000000000000000000000100001)

State 374 file input/c/c_seq/act_java.c line 441 function t_three thread 0
----------------------------------------------------
  MyClaim=2 (00000000000000000000000000000010)

State 376 file input/c/c_seq/act_java.c line 444 function t_three thread 0
----------------------------------------------------
  y=2 (00000000000000000000000000000010)

State 379 file input/c/c_seq/act_java.c line 456 function t_three thread 0
----------------------------------------------------
  stock=7 (00000000000000000000000000000111)

State 383 file input/c/c_seq/act_java.c line 472 function t_three thread 0
----------------------------------------------------
  FullAllocation=3 (00000000000000000000000000000011)

State 385 file input/c/c_seq/act_java.c line 474 function t_three thread 0
----------------------------------------------------
  i=3 (00000000000000000000000000000011)

State 387 file input/c/c_seq/act_java.c line 476 function t_three thread 0
----------------------------------------------------
  MyClaim=3 (00000000000000000000000000000011)

State 389 file input/c/c_seq/act_java.c line 479 function t_three thread 0
----------------------------------------------------
  y=3 (00000000000000000000000000000011)

State 392 file input/c/c_seq/act_java.c line 491 function t_three thread 0
----------------------------------------------------
  stock=4 (00000000000000000000000000000100)

State 396 file input/c/c_seq/act_java.c line 507 function t_three thread 0
----------------------------------------------------
  FullAllocation=6 (00000000000000000000000000000110)

State 398 file input/c/c_seq/act_java.c line 509 function t_three thread 0
----------------------------------------------------
  i=4 (00000000000000000000000000000100)

State 400 file input/c/c_seq/act_java.c line 511 function t_three thread 0
----------------------------------------------------
  MyClaim=4 (00000000000000000000000000000100)

State 402 file input/c/c_seq/act_java.c line 514 function t_three thread 0
----------------------------------------------------
  y=4 (00000000000000000000000000000100)

State 405 file input/c/c_seq/act_java.c line 526 function t_three thread 0
----------------------------------------------------
  stock=0 (00000000000000000000000000000000)

State 409 file input/c/c_seq/act_java.c line 542 function t_three thread 0
----------------------------------------------------
  FullAllocation=10 (00000000000000000000000000001010)

State 411 file input/c/c_seq/act_java.c line 547 function t_three thread 0
----------------------------------------------------
  y=10 (00000000000000000000000000001010)

State 412 file input/c/c_seq/act_java.c line 548 function t_three thread 0
----------------------------------------------------
  stock=10 (00000000000000000000000000001010)

State 415 file input/c/c_seq/act_java.c line 607 function main thread 0
----------------------------------------------------
  pc[3]=33 (00000000000000000000000000100001)

State 416 file input/c/c_seq/act_java.c line 608 function main thread 0
----------------------------------------------------
  active[3]=0 (00000000000000000000000000000000)

State 417 file input/c/c_seq/act_java.c line 609 function main thread 0
----------------------------------------------------
  dead=1 (00000000000000000000000000000001)

State 420 file input/c/c_seq/act_java.c line 582 function main thread 0
----------------------------------------------------
  ct=1 (00000000000000000000000000000001)

State 422 file input/c/c_seq/act_java.c line 584 function main thread 0
----------------------------------------------------
  cs=24 (00000000000000000000000000011000)

State 454 file input/c/c_seq/act_java.c line 180 function t_one thread 0
----------------------------------------------------
  FullAllocation=6 (00000000000000000000000000000110)

State 466 file input/c/c_seq/act_java.c line 587 function main thread 0
----------------------------------------------------
  pc[1]=24 (00000000000000000000000000011000)

State 467 file input/c/c_seq/act_java.c line 588 function main thread 0
----------------------------------------------------
  active[1]=1 (00000000000000000000000000000001)

State 468 file input/c/c_seq/act_java.c line 589 function main thread 0
----------------------------------------------------
  dead=1 (00000000000000000000000000000001)

State 469 file input/c/c_seq/act_java.c line 592 function main thread 0
----------------------------------------------------
  ct=2 (00000000000000000000000000000010)

State 471 file input/c/c_seq/act_java.c line 594 function main thread 0
----------------------------------------------------
  cs=31 (00000000000000000000000000011111)

State 505 file input/c/c_seq/act_java.c line 348 function t_two thread 0
----------------------------------------------------
  MyClaim=4 (00000000000000000000000000000100)

State 507 file input/c/c_seq/act_java.c line 351 function t_two thread 0
----------------------------------------------------
  y=4 (00000000000000000000000000000100)

State 510 file input/c/c_seq/act_java.c line 363 function t_two thread 0
----------------------------------------------------
  stock=6 (00000000000000000000000000000110)

State 517 file input/c/c_seq/act_java.c line 597 function main thread 0
----------------------------------------------------
  pc[2]=31 (00000000000000000000000000011111)

State 518 file input/c/c_seq/act_java.c line 598 function main thread 0
----------------------------------------------------
  active[2]=1 (00000000000000000000000000000001)

State 519 file input/c/c_seq/act_java.c line 599 function main thread 0
----------------------------------------------------
  dead=1 (00000000000000000000000000000001)

State 520 file input/c/c_seq/act_java.c line 602 function main thread 0
----------------------------------------------------
  ct=3 (00000000000000000000000000000011)

State 524 file input/c/c_seq/act_java.c line 582 function main thread 0
----------------------------------------------------
  ct=1 (00000000000000000000000000000001)

State 526 file input/c/c_seq/act_java.c line 584 function main thread 0
----------------------------------------------------
  cs=31 (00000000000000000000000000011111)

State 559 file input/c/c_seq/act_java.c line 182 function t_one thread 0
----------------------------------------------------
  i=4 (00000000000000000000000000000100)

State 561 file input/c/c_seq/act_java.c line 184 function t_one thread 0
----------------------------------------------------
  MyClaim=4 (00000000000000000000000000000100)

State 563 file input/c/c_seq/act_java.c line 187 function t_one thread 0
----------------------------------------------------
  y=4 (00000000000000000000000000000100)

State 566 file input/c/c_seq/act_java.c line 199 function t_one thread 0
----------------------------------------------------
  stock=2 (00000000000000000000000000000010)

State 573 file input/c/c_seq/act_java.c line 587 function main thread 0
----------------------------------------------------
  pc[1]=31 (00000000000000000000000000011111)

State 574 file input/c/c_seq/act_java.c line 588 function main thread 0
----------------------------------------------------
  active[1]=1 (00000000000000000000000000000001)

State 575 file input/c/c_seq/act_java.c line 589 function main thread 0
----------------------------------------------------
  dead=1 (00000000000000000000000000000001)

State 576 file input/c/c_seq/act_java.c line 592 function main thread 0
----------------------------------------------------
  ct=2 (00000000000000000000000000000010)

State 578 file input/c/c_seq/act_java.c line 594 function main thread 0
----------------------------------------------------
  cs=32 (00000000000000000000000000100000)

State 618 file input/c/c_seq/act_java.c line 379 function t_two thread 0
----------------------------------------------------
  FullAllocation=10 (00000000000000000000000000001010)

State 622 file input/c/c_seq/act_java.c line 597 function main thread 0
----------------------------------------------------
  pc[2]=32 (00000000000000000000000000100000)

State 623 file input/c/c_seq/act_java.c line 598 function main thread 0
----------------------------------------------------
  active[2]=1 (00000000000000000000000000000001)

State 624 file input/c/c_seq/act_java.c line 599 function main thread 0
----------------------------------------------------
  dead=1 (00000000000000000000000000000001)

State 625 file input/c/c_seq/act_java.c line 602 function main thread 0
----------------------------------------------------
  ct=3 (00000000000000000000000000000011)

State 629 file input/c/c_seq/act_java.c line 582 function main thread 0
----------------------------------------------------
  ct=1 (00000000000000000000000000000001)

State 631 file input/c/c_seq/act_java.c line 584 function main thread 0
----------------------------------------------------
  cs=31 (00000000000000000000000000011111)

State 674 file input/c/c_seq/act_java.c line 587 function main thread 0
----------------------------------------------------
  pc[1]=31 (00000000000000000000000000011111)

State 675 file input/c/c_seq/act_java.c line 588 function main thread 0
----------------------------------------------------
  active[1]=1 (00000000000000000000000000000001)

State 676 file input/c/c_seq/act_java.c line 589 function main thread 0
----------------------------------------------------
  dead=1 (00000000000000000000000000000001)

State 677 file input/c/c_seq/act_java.c line 592 function main thread 0
----------------------------------------------------
  ct=2 (00000000000000000000000000000010)

State 679 file input/c/c_seq/act_java.c line 594 function main thread 0
----------------------------------------------------
  cs=32 (00000000000000000000000000100000)

State 722 file input/c/c_seq/act_java.c line 597 function main thread 0
----------------------------------------------------
  pc[2]=32 (00000000000000000000000000100000)

State 723 file input/c/c_seq/act_java.c line 598 function main thread 0
----------------------------------------------------
  active[2]=1 (00000000000000000000000000000001)

State 724 file input/c/c_seq/act_java.c line 599 function main thread 0
----------------------------------------------------
  dead=1 (00000000000000000000000000000001)

State 725 file input/c/c_seq/act_java.c line 602 function main thread 0
----------------------------------------------------
  ct=3 (00000000000000000000000000000011)

State 729 file input/c/c_seq/act_java.c line 582 function main thread 0
----------------------------------------------------
  ct=1 (00000000000000000000000000000001)

State 731 file input/c/c_seq/act_java.c line 584 function main thread 0
----------------------------------------------------
  cs=33 (00000000000000000000000000100001)

State 771 file input/c/c_seq/act_java.c line 215 function t_one thread 0
----------------------------------------------------
  FullAllocation=10 (00000000000000000000000000001010)

State 773 file input/c/c_seq/act_java.c line 220 function t_one thread 0
----------------------------------------------------
  y=10 (00000000000000000000000000001010)

State 774 file input/c/c_seq/act_java.c line 221 function t_one thread 0
----------------------------------------------------
  stock=12 (00000000000000000000000000001100)

State 777 file input/c/c_seq/act_java.c line 587 function main thread 0
----------------------------------------------------
  pc[1]=33 (00000000000000000000000000100001)

State 778 file input/c/c_seq/act_java.c line 588 function main thread 0
----------------------------------------------------
  active[1]=0 (00000000000000000000000000000000)

State 779 file input/c/c_seq/act_java.c line 589 function main thread 0
----------------------------------------------------
  dead=2 (00000000000000000000000000000010)

State 780 file input/c/c_seq/act_java.c line 592 function main thread 0
----------------------------------------------------
  ct=2 (00000000000000000000000000000010)

State 782 file input/c/c_seq/act_java.c line 594 function main thread 0
----------------------------------------------------
  cs=32 (00000000000000000000000000100000)

State 825 file input/c/c_seq/act_java.c line 597 function main thread 0
----------------------------------------------------
  pc[2]=32 (00000000000000000000000000100000)

State 826 file input/c/c_seq/act_java.c line 598 function main thread 0
----------------------------------------------------
  active[2]=1 (00000000000000000000000000000001)

State 827 file input/c/c_seq/act_java.c line 599 function main thread 0
----------------------------------------------------
  dead=2 (00000000000000000000000000000010)

State 828 file input/c/c_seq/act_java.c line 602 function main thread 0
----------------------------------------------------
  ct=3 (00000000000000000000000000000011)

State 833 file input/c/c_seq/act_java.c line 582 function main thread 0
----------------------------------------------------
  ct=1 (00000000000000000000000000000001)

State 835 file input/c/c_seq/act_java.c line 592 function main thread 0
----------------------------------------------------
  ct=2 (00000000000000000000000000000010)

State 837 file input/c/c_seq/act_java.c line 594 function main thread 0
----------------------------------------------------
  cs=33 (00000000000000000000000000100001)

State 878 file input/c/c_seq/act_java.c line 384 function t_two thread 0
----------------------------------------------------
  y=10 (00000000000000000000000000001010)

State 879 file input/c/c_seq/act_java.c line 385 function t_two thread 0
----------------------------------------------------
  stock=22 (00000000000000000000000000010110)

State 882 file input/c/c_seq/act_java.c line 597 function main thread 0
----------------------------------------------------
  pc[2]=33 (00000000000000000000000000100001)

State 883 file input/c/c_seq/act_java.c line 598 function main thread 0
----------------------------------------------------
  active[2]=0 (00000000000000000000000000000000)

State 884 file input/c/c_seq/act_java.c line 599 function main thread 0
----------------------------------------------------
  dead=3 (00000000000000000000000000000011)

State 885 file input/c/c_seq/act_java.c line 602 function main thread 0
----------------------------------------------------
  ct=3 (00000000000000000000000000000011)

Violated property:
  file input/c/c_seq/act_java.c line 613 function main
  OK
  0 != 0

VERIFICATION FAILED

real	0m20.147s
user	0m19.925s
sys	0m0.203s
