CBMC version 5.4 64-bit x86_64 macos
Parsing input/c/c_seq/act_java.c
Converting
Type-checking act_java
file input/c/c_seq/act_java.c line 584 function main: function `nondet_uint' is not declared
Generating GOTO Program
Adding CPROVER library (x86_64)
Function Pointer Removal
Partial Inlining
Generic Property Instrumentation
Starting Bounded Model Checking
Unwinding loop main.0 iteration 1 (21 max) file input/c/c_seq/act_java.c line 581 function main thread 0
Unwinding loop main.0 iteration 2 (21 max) file input/c/c_seq/act_java.c line 581 function main thread 0
Unwinding loop main.0 iteration 3 (21 max) file input/c/c_seq/act_java.c line 581 function main thread 0
Unwinding loop main.0 iteration 4 (21 max) file input/c/c_seq/act_java.c line 581 function main thread 0
Unwinding loop main.0 iteration 5 (21 max) file input/c/c_seq/act_java.c line 581 function main thread 0
Unwinding loop main.0 iteration 6 (21 max) file input/c/c_seq/act_java.c line 581 function main thread 0
Unwinding loop main.0 iteration 7 (21 max) file input/c/c_seq/act_java.c line 581 function main thread 0
Unwinding loop main.0 iteration 8 (21 max) file input/c/c_seq/act_java.c line 581 function main thread 0
Unwinding loop main.0 iteration 9 (21 max) file input/c/c_seq/act_java.c line 581 function main thread 0
Unwinding loop main.0 iteration 10 (21 max) file input/c/c_seq/act_java.c line 581 function main thread 0
Unwinding loop main.0 iteration 11 (21 max) file input/c/c_seq/act_java.c line 581 function main thread 0
Unwinding loop main.0 iteration 12 (21 max) file input/c/c_seq/act_java.c line 581 function main thread 0
Unwinding loop main.0 iteration 13 (21 max) file input/c/c_seq/act_java.c line 581 function main thread 0
Unwinding loop main.0 iteration 14 (21 max) file input/c/c_seq/act_java.c line 581 function main thread 0
Unwinding loop main.0 iteration 15 (21 max) file input/c/c_seq/act_java.c line 581 function main thread 0
Unwinding loop main.0 iteration 16 (21 max) file input/c/c_seq/act_java.c line 581 function main thread 0
Unwinding loop main.0 iteration 17 (21 max) file input/c/c_seq/act_java.c line 581 function main thread 0
Unwinding loop main.0 iteration 18 (21 max) file input/c/c_seq/act_java.c line 581 function main thread 0
Unwinding loop main.0 iteration 19 (21 max) file input/c/c_seq/act_java.c line 581 function main thread 0
Unwinding loop main.0 iteration 20 (21 max) file input/c/c_seq/act_java.c line 581 function main thread 0
Not unwinding loop main.0 iteration 21 (21 max) file input/c/c_seq/act_java.c line 581 function main thread 0
size of program expression: 19989 steps
simple slicing removed 3 assignments
Generated 525 VCC(s), 525 remaining after simplification
Passing problem to propositional reduction
converting SSA
Running propositional reduction
Post-processing
Solving with MiniSAT 2.2.1 with simplifier
641569 variables, 2959176 clauses
SAT checker: instance is SATISFIABLE
Runtime decision procedure: 121.784s
Building error trace

Counterexample:

State 41 file input/c/c_seq/act_java.c line 560 function init thread 0
----------------------------------------------------
  pc[0]=0 (00000000000000000000000000000000)

State 42 file input/c/c_seq/act_java.c line 561 function init thread 0
----------------------------------------------------
  size[0]=0 (00000000000000000000000000000000)

State 43 file input/c/c_seq/act_java.c line 563 function init thread 0
----------------------------------------------------
  pc[1]=0 (00000000000000000000000000000000)

State 44 file input/c/c_seq/act_java.c line 564 function init thread 0
----------------------------------------------------
  pc[2]=0 (00000000000000000000000000000000)

State 45 file input/c/c_seq/act_java.c line 565 function init thread 0
----------------------------------------------------
  pc[3]=0 (00000000000000000000000000000000)

State 46 file input/c/c_seq/act_java.c line 566 function init thread 0
----------------------------------------------------
  ssize=0 (00000000000000000000000000000000)

State 47 file input/c/c_seq/act_java.c line 566 function init thread 0
----------------------------------------------------
  ssize=33 (00000000000000000000000000100001)

State 48 file input/c/c_seq/act_java.c line 567 function init thread 0
----------------------------------------------------
  size[1]=33 (00000000000000000000000000100001)

State 49 file input/c/c_seq/act_java.c line 568 function init thread 0
----------------------------------------------------
  size[2]=33 (00000000000000000000000000100001)

State 50 file input/c/c_seq/act_java.c line 569 function init thread 0
----------------------------------------------------
  size[3]=33 (00000000000000000000000000100001)

State 51 file input/c/c_seq/act_java.c line 571 function init thread 0
----------------------------------------------------
  t1=0 (00000000000000000000000000000000)

State 52 file input/c/c_seq/act_java.c line 571 function init thread 0
----------------------------------------------------
  t2=0 (00000000000000000000000000000000)

State 53 file input/c/c_seq/act_java.c line 571 function init thread 0
----------------------------------------------------
  t3=0 (00000000000000000000000000000000)

State 56 file input/c/c_seq/act_java.c line 573 function init thread 0
----------------------------------------------------
  t=0 (00000000000000000000000000000000)

State 57 file input/c/c_seq/act_java.c line 573 function init thread 0
----------------------------------------------------
  id=1 (00000000000000000000000000000001)

State 58 file input/c/c_seq/act_java.c line 21 function create thread 0
----------------------------------------------------
  active[1]=1 (00000000000000000000000000000001)

State 59 file input/c/c_seq/act_java.c line 22 function create thread 0
----------------------------------------------------
  t=1 (00000000000000000000000000000001)

State 63 file input/c/c_seq/act_java.c line 574 function init thread 0
----------------------------------------------------
  t=0 (00000000000000000000000000000000)

State 64 file input/c/c_seq/act_java.c line 574 function init thread 0
----------------------------------------------------
  id=2 (00000000000000000000000000000010)

State 65 file input/c/c_seq/act_java.c line 21 function create thread 0
----------------------------------------------------
  active[2]=1 (00000000000000000000000000000001)

State 66 file input/c/c_seq/act_java.c line 22 function create thread 0
----------------------------------------------------
  t=2 (00000000000000000000000000000010)

State 70 file input/c/c_seq/act_java.c line 575 function init thread 0
----------------------------------------------------
  t=0 (00000000000000000000000000000000)

State 71 file input/c/c_seq/act_java.c line 575 function init thread 0
----------------------------------------------------
  id=3 (00000000000000000000000000000011)

State 72 file input/c/c_seq/act_java.c line 21 function create thread 0
----------------------------------------------------
  active[3]=1 (00000000000000000000000000000001)

State 73 file input/c/c_seq/act_java.c line 22 function create thread 0
----------------------------------------------------
  t=3 (00000000000000000000000000000011)

State 76 file input/c/c_seq/act_java.c line 582 function main thread 0
----------------------------------------------------
  ct=1 (00000000000000000000000000000001)

State 78 file input/c/c_seq/act_java.c line 584 function main thread 0
----------------------------------------------------
  cs=33 (00000000000000000000000000100001)

State 87 file input/c/c_seq/act_java.c line 77 function t_one thread 0
----------------------------------------------------
  i=1 (00000000000000000000000000000001)

State 89 file input/c/c_seq/act_java.c line 79 function t_one thread 0
----------------------------------------------------
  MyClaim=1 (00000000000000000000000000000001)

State 91 file input/c/c_seq/act_java.c line 82 function t_one thread 0
----------------------------------------------------
  y=1 (00000000000000000000000000000001)

State 94 file input/c/c_seq/act_java.c line 94 function t_one thread 0
----------------------------------------------------
  stock=21 (00000000000000000000000000010101)

State 98 file input/c/c_seq/act_java.c line 110 function t_one thread 0
----------------------------------------------------
  FullAllocation=1 (00000000000000000000000000000001)

State 100 file input/c/c_seq/act_java.c line 112 function t_one thread 0
----------------------------------------------------
  i=2 (00000000000000000000000000000010)

State 102 file input/c/c_seq/act_java.c line 114 function t_one thread 0
----------------------------------------------------
  MyClaim=2 (00000000000000000000000000000010)

State 104 file input/c/c_seq/act_java.c line 117 function t_one thread 0
----------------------------------------------------
  y=2 (00000000000000000000000000000010)

State 107 file input/c/c_seq/act_java.c line 129 function t_one thread 0
----------------------------------------------------
  stock=19 (00000000000000000000000000010011)

State 111 file input/c/c_seq/act_java.c line 145 function t_one thread 0
----------------------------------------------------
  FullAllocation=3 (00000000000000000000000000000011)

State 113 file input/c/c_seq/act_java.c line 147 function t_one thread 0
----------------------------------------------------
  i=3 (00000000000000000000000000000011)

State 115 file input/c/c_seq/act_java.c line 149 function t_one thread 0
----------------------------------------------------
  MyClaim=3 (00000000000000000000000000000011)

State 117 file input/c/c_seq/act_java.c line 152 function t_one thread 0
----------------------------------------------------
  y=3 (00000000000000000000000000000011)

State 120 file input/c/c_seq/act_java.c line 164 function t_one thread 0
----------------------------------------------------
  stock=16 (00000000000000000000000000010000)

State 124 file input/c/c_seq/act_java.c line 180 function t_one thread 0
----------------------------------------------------
  FullAllocation=6 (00000000000000000000000000000110)

State 126 file input/c/c_seq/act_java.c line 182 function t_one thread 0
----------------------------------------------------
  i=4 (00000000000000000000000000000100)

State 128 file input/c/c_seq/act_java.c line 184 function t_one thread 0
----------------------------------------------------
  MyClaim=4 (00000000000000000000000000000100)

State 130 file input/c/c_seq/act_java.c line 187 function t_one thread 0
----------------------------------------------------
  y=4 (00000000000000000000000000000100)

State 133 file input/c/c_seq/act_java.c line 199 function t_one thread 0
----------------------------------------------------
  stock=12 (00000000000000000000000000001100)

State 137 file input/c/c_seq/act_java.c line 215 function t_one thread 0
----------------------------------------------------
  FullAllocation=10 (00000000000000000000000000001010)

State 139 file input/c/c_seq/act_java.c line 220 function t_one thread 0
----------------------------------------------------
  y=10 (00000000000000000000000000001010)

State 140 file input/c/c_seq/act_java.c line 221 function t_one thread 0
----------------------------------------------------
  stock=22 (00000000000000000000000000010110)

State 143 file input/c/c_seq/act_java.c line 587 function main thread 0
----------------------------------------------------
  pc[1]=33 (00000000000000000000000000100001)

State 144 file input/c/c_seq/act_java.c line 588 function main thread 0
----------------------------------------------------
  active[1]=0 (00000000000000000000000000000000)

State 145 file input/c/c_seq/act_java.c line 589 function main thread 0
----------------------------------------------------
  dead=1 (00000000000000000000000000000001)

State 146 file input/c/c_seq/act_java.c line 592 function main thread 0
----------------------------------------------------
  ct=2 (00000000000000000000000000000010)

State 148 file input/c/c_seq/act_java.c line 594 function main thread 0
----------------------------------------------------
  cs=33 (00000000000000000000000000100001)

State 157 file input/c/c_seq/act_java.c line 241 function t_two thread 0
----------------------------------------------------
  i=1 (00000000000000000000000000000001)

State 159 file input/c/c_seq/act_java.c line 243 function t_two thread 0
----------------------------------------------------
  MyClaim=1 (00000000000000000000000000000001)

State 161 file input/c/c_seq/act_java.c line 246 function t_two thread 0
----------------------------------------------------
  y=1 (00000000000000000000000000000001)

State 164 file input/c/c_seq/act_java.c line 258 function t_two thread 0
----------------------------------------------------
  stock=21 (00000000000000000000000000010101)

State 168 file input/c/c_seq/act_java.c line 274 function t_two thread 0
----------------------------------------------------
  FullAllocation=1 (00000000000000000000000000000001)

State 170 file input/c/c_seq/act_java.c line 276 function t_two thread 0
----------------------------------------------------
  i=2 (00000000000000000000000000000010)

State 172 file input/c/c_seq/act_java.c line 278 function t_two thread 0
----------------------------------------------------
  MyClaim=2 (00000000000000000000000000000010)

State 174 file input/c/c_seq/act_java.c line 281 function t_two thread 0
----------------------------------------------------
  y=2 (00000000000000000000000000000010)

State 177 file input/c/c_seq/act_java.c line 293 function t_two thread 0
----------------------------------------------------
  stock=19 (00000000000000000000000000010011)

State 181 file input/c/c_seq/act_java.c line 309 function t_two thread 0
----------------------------------------------------
  FullAllocation=3 (00000000000000000000000000000011)

State 183 file input/c/c_seq/act_java.c line 311 function t_two thread 0
----------------------------------------------------
  i=3 (00000000000000000000000000000011)

State 185 file input/c/c_seq/act_java.c line 313 function t_two thread 0
----------------------------------------------------
  MyClaim=3 (00000000000000000000000000000011)

State 187 file input/c/c_seq/act_java.c line 316 function t_two thread 0
----------------------------------------------------
  y=3 (00000000000000000000000000000011)

State 190 file input/c/c_seq/act_java.c line 328 function t_two thread 0
----------------------------------------------------
  stock=16 (00000000000000000000000000010000)

State 194 file input/c/c_seq/act_java.c line 344 function t_two thread 0
----------------------------------------------------
  FullAllocation=6 (00000000000000000000000000000110)

State 196 file input/c/c_seq/act_java.c line 346 function t_two thread 0
----------------------------------------------------
  i=4 (00000000000000000000000000000100)

State 198 file input/c/c_seq/act_java.c line 348 function t_two thread 0
----------------------------------------------------
  MyClaim=4 (00000000000000000000000000000100)

State 200 file input/c/c_seq/act_java.c line 351 function t_two thread 0
----------------------------------------------------
  y=4 (00000000000000000000000000000100)

State 203 file input/c/c_seq/act_java.c line 363 function t_two thread 0
----------------------------------------------------
  stock=12 (00000000000000000000000000001100)

State 207 file input/c/c_seq/act_java.c line 379 function t_two thread 0
----------------------------------------------------
  FullAllocation=10 (00000000000000000000000000001010)

State 209 file input/c/c_seq/act_java.c line 384 function t_two thread 0
----------------------------------------------------
  y=10 (00000000000000000000000000001010)

State 210 file input/c/c_seq/act_java.c line 385 function t_two thread 0
----------------------------------------------------
  stock=22 (00000000000000000000000000010110)

State 213 file input/c/c_seq/act_java.c line 597 function main thread 0
----------------------------------------------------
  pc[2]=33 (00000000000000000000000000100001)

State 214 file input/c/c_seq/act_java.c line 598 function main thread 0
----------------------------------------------------
  active[2]=0 (00000000000000000000000000000000)

State 215 file input/c/c_seq/act_java.c line 599 function main thread 0
----------------------------------------------------
  dead=2 (00000000000000000000000000000010)

State 216 file input/c/c_seq/act_java.c line 602 function main thread 0
----------------------------------------------------
  ct=3 (00000000000000000000000000000011)

State 218 file input/c/c_seq/act_java.c line 604 function main thread 0
----------------------------------------------------
  cs=33 (00000000000000000000000000100001)

State 227 file input/c/c_seq/act_java.c line 404 function t_three thread 0
----------------------------------------------------
  i=1 (00000000000000000000000000000001)

State 229 file input/c/c_seq/act_java.c line 406 function t_three thread 0
----------------------------------------------------
  MyClaim=1 (00000000000000000000000000000001)

State 231 file input/c/c_seq/act_java.c line 409 function t_three thread 0
----------------------------------------------------
  y=1 (00000000000000000000000000000001)

State 234 file input/c/c_seq/act_java.c line 421 function t_three thread 0
----------------------------------------------------
  stock=21 (00000000000000000000000000010101)

State 238 file input/c/c_seq/act_java.c line 437 function t_three thread 0
----------------------------------------------------
  FullAllocation=1 (00000000000000000000000000000001)

State 240 file input/c/c_seq/act_java.c line 439 function t_three thread 0
----------------------------------------------------
  i=2 (00000000000000000000000000000010)

State 242 file input/c/c_seq/act_java.c line 441 function t_three thread 0
----------------------------------------------------
  MyClaim=2 (00000000000000000000000000000010)

State 244 file input/c/c_seq/act_java.c line 444 function t_three thread 0
----------------------------------------------------
  y=2 (00000000000000000000000000000010)

State 247 file input/c/c_seq/act_java.c line 456 function t_three thread 0
----------------------------------------------------
  stock=19 (00000000000000000000000000010011)

State 251 file input/c/c_seq/act_java.c line 472 function t_three thread 0
----------------------------------------------------
  FullAllocation=3 (00000000000000000000000000000011)

State 253 file input/c/c_seq/act_java.c line 474 function t_three thread 0
----------------------------------------------------
  i=3 (00000000000000000000000000000011)

State 255 file input/c/c_seq/act_java.c line 476 function t_three thread 0
----------------------------------------------------
  MyClaim=3 (00000000000000000000000000000011)

State 257 file input/c/c_seq/act_java.c line 479 function t_three thread 0
----------------------------------------------------
  y=3 (00000000000000000000000000000011)

State 260 file input/c/c_seq/act_java.c line 491 function t_three thread 0
----------------------------------------------------
  stock=16 (00000000000000000000000000010000)

State 264 file input/c/c_seq/act_java.c line 507 function t_three thread 0
----------------------------------------------------
  FullAllocation=6 (00000000000000000000000000000110)

State 266 file input/c/c_seq/act_java.c line 509 function t_three thread 0
----------------------------------------------------
  i=4 (00000000000000000000000000000100)

State 268 file input/c/c_seq/act_java.c line 511 function t_three thread 0
----------------------------------------------------
  MyClaim=4 (00000000000000000000000000000100)

State 270 file input/c/c_seq/act_java.c line 514 function t_three thread 0
----------------------------------------------------
  y=4 (00000000000000000000000000000100)

State 273 file input/c/c_seq/act_java.c line 526 function t_three thread 0
----------------------------------------------------
  stock=12 (00000000000000000000000000001100)

State 277 file input/c/c_seq/act_java.c line 542 function t_three thread 0
----------------------------------------------------
  FullAllocation=10 (00000000000000000000000000001010)

State 279 file input/c/c_seq/act_java.c line 547 function t_three thread 0
----------------------------------------------------
  y=10 (00000000000000000000000000001010)

State 280 file input/c/c_seq/act_java.c line 548 function t_three thread 0
----------------------------------------------------
  stock=22 (00000000000000000000000000010110)

State 283 file input/c/c_seq/act_java.c line 607 function main thread 0
----------------------------------------------------
  pc[3]=33 (00000000000000000000000000100001)

State 284 file input/c/c_seq/act_java.c line 608 function main thread 0
----------------------------------------------------
  active[3]=0 (00000000000000000000000000000000)

State 285 file input/c/c_seq/act_java.c line 609 function main thread 0
----------------------------------------------------
  dead=3 (00000000000000000000000000000011)

Violated property:
  file input/c/c_seq/act_java.c line 613 function main
  OK
  0 != 0

VERIFICATION FAILED

real	2m25.820s
user	2m25.421s
sys	0m0.373s
