act;MiniSAT-2.2.1;5;KO;440.039;46928;1122554;4549833
act;MiniSAT-2.2.1;4;KO;172.042;39103;932336;3743123
act;MiniSAT-2.2.1;3;KO;186.766;31278;742118;2949733
act;Yices;4;unknown;700.151;39103;0;0
act;Glucose-Syrup;3;KO;245.021;31278;742118;2949733
act;Glucose-Syrup;4;KO;364.711;39103;932336;3743123
act;MiniSAT-2.2.1;7;unknown;700.048;62578;1502990;6203213
act;Yices;5;unknown;700.242;46928;0;0
act;Glucose-Syrup;5;KO;547.526;46928;1122554;4549833
act;Yices;3;unknown;700.099;31278;0;0
act;MiniSAT-2.2.1;6;KO;591.769;54753;1312772;5369863
