p;MiniSAT-2.2.1;8;KO;0.507;1615;23287;89872
p;MiniSAT-2.2.1;5;KO;0.398;1105;15118;57664
p;MiniSAT-2.2.1;4;KO;0.347;935;12395;46980
p;Yices;6;KO;0.568;1275;0;0
p;MiniSAT-2.2.1;3;KO;0.305;765;9672;36322
p;Yices;4;KO;0.370;935;0;0
p;Glucose-Syrup;3;KO;0.324;765;9672;36322
p;Yices;8;KO;0.921;1615;0;0
p;Glucose-Syrup;7;KO;0.493;1445;20564;79110
p;Yices;7;KO;0.811;1445;0;0
p;Glucose-Syrup;8;KO;0.545;1615;23287;89872
p;Glucose-Syrup;6;KO;0.452;1275;17841;68374
p;Glucose-Syrup;4;KO;0.363;935;12395;46980
p;MiniSAT-2.2.1;7;KO;0.463;1445;20564;79110
p;Yices;5;KO;0.498;1105;0;0
p;Glucose-Syrup;5;KO;0.453;1105;15118;57664
p;Yices;3;KO;0.348;765;0;0
p;MiniSAT-2.2.1;6;KO;0.424;1275;17841;68374
