act_ko;Glucose-Syrup;9;TimeOut;700.077;80861;1919722;8038368
act_ko;Glucose-Syrup;10;TimeOut;700.081;88949;2113836;8920882
act_ko;Glucose-Syrup;3;OK;142.877;32333;755908;3008247
act_ko;Glucose-Syrup;4;KO;214.405;40421;949772;3815048
act_ko;Glucose-Syrup;5;OK;274.053;48509;1143678;4634470
act_ko;Glucose-Syrup;6;TimeOut;700.050;56597;1337626;5466513
act_ko;Glucose-Syrup;7;TimeOut;700.057;64685;1531616;6311177
act_ko;Glucose-Syrup;8;TimeOut;700.065;72773;1725648;7168462
act_ko;MiniSAT-2.2.1;9;TimeOut;700.077;80861;1919722;8038368
act_ko;MiniSAT-2.2.1;10;TimeOut;700.067;88949;2113836;8920882
act_ko;MiniSAT-2.2.1;3;KO;105.192;32333;755908;3008247
act_ko;MiniSAT-2.2.1;4;KO;250.905;40421;949772;3815048
act_ko;MiniSAT-2.2.1;5;KO;391.087;48509;1143678;4634470
act_ko;MiniSAT-2.2.1;6;KO;612.932;56597;1337626;5466513
act_ko;MiniSAT-2.2.1;7;TimeOut;700.074;64685;1531616;6311177
act_ko;MiniSAT-2.2.1;8;TimeOut;700.057;72773;1725648;7168462
