po;Glucose-Syrup;9;OK;2.056;5533;92617;347066
po;Glucose-Syrup;10;OK;2.320;6084;102593;386398
po;Glucose-Syrup;3;OK;0.596;2227;33181;118067
po;Glucose-Syrup;4;OK;0.819;2778;43037;155401
po;Glucose-Syrup;5;OK;0.965;3329;52913;193068
po;Glucose-Syrup;6;OK;1.246;3880;62809;231068
po;Glucose-Syrup;7;OK;1.459;4431;72725;269401
po;Glucose-Syrup;8;OK;1.666;4982;82661;308067
po;MiniSAT-2.2.1;9;OK;2.030;5533;92617;347066
po;MiniSAT-2.2.1;10;OK;2.328;6084;102593;386398
po;MiniSAT-2.2.1;3;OK;0.581;2227;33181;118067
po;MiniSAT-2.2.1;4;OK;0.744;2778;43037;155401
po;MiniSAT-2.2.1;5;OK;0.922;3329;52913;193068
po;MiniSAT-2.2.1;6;OK;1.181;3880;62809;231068
po;MiniSAT-2.2.1;7;OK;1.457;4431;72725;269401
po;MiniSAT-2.2.1;8;OK;1.753;4982;82661;308067
po;Yices;9;OK;13.336;5533;0;0
po;Yices;10;OK;17.839;6084;0;0
po;Yices;3;OK;1.290;2227;0;0
po;Yices;4;OK;1.535;2778;0;0
po;Yices;5;OK;3.175;3329;0;0
po;Yices;6;OK;4.778;3880;0;0
po;Yices;7;OK;10.287;4431;0;0
po;Yices;8;OK;10.868;4982;0;0
