CBMC version 5.4 64-bit x86_64 linux
Parsing input/c/c_seq/p4.c
Converting
Type-checking p4
file input/c/c_seq/p4.c line 899 function main: function `nondet_uint' is not declared
Generating GOTO Program
Adding CPROVER library (x86_64)
Function Pointer Removal
Partial Inlining
Generic Property Instrumentation
Starting Bounded Model Checking
Unwinding loop main.0 iteration 1 (4 max) file input/c/c_seq/p4.c line 896 function main thread 0
Unwinding loop main.0 iteration 2 (4 max) file input/c/c_seq/p4.c line 896 function main thread 0
Unwinding loop main.0 iteration 3 (4 max) file input/c/c_seq/p4.c line 896 function main thread 0
Not unwinding loop main.0 iteration 4 (4 max) file input/c/c_seq/p4.c line 896 function main thread 0
size of program expression: 8181 steps
simple slicing removed 3 assignments
Generated 3 VCC(s), 3 remaining after simplification
Passing problem to propositional reduction
converting SSA
Running propositional reduction
Post-processing
Solving with Glucose Syrup with simplifier
142907 variables, 594960 clauses
SAT checker: instance is SATISFIABLE
Runtime decision procedure: 4.684s
Building error trace

Counterexample:

State 48 file input/c/c_seq/p4.c line 871 function init thread 0
----------------------------------------------------
  pc[0]=0 (00000000000000000000000000000000)

State 49 file input/c/c_seq/p4.c line 872 function init thread 0
----------------------------------------------------
  size[0]=0 (00000000000000000000000000000000)

State 50 file input/c/c_seq/p4.c line 874 function init thread 0
----------------------------------------------------
  pc[1]=0 (00000000000000000000000000000000)

State 51 file input/c/c_seq/p4.c line 875 function init thread 0
----------------------------------------------------
  pc[2]=0 (00000000000000000000000000000000)

State 52 file input/c/c_seq/p4.c line 876 function init thread 0
----------------------------------------------------
  pc[3]=0 (00000000000000000000000000000000)

State 53 file input/c/c_seq/p4.c line 877 function init thread 0
----------------------------------------------------
  pc[4]=0 (00000000000000000000000000000000)

State 54 file input/c/c_seq/p4.c line 879 function init thread 0
----------------------------------------------------
  size[0]=4 (00000000000000000000000000000100)

State 55 file input/c/c_seq/p4.c line 880 function init thread 0
----------------------------------------------------
  size[1]=59 (00000000000000000000000000111011)

State 56 file input/c/c_seq/p4.c line 881 function init thread 0
----------------------------------------------------
  size[2]=59 (00000000000000000000000000111011)

State 57 file input/c/c_seq/p4.c line 882 function init thread 0
----------------------------------------------------
  size[3]=59 (00000000000000000000000000111011)

State 58 file input/c/c_seq/p4.c line 883 function init thread 0
----------------------------------------------------
  size[4]=59 (00000000000000000000000000111011)

State 59 file input/c/c_seq/p4.c line 885 function init thread 0
----------------------------------------------------
  t1=0 (00000000000000000000000000000000)

State 60 file input/c/c_seq/p4.c line 885 function init thread 0
----------------------------------------------------
  t2=0 (00000000000000000000000000000000)

State 61 file input/c/c_seq/p4.c line 885 function init thread 0
----------------------------------------------------
  t3=0 (00000000000000000000000000000000)

State 62 file input/c/c_seq/p4.c line 885 function init thread 0
----------------------------------------------------
  t4=0 (00000000000000000000000000000000)

State 63 file input/c/c_seq/p4.c line 885 function init thread 0
----------------------------------------------------
  t5=0 (00000000000000000000000000000000)

State 64 file input/c/c_seq/p4.c line 885 function init thread 0
----------------------------------------------------
  t6=0 (00000000000000000000000000000000)

State 67 file input/c/c_seq/p4.c line 887 function init thread 0
----------------------------------------------------
  t=0 (00000000000000000000000000000000)

State 68 file input/c/c_seq/p4.c line 887 function init thread 0
----------------------------------------------------
  id=1 (00000000000000000000000000000001)

State 69 file input/c/c_seq/p4.c line 20 function create thread 0
----------------------------------------------------
  active[1]=1 (00000000000000000000000000000001)

State 70 file input/c/c_seq/p4.c line 21 function create thread 0
----------------------------------------------------
  t=1 (00000000000000000000000000000001)

State 74 file input/c/c_seq/p4.c line 888 function init thread 0
----------------------------------------------------
  t=0 (00000000000000000000000000000000)

State 75 file input/c/c_seq/p4.c line 888 function init thread 0
----------------------------------------------------
  id=2 (00000000000000000000000000000010)

State 76 file input/c/c_seq/p4.c line 20 function create thread 0
----------------------------------------------------
  active[2]=1 (00000000000000000000000000000001)

State 77 file input/c/c_seq/p4.c line 21 function create thread 0
----------------------------------------------------
  t=2 (00000000000000000000000000000010)

State 81 file input/c/c_seq/p4.c line 889 function init thread 0
----------------------------------------------------
  t=0 (00000000000000000000000000000000)

State 82 file input/c/c_seq/p4.c line 889 function init thread 0
----------------------------------------------------
  id=3 (00000000000000000000000000000011)

State 83 file input/c/c_seq/p4.c line 20 function create thread 0
----------------------------------------------------
  active[3]=1 (00000000000000000000000000000001)

State 84 file input/c/c_seq/p4.c line 21 function create thread 0
----------------------------------------------------
  t=3 (00000000000000000000000000000011)

State 88 file input/c/c_seq/p4.c line 890 function init thread 0
----------------------------------------------------
  t=0 (00000000000000000000000000000000)

State 89 file input/c/c_seq/p4.c line 890 function init thread 0
----------------------------------------------------
  id=4 (00000000000000000000000000000100)

State 90 file input/c/c_seq/p4.c line 20 function create thread 0
----------------------------------------------------
  active[4]=1 (00000000000000000000000000000001)

State 91 file input/c/c_seq/p4.c line 21 function create thread 0
----------------------------------------------------
  t=4 (00000000000000000000000000000100)

State 94 file input/c/c_seq/p4.c line 897 function main thread 0
----------------------------------------------------
  ct=1 (00000000000000000000000000000001)

State 96 file input/c/c_seq/p4.c line 899 function main thread 0
----------------------------------------------------
  cs=35 (00000000000000000000000000100011)

State 105 file input/c/c_seq/p4.c line 37 function t_one thread 0
----------------------------------------------------
  i=1 (00000000000000000000000000000001)

State 107 file input/c/c_seq/p4.c line 39 function t_one thread 0
----------------------------------------------------
  flag[1]=1 (00000000000000000000000000000001)

State 109 file input/c/c_seq/p4.c line 41 function t_one thread 0
----------------------------------------------------
  turn[1]=1 (00000000000000000000000000000001)

State 111 file input/c/c_seq/p4.c line 45 function t_one thread 0
----------------------------------------------------
  wait=0 (00000000000000000000000000000000)

State 113 file input/c/c_seq/p4.c line 48 function t_one thread 0
----------------------------------------------------
  j=1 (00000000000000000000000000000001)

State 118 file input/c/c_seq/p4.c line 58 function t_one thread 0
----------------------------------------------------
  j=2 (00000000000000000000000000000010)

State 125 file input/c/c_seq/p4.c line 62 function t_one thread 0
----------------------------------------------------
  wait=0 (00000000000000000000000000000000)

State 128 file input/c/c_seq/p4.c line 68 function t_one thread 0
----------------------------------------------------
  j=3 (00000000000000000000000000000011)

State 135 file input/c/c_seq/p4.c line 72 function t_one thread 0
----------------------------------------------------
  wait=0 (00000000000000000000000000000000)

State 138 file input/c/c_seq/p4.c line 78 function t_one thread 0
----------------------------------------------------
  j=4 (00000000000000000000000000000100)

State 145 file input/c/c_seq/p4.c line 82 function t_one thread 0
----------------------------------------------------
  wait=0 (00000000000000000000000000000000)

State 150 file input/c/c_seq/p4.c line 97 function t_one thread 0
----------------------------------------------------
  i=2 (00000000000000000000000000000010)

State 152 file input/c/c_seq/p4.c line 99 function t_one thread 0
----------------------------------------------------
  flag[1]=2 (00000000000000000000000000000010)

State 154 file input/c/c_seq/p4.c line 101 function t_one thread 0
----------------------------------------------------
  turn[2]=1 (00000000000000000000000000000001)

State 156 file input/c/c_seq/p4.c line 105 function t_one thread 0
----------------------------------------------------
  wait=0 (00000000000000000000000000000000)

State 158 file input/c/c_seq/p4.c line 108 function t_one thread 0
----------------------------------------------------
  j=1 (00000000000000000000000000000001)

State 163 file input/c/c_seq/p4.c line 118 function t_one thread 0
----------------------------------------------------
  j=2 (00000000000000000000000000000010)

State 170 file input/c/c_seq/p4.c line 122 function t_one thread 0
----------------------------------------------------
  wait=0 (00000000000000000000000000000000)

State 173 file input/c/c_seq/p4.c line 128 function t_one thread 0
----------------------------------------------------
  j=3 (00000000000000000000000000000011)

State 180 file input/c/c_seq/p4.c line 132 function t_one thread 0
----------------------------------------------------
  wait=0 (00000000000000000000000000000000)

State 183 file input/c/c_seq/p4.c line 138 function t_one thread 0
----------------------------------------------------
  j=4 (00000000000000000000000000000100)

State 190 file input/c/c_seq/p4.c line 142 function t_one thread 0
----------------------------------------------------
  wait=0 (00000000000000000000000000000000)

State 195 file input/c/c_seq/p4.c line 157 function t_one thread 0
----------------------------------------------------
  i=3 (00000000000000000000000000000011)

State 222 file input/c/c_seq/p4.c line 902 function main thread 0
----------------------------------------------------
  pc[1]=35 (00000000000000000000000000100011)

State 223 file input/c/c_seq/p4.c line 903 function main thread 0
----------------------------------------------------
  active[1]=1 (00000000000000000000000000000001)

State 224 file input/c/c_seq/p4.c line 906 function main thread 0
----------------------------------------------------
  ct=2 (00000000000000000000000000000010)

State 226 file input/c/c_seq/p4.c line 908 function main thread 0
----------------------------------------------------
  cs=6 (00000000000000000000000000000110)

State 235 file input/c/c_seq/p4.c line 252 function t_two thread 0
----------------------------------------------------
  i=1 (00000000000000000000000000000001)

State 237 file input/c/c_seq/p4.c line 254 function t_two thread 0
----------------------------------------------------
  flag[2]=1 (00000000000000000000000000000001)

State 239 file input/c/c_seq/p4.c line 256 function t_two thread 0
----------------------------------------------------
  turn[1]=2 (00000000000000000000000000000010)

State 241 file input/c/c_seq/p4.c line 260 function t_two thread 0
----------------------------------------------------
  wait=0 (00000000000000000000000000000000)

State 243 file input/c/c_seq/p4.c line 263 function t_two thread 0
----------------------------------------------------
  j=1 (00000000000000000000000000000001)

State 301 file input/c/c_seq/p4.c line 911 function main thread 0
----------------------------------------------------
  pc[2]=6 (00000000000000000000000000000110)

State 302 file input/c/c_seq/p4.c line 912 function main thread 0
----------------------------------------------------
  active[2]=1 (00000000000000000000000000000001)

State 303 file input/c/c_seq/p4.c line 915 function main thread 0
----------------------------------------------------
  ct=3 (00000000000000000000000000000011)

State 305 file input/c/c_seq/p4.c line 917 function main thread 0
----------------------------------------------------
  cs=2 (00000000000000000000000000000010)

State 314 file input/c/c_seq/p4.c line 461 function t_three thread 0
----------------------------------------------------
  i=1 (00000000000000000000000000000001)

State 316 file input/c/c_seq/p4.c line 463 function t_three thread 0
----------------------------------------------------
  flag[3]=1 (00000000000000000000000000000001)

State 376 file input/c/c_seq/p4.c line 920 function main thread 0
----------------------------------------------------
  pc[3]=2 (00000000000000000000000000000010)

State 377 file input/c/c_seq/p4.c line 921 function main thread 0
----------------------------------------------------
  active[3]=1 (00000000000000000000000000000001)

State 378 file input/c/c_seq/p4.c line 924 function main thread 0
----------------------------------------------------
  ct=4 (00000000000000000000000000000100)

State 380 file input/c/c_seq/p4.c line 926 function main thread 0
----------------------------------------------------
  cs=0 (00000000000000000000000000000000)

State 449 file input/c/c_seq/p4.c line 929 function main thread 0
----------------------------------------------------
  pc[4]=0 (00000000000000000000000000000000)

State 450 file input/c/c_seq/p4.c line 930 function main thread 0
----------------------------------------------------
  active[4]=1 (00000000000000000000000000000001)

State 453 file input/c/c_seq/p4.c line 897 function main thread 0
----------------------------------------------------
  ct=1 (00000000000000000000000000000001)

State 455 file input/c/c_seq/p4.c line 899 function main thread 0
----------------------------------------------------
  cs=59 (00000000000000000000000000111011)

State 499 file input/c/c_seq/p4.c line 159 function t_one thread 0
----------------------------------------------------
  flag[1]=3 (00000000000000000000000000000011)

State 501 file input/c/c_seq/p4.c line 161 function t_one thread 0
----------------------------------------------------
  turn[3]=1 (00000000000000000000000000000001)

State 503 file input/c/c_seq/p4.c line 165 function t_one thread 0
----------------------------------------------------
  wait=0 (00000000000000000000000000000000)

State 505 file input/c/c_seq/p4.c line 168 function t_one thread 0
----------------------------------------------------
  j=1 (00000000000000000000000000000001)

State 510 file input/c/c_seq/p4.c line 178 function t_one thread 0
----------------------------------------------------
  j=2 (00000000000000000000000000000010)

State 517 file input/c/c_seq/p4.c line 182 function t_one thread 0
----------------------------------------------------
  wait=0 (00000000000000000000000000000000)

State 520 file input/c/c_seq/p4.c line 188 function t_one thread 0
----------------------------------------------------
  j=3 (00000000000000000000000000000011)

State 527 file input/c/c_seq/p4.c line 192 function t_one thread 0
----------------------------------------------------
  wait=0 (00000000000000000000000000000000)

State 530 file input/c/c_seq/p4.c line 198 function t_one thread 0
----------------------------------------------------
  j=4 (00000000000000000000000000000100)

State 537 file input/c/c_seq/p4.c line 202 function t_one thread 0
----------------------------------------------------
  wait=0 (00000000000000000000000000000000)

State 544 file input/c/c_seq/p4.c line 221 function t_one thread 0
----------------------------------------------------
  x_tmp=0 (00000000000000000000000000000000)

State 546 file input/c/c_seq/p4.c line 223 function t_one thread 0
----------------------------------------------------
  x_tmp=1 (00000000000000000000000000000001)

State 548 file input/c/c_seq/p4.c line 225 function t_one thread 0
----------------------------------------------------
  x=1 (00000000000000000000000000000001)

State 552 file input/c/c_seq/p4.c line 240 function t_one thread 0
----------------------------------------------------
  flag[1]=-1 (11111111111111111111111111111111)

State 555 file input/c/c_seq/p4.c line 902 function main thread 0
----------------------------------------------------
  pc[1]=59 (00000000000000000000000000111011)

State 556 file input/c/c_seq/p4.c line 903 function main thread 0
----------------------------------------------------
  active[1]=0 (00000000000000000000000000000000)

State 557 file input/c/c_seq/p4.c line 906 function main thread 0
----------------------------------------------------
  ct=2 (00000000000000000000000000000010)

State 559 file input/c/c_seq/p4.c line 908 function main thread 0
----------------------------------------------------
  cs=16 (00000000000000000000000000010000)

State 577 file input/c/c_seq/p4.c line 267 function t_two thread 0
----------------------------------------------------
  wait=0 (00000000000000000000000000000000)

State 580 file input/c/c_seq/p4.c line 273 function t_two thread 0
----------------------------------------------------
  j=2 (00000000000000000000000000000010)

State 585 file input/c/c_seq/p4.c line 283 function t_two thread 0
----------------------------------------------------
  j=3 (00000000000000000000000000000011)

State 592 file input/c/c_seq/p4.c line 287 function t_two thread 0
----------------------------------------------------
  wait=1 (00000000000000000000000000000001)

State 595 file input/c/c_seq/p4.c line 293 function t_two thread 0
----------------------------------------------------
  j=4 (00000000000000000000000000000100)

State 603 file input/c/c_seq/p4.c line 297 function t_two thread 0
----------------------------------------------------
  wait=1 (00000000000000000000000000000001)

State 650 file input/c/c_seq/p4.c line 911 function main thread 0
----------------------------------------------------
  pc[2]=16 (00000000000000000000000000010000)

State 651 file input/c/c_seq/p4.c line 912 function main thread 0
----------------------------------------------------
  active[2]=1 (00000000000000000000000000000001)

State 652 file input/c/c_seq/p4.c line 915 function main thread 0
----------------------------------------------------
  ct=3 (00000000000000000000000000000011)

State 654 file input/c/c_seq/p4.c line 917 function main thread 0
----------------------------------------------------
  cs=14 (00000000000000000000000000001110)

State 665 file input/c/c_seq/p4.c line 465 function t_three thread 0
----------------------------------------------------
  turn[1]=3 (00000000000000000000000000000011)

State 667 file input/c/c_seq/p4.c line 469 function t_three thread 0
----------------------------------------------------
  wait=0 (00000000000000000000000000000000)

State 669 file input/c/c_seq/p4.c line 472 function t_three thread 0
----------------------------------------------------
  j=1 (00000000000000000000000000000001)

State 676 file input/c/c_seq/p4.c line 476 function t_three thread 0
----------------------------------------------------
  wait=0 (00000000000000000000000000000000)

State 679 file input/c/c_seq/p4.c line 482 function t_three thread 0
----------------------------------------------------
  j=2 (00000000000000000000000000000010)

State 686 file input/c/c_seq/p4.c line 486 function t_three thread 0
----------------------------------------------------
  wait=1 (00000000000000000000000000000001)

State 689 file input/c/c_seq/p4.c line 492 function t_three thread 0
----------------------------------------------------
  j=3 (00000000000000000000000000000011)

State 694 file input/c/c_seq/p4.c line 502 function t_three thread 0
----------------------------------------------------
  j=4 (00000000000000000000000000000100)

State 742 file input/c/c_seq/p4.c line 920 function main thread 0
----------------------------------------------------
  pc[3]=14 (00000000000000000000000000001110)

State 743 file input/c/c_seq/p4.c line 921 function main thread 0
----------------------------------------------------
  active[3]=1 (00000000000000000000000000000001)

State 744 file input/c/c_seq/p4.c line 924 function main thread 0
----------------------------------------------------
  ct=4 (00000000000000000000000000000100)

State 746 file input/c/c_seq/p4.c line 926 function main thread 0
----------------------------------------------------
  cs=0 (00000000000000000000000000000000)

State 815 file input/c/c_seq/p4.c line 929 function main thread 0
----------------------------------------------------
  pc[4]=0 (00000000000000000000000000000000)

State 816 file input/c/c_seq/p4.c line 930 function main thread 0
----------------------------------------------------
  active[4]=1 (00000000000000000000000000000001)

State 820 file input/c/c_seq/p4.c line 897 function main thread 0
----------------------------------------------------
  ct=1 (00000000000000000000000000000001)

State 822 file input/c/c_seq/p4.c line 906 function main thread 0
----------------------------------------------------
  ct=2 (00000000000000000000000000000010)

State 824 file input/c/c_seq/p4.c line 908 function main thread 0
----------------------------------------------------
  cs=59 (00000000000000000000000000111011)

State 855 file input/c/c_seq/p4.c line 310 function t_two thread 0
----------------------------------------------------
  i=2 (00000000000000000000000000000010)

State 857 file input/c/c_seq/p4.c line 312 function t_two thread 0
----------------------------------------------------
  flag[2]=2 (00000000000000000000000000000010)

State 859 file input/c/c_seq/p4.c line 314 function t_two thread 0
----------------------------------------------------
  turn[2]=2 (00000000000000000000000000000010)

State 861 file input/c/c_seq/p4.c line 318 function t_two thread 0
----------------------------------------------------
  wait=0 (00000000000000000000000000000000)

State 863 file input/c/c_seq/p4.c line 321 function t_two thread 0
----------------------------------------------------
  j=1 (00000000000000000000000000000001)

State 870 file input/c/c_seq/p4.c line 325 function t_two thread 0
----------------------------------------------------
  wait=0 (00000000000000000000000000000000)

State 873 file input/c/c_seq/p4.c line 331 function t_two thread 0
----------------------------------------------------
  j=2 (00000000000000000000000000000010)

State 878 file input/c/c_seq/p4.c line 341 function t_two thread 0
----------------------------------------------------
  j=3 (00000000000000000000000000000011)

State 885 file input/c/c_seq/p4.c line 345 function t_two thread 0
----------------------------------------------------
  wait=0 (00000000000000000000000000000000)

State 888 file input/c/c_seq/p4.c line 351 function t_two thread 0
----------------------------------------------------
  j=4 (00000000000000000000000000000100)

State 895 file input/c/c_seq/p4.c line 355 function t_two thread 0
----------------------------------------------------
  wait=0 (00000000000000000000000000000000)

State 903 file input/c/c_seq/p4.c line 368 function t_two thread 0
----------------------------------------------------
  i=3 (00000000000000000000000000000011)

State 905 file input/c/c_seq/p4.c line 370 function t_two thread 0
----------------------------------------------------
  flag[2]=3 (00000000000000000000000000000011)

State 907 file input/c/c_seq/p4.c line 372 function t_two thread 0
----------------------------------------------------
  turn[3]=2 (00000000000000000000000000000010)

State 909 file input/c/c_seq/p4.c line 376 function t_two thread 0
----------------------------------------------------
  wait=0 (00000000000000000000000000000000)

State 911 file input/c/c_seq/p4.c line 379 function t_two thread 0
----------------------------------------------------
  j=1 (00000000000000000000000000000001)

State 918 file input/c/c_seq/p4.c line 383 function t_two thread 0
----------------------------------------------------
  wait=0 (00000000000000000000000000000000)

State 921 file input/c/c_seq/p4.c line 389 function t_two thread 0
----------------------------------------------------
  j=2 (00000000000000000000000000000010)

State 926 file input/c/c_seq/p4.c line 399 function t_two thread 0
----------------------------------------------------
  j=3 (00000000000000000000000000000011)

State 933 file input/c/c_seq/p4.c line 403 function t_two thread 0
----------------------------------------------------
  wait=0 (00000000000000000000000000000000)

State 936 file input/c/c_seq/p4.c line 409 function t_two thread 0
----------------------------------------------------
  j=4 (00000000000000000000000000000100)

State 943 file input/c/c_seq/p4.c line 413 function t_two thread 0
----------------------------------------------------
  wait=0 (00000000000000000000000000000000)

State 954 file input/c/c_seq/p4.c line 439 function t_two thread 0
----------------------------------------------------
  x_tmp=1 (00000000000000000000000000000001)

State 956 file input/c/c_seq/p4.c line 441 function t_two thread 0
----------------------------------------------------
  x_tmp=0 (00000000000000000000000000000000)

State 958 file input/c/c_seq/p4.c line 443 function t_two thread 0
----------------------------------------------------
  x=0 (00000000000000000000000000000000)

State 961 file input/c/c_seq/p4.c line 449 function t_two thread 0
----------------------------------------------------
  flag[2]=-1 (11111111111111111111111111111111)

State 964 file input/c/c_seq/p4.c line 911 function main thread 0
----------------------------------------------------
  pc[2]=59 (00000000000000000000000000111011)

State 965 file input/c/c_seq/p4.c line 912 function main thread 0
----------------------------------------------------
  active[2]=0 (00000000000000000000000000000000)

State 966 file input/c/c_seq/p4.c line 915 function main thread 0
----------------------------------------------------
  ct=3 (00000000000000000000000000000011)

State 968 file input/c/c_seq/p4.c line 917 function main thread 0
----------------------------------------------------
  cs=16 (00000000000000000000000000010000)

State 997 file input/c/c_seq/p4.c line 506 function t_three thread 0
----------------------------------------------------
  wait=1 (00000000000000000000000000000001)

State 1044 file input/c/c_seq/p4.c line 920 function main thread 0
----------------------------------------------------
  pc[3]=16 (00000000000000000000000000010000)

State 1045 file input/c/c_seq/p4.c line 921 function main thread 0
----------------------------------------------------
  active[3]=1 (00000000000000000000000000000001)

State 1046 file input/c/c_seq/p4.c line 924 function main thread 0
----------------------------------------------------
  ct=4 (00000000000000000000000000000100)

State 1048 file input/c/c_seq/p4.c line 926 function main thread 0
----------------------------------------------------
  cs=3 (00000000000000000000000000000011)

State 1057 file input/c/c_seq/p4.c line 669 function t_four thread 0
----------------------------------------------------
  i=1 (00000000000000000000000000000001)

State 1059 file input/c/c_seq/p4.c line 671 function t_four thread 0
----------------------------------------------------
  flag[4]=1 (00000000000000000000000000000001)

State 1061 file input/c/c_seq/p4.c line 673 function t_four thread 0
----------------------------------------------------
  turn[1]=4 (00000000000000000000000000000100)

State 1120 file input/c/c_seq/p4.c line 929 function main thread 0
----------------------------------------------------
  pc[4]=3 (00000000000000000000000000000011)

State 1121 file input/c/c_seq/p4.c line 930 function main thread 0
----------------------------------------------------
  active[4]=1 (00000000000000000000000000000001)

State 1126 file input/c/c_seq/p4.c line 897 function main thread 0
----------------------------------------------------
  ct=1 (00000000000000000000000000000001)

State 1128 file input/c/c_seq/p4.c line 906 function main thread 0
----------------------------------------------------
  ct=2 (00000000000000000000000000000010)

State 1130 file input/c/c_seq/p4.c line 915 function main thread 0
----------------------------------------------------
  ct=3 (00000000000000000000000000000011)

State 1132 file input/c/c_seq/p4.c line 917 function main thread 0
----------------------------------------------------
  cs=59 (00000000000000000000000000111011)

State 1163 file input/c/c_seq/p4.c line 518 function t_three thread 0
----------------------------------------------------
  i=2 (00000000000000000000000000000010)

State 1165 file input/c/c_seq/p4.c line 520 function t_three thread 0
----------------------------------------------------
  flag[3]=2 (00000000000000000000000000000010)

State 1167 file input/c/c_seq/p4.c line 522 function t_three thread 0
----------------------------------------------------
  turn[2]=3 (00000000000000000000000000000011)

State 1169 file input/c/c_seq/p4.c line 526 function t_three thread 0
----------------------------------------------------
  wait=0 (00000000000000000000000000000000)

State 1171 file input/c/c_seq/p4.c line 529 function t_three thread 0
----------------------------------------------------
  j=1 (00000000000000000000000000000001)

State 1178 file input/c/c_seq/p4.c line 533 function t_three thread 0
----------------------------------------------------
  wait=0 (00000000000000000000000000000000)

State 1181 file input/c/c_seq/p4.c line 539 function t_three thread 0
----------------------------------------------------
  j=2 (00000000000000000000000000000010)

State 1188 file input/c/c_seq/p4.c line 543 function t_three thread 0
----------------------------------------------------
  wait=0 (00000000000000000000000000000000)

State 1191 file input/c/c_seq/p4.c line 549 function t_three thread 0
----------------------------------------------------
  j=3 (00000000000000000000000000000011)

State 1196 file input/c/c_seq/p4.c line 559 function t_three thread 0
----------------------------------------------------
  j=4 (00000000000000000000000000000100)

State 1203 file input/c/c_seq/p4.c line 563 function t_three thread 0
----------------------------------------------------
  wait=0 (00000000000000000000000000000000)

State 1211 file input/c/c_seq/p4.c line 576 function t_three thread 0
----------------------------------------------------
  i=3 (00000000000000000000000000000011)

State 1213 file input/c/c_seq/p4.c line 578 function t_three thread 0
----------------------------------------------------
  flag[3]=3 (00000000000000000000000000000011)

State 1215 file input/c/c_seq/p4.c line 580 function t_three thread 0
----------------------------------------------------
  turn[3]=3 (00000000000000000000000000000011)

State 1217 file input/c/c_seq/p4.c line 584 function t_three thread 0
----------------------------------------------------
  wait=0 (00000000000000000000000000000000)

State 1219 file input/c/c_seq/p4.c line 587 function t_three thread 0
----------------------------------------------------
  j=1 (00000000000000000000000000000001)

State 1226 file input/c/c_seq/p4.c line 591 function t_three thread 0
----------------------------------------------------
  wait=0 (00000000000000000000000000000000)

State 1229 file input/c/c_seq/p4.c line 597 function t_three thread 0
----------------------------------------------------
  j=2 (00000000000000000000000000000010)

State 1236 file input/c/c_seq/p4.c line 601 function t_three thread 0
----------------------------------------------------
  wait=0 (00000000000000000000000000000000)

State 1239 file input/c/c_seq/p4.c line 607 function t_three thread 0
----------------------------------------------------
  j=3 (00000000000000000000000000000011)

State 1244 file input/c/c_seq/p4.c line 617 function t_three thread 0
----------------------------------------------------
  j=4 (00000000000000000000000000000100)

State 1251 file input/c/c_seq/p4.c line 621 function t_three thread 0
----------------------------------------------------
  wait=0 (00000000000000000000000000000000)

State 1261 file input/c/c_seq/p4.c line 638 function t_three thread 0
----------------------------------------------------
  x_tmp=0 (00000000000000000000000000000000)

State 1263 file input/c/c_seq/p4.c line 640 function t_three thread 0
----------------------------------------------------
  x_tmp=1 (00000000000000000000000000000001)

State 1265 file input/c/c_seq/p4.c line 642 function t_three thread 0
----------------------------------------------------
  x=1 (00000000000000000000000000000001)

State 1269 file input/c/c_seq/p4.c line 657 function t_three thread 0
----------------------------------------------------
  flag[3]=-1 (11111111111111111111111111111111)

State 1272 file input/c/c_seq/p4.c line 920 function main thread 0
----------------------------------------------------
  pc[3]=59 (00000000000000000000000000111011)

State 1273 file input/c/c_seq/p4.c line 921 function main thread 0
----------------------------------------------------
  active[3]=0 (00000000000000000000000000000000)

State 1274 file input/c/c_seq/p4.c line 924 function main thread 0
----------------------------------------------------
  ct=4 (00000000000000000000000000000100)

State 1276 file input/c/c_seq/p4.c line 926 function main thread 0
----------------------------------------------------
  cs=59 (00000000000000000000000000111011)

State 1288 file input/c/c_seq/p4.c line 677 function t_four thread 0
----------------------------------------------------
  wait=0 (00000000000000000000000000000000)

State 1290 file input/c/c_seq/p4.c line 680 function t_four thread 0
----------------------------------------------------
  j=1 (00000000000000000000000000000001)

State 1297 file input/c/c_seq/p4.c line 684 function t_four thread 0
----------------------------------------------------
  wait=0 (00000000000000000000000000000000)

State 1300 file input/c/c_seq/p4.c line 690 function t_four thread 0
----------------------------------------------------
  j=2 (00000000000000000000000000000010)

State 1307 file input/c/c_seq/p4.c line 694 function t_four thread 0
----------------------------------------------------
  wait=0 (00000000000000000000000000000000)

State 1310 file input/c/c_seq/p4.c line 700 function t_four thread 0
----------------------------------------------------
  j=3 (00000000000000000000000000000011)

State 1317 file input/c/c_seq/p4.c line 704 function t_four thread 0
----------------------------------------------------
  wait=0 (00000000000000000000000000000000)

State 1320 file input/c/c_seq/p4.c line 710 function t_four thread 0
----------------------------------------------------
  j=4 (00000000000000000000000000000100)

State 1330 file input/c/c_seq/p4.c line 725 function t_four thread 0
----------------------------------------------------
  i=2 (00000000000000000000000000000010)

State 1332 file input/c/c_seq/p4.c line 727 function t_four thread 0
----------------------------------------------------
  flag[4]=2 (00000000000000000000000000000010)

State 1334 file input/c/c_seq/p4.c line 729 function t_four thread 0
----------------------------------------------------
  turn[2]=4 (00000000000000000000000000000100)

State 1336 file input/c/c_seq/p4.c line 733 function t_four thread 0
----------------------------------------------------
  wait=0 (00000000000000000000000000000000)

State 1338 file input/c/c_seq/p4.c line 736 function t_four thread 0
----------------------------------------------------
  j=1 (00000000000000000000000000000001)

State 1345 file input/c/c_seq/p4.c line 740 function t_four thread 0
----------------------------------------------------
  wait=0 (00000000000000000000000000000000)

State 1348 file input/c/c_seq/p4.c line 746 function t_four thread 0
----------------------------------------------------
  j=2 (00000000000000000000000000000010)

State 1355 file input/c/c_seq/p4.c line 750 function t_four thread 0
----------------------------------------------------
  wait=0 (00000000000000000000000000000000)

State 1358 file input/c/c_seq/p4.c line 756 function t_four thread 0
----------------------------------------------------
  j=3 (00000000000000000000000000000011)

State 1365 file input/c/c_seq/p4.c line 760 function t_four thread 0
----------------------------------------------------
  wait=0 (00000000000000000000000000000000)

State 1368 file input/c/c_seq/p4.c line 766 function t_four thread 0
----------------------------------------------------
  j=4 (00000000000000000000000000000100)

State 1378 file input/c/c_seq/p4.c line 783 function t_four thread 0
----------------------------------------------------
  i=3 (00000000000000000000000000000011)

State 1380 file input/c/c_seq/p4.c line 785 function t_four thread 0
----------------------------------------------------
  flag[4]=3 (00000000000000000000000000000011)

State 1382 file input/c/c_seq/p4.c line 787 function t_four thread 0
----------------------------------------------------
  turn[3]=4 (00000000000000000000000000000100)

State 1384 file input/c/c_seq/p4.c line 791 function t_four thread 0
----------------------------------------------------
  wait=0 (00000000000000000000000000000000)

State 1386 file input/c/c_seq/p4.c line 794 function t_four thread 0
----------------------------------------------------
  j=1 (00000000000000000000000000000001)

State 1393 file input/c/c_seq/p4.c line 798 function t_four thread 0
----------------------------------------------------
  wait=0 (00000000000000000000000000000000)

State 1396 file input/c/c_seq/p4.c line 804 function t_four thread 0
----------------------------------------------------
  j=2 (00000000000000000000000000000010)

State 1403 file input/c/c_seq/p4.c line 808 function t_four thread 0
----------------------------------------------------
  wait=0 (00000000000000000000000000000000)

State 1406 file input/c/c_seq/p4.c line 814 function t_four thread 0
----------------------------------------------------
  j=3 (00000000000000000000000000000011)

State 1413 file input/c/c_seq/p4.c line 818 function t_four thread 0
----------------------------------------------------
  wait=0 (00000000000000000000000000000000)

State 1416 file input/c/c_seq/p4.c line 824 function t_four thread 0
----------------------------------------------------
  j=4 (00000000000000000000000000000100)

State 1429 file input/c/c_seq/p4.c line 854 function t_four thread 0
----------------------------------------------------
  x_tmp=1 (00000000000000000000000000000001)

State 1431 file input/c/c_seq/p4.c line 856 function t_four thread 0
----------------------------------------------------
  x_tmp=0 (00000000000000000000000000000000)

State 1433 file input/c/c_seq/p4.c line 858 function t_four thread 0
----------------------------------------------------
  x=0 (00000000000000000000000000000000)

State 1436 file input/c/c_seq/p4.c line 864 function t_four thread 0
----------------------------------------------------
  flag[4]=-1 (11111111111111111111111111111111)

State 1439 file input/c/c_seq/p4.c line 929 function main thread 0
----------------------------------------------------
  pc[4]=59 (00000000000000000000000000111011)

State 1440 file input/c/c_seq/p4.c line 930 function main thread 0
----------------------------------------------------
  active[4]=0 (00000000000000000000000000000000)

Violated property:
  file input/c/c_seq/p4.c line 940 function main
  OK
  0 != 0

VERIFICATION FAILED

real	0m12.563s
user	0m12.440s
sys	0m0.100s
