CBMC version 5.4 64-bit x86_64 linux
Parsing input/c/c_seq/p4.c
Converting
Type-checking p4
file input/c/c_seq/p4.c line 899 function main: function `nondet_uint' is not declared
Generating GOTO Program
Adding CPROVER library (x86_64)
Function Pointer Removal
Partial Inlining
Generic Property Instrumentation
Starting Bounded Model Checking
Unwinding loop main.0 iteration 1 (6 max) file input/c/c_seq/p4.c line 896 function main thread 0
Unwinding loop main.0 iteration 2 (6 max) file input/c/c_seq/p4.c line 896 function main thread 0
Unwinding loop main.0 iteration 3 (6 max) file input/c/c_seq/p4.c line 896 function main thread 0
Unwinding loop main.0 iteration 4 (6 max) file input/c/c_seq/p4.c line 896 function main thread 0
Unwinding loop main.0 iteration 5 (6 max) file input/c/c_seq/p4.c line 896 function main thread 0
Not unwinding loop main.0 iteration 6 (6 max) file input/c/c_seq/p4.c line 896 function main thread 0
size of program expression: 12213 steps
simple slicing removed 3 assignments
Generated 3 VCC(s), 3 remaining after simplification
Passing problem to propositional reduction
converting SSA
Running propositional reduction
Post-processing
Solving with MiniSAT 2.2.1 with simplifier
220567 variables, 938454 clauses
SAT checker: instance is SATISFIABLE
Runtime decision procedure: 8.969s
Building error trace

Counterexample:

State 48 file input/c/c_seq/p4.c line 871 function init thread 0
----------------------------------------------------
  pc[0]=0 (00000000000000000000000000000000)

State 49 file input/c/c_seq/p4.c line 872 function init thread 0
----------------------------------------------------
  size[0]=0 (00000000000000000000000000000000)

State 50 file input/c/c_seq/p4.c line 874 function init thread 0
----------------------------------------------------
  pc[1]=0 (00000000000000000000000000000000)

State 51 file input/c/c_seq/p4.c line 875 function init thread 0
----------------------------------------------------
  pc[2]=0 (00000000000000000000000000000000)

State 52 file input/c/c_seq/p4.c line 876 function init thread 0
----------------------------------------------------
  pc[3]=0 (00000000000000000000000000000000)

State 53 file input/c/c_seq/p4.c line 877 function init thread 0
----------------------------------------------------
  pc[4]=0 (00000000000000000000000000000000)

State 54 file input/c/c_seq/p4.c line 879 function init thread 0
----------------------------------------------------
  size[0]=4 (00000000000000000000000000000100)

State 55 file input/c/c_seq/p4.c line 880 function init thread 0
----------------------------------------------------
  size[1]=59 (00000000000000000000000000111011)

State 56 file input/c/c_seq/p4.c line 881 function init thread 0
----------------------------------------------------
  size[2]=59 (00000000000000000000000000111011)

State 57 file input/c/c_seq/p4.c line 882 function init thread 0
----------------------------------------------------
  size[3]=59 (00000000000000000000000000111011)

State 58 file input/c/c_seq/p4.c line 883 function init thread 0
----------------------------------------------------
  size[4]=59 (00000000000000000000000000111011)

State 59 file input/c/c_seq/p4.c line 885 function init thread 0
----------------------------------------------------
  t1=0 (00000000000000000000000000000000)

State 60 file input/c/c_seq/p4.c line 885 function init thread 0
----------------------------------------------------
  t2=0 (00000000000000000000000000000000)

State 61 file input/c/c_seq/p4.c line 885 function init thread 0
----------------------------------------------------
  t3=0 (00000000000000000000000000000000)

State 62 file input/c/c_seq/p4.c line 885 function init thread 0
----------------------------------------------------
  t4=0 (00000000000000000000000000000000)

State 63 file input/c/c_seq/p4.c line 885 function init thread 0
----------------------------------------------------
  t5=0 (00000000000000000000000000000000)

State 64 file input/c/c_seq/p4.c line 885 function init thread 0
----------------------------------------------------
  t6=0 (00000000000000000000000000000000)

State 67 file input/c/c_seq/p4.c line 887 function init thread 0
----------------------------------------------------
  t=0 (00000000000000000000000000000000)

State 68 file input/c/c_seq/p4.c line 887 function init thread 0
----------------------------------------------------
  id=1 (00000000000000000000000000000001)

State 69 file input/c/c_seq/p4.c line 20 function create thread 0
----------------------------------------------------
  active[1]=1 (00000000000000000000000000000001)

State 70 file input/c/c_seq/p4.c line 21 function create thread 0
----------------------------------------------------
  t=1 (00000000000000000000000000000001)

State 74 file input/c/c_seq/p4.c line 888 function init thread 0
----------------------------------------------------
  t=0 (00000000000000000000000000000000)

State 75 file input/c/c_seq/p4.c line 888 function init thread 0
----------------------------------------------------
  id=2 (00000000000000000000000000000010)

State 76 file input/c/c_seq/p4.c line 20 function create thread 0
----------------------------------------------------
  active[2]=1 (00000000000000000000000000000001)

State 77 file input/c/c_seq/p4.c line 21 function create thread 0
----------------------------------------------------
  t=2 (00000000000000000000000000000010)

State 81 file input/c/c_seq/p4.c line 889 function init thread 0
----------------------------------------------------
  t=0 (00000000000000000000000000000000)

State 82 file input/c/c_seq/p4.c line 889 function init thread 0
----------------------------------------------------
  id=3 (00000000000000000000000000000011)

State 83 file input/c/c_seq/p4.c line 20 function create thread 0
----------------------------------------------------
  active[3]=1 (00000000000000000000000000000001)

State 84 file input/c/c_seq/p4.c line 21 function create thread 0
----------------------------------------------------
  t=3 (00000000000000000000000000000011)

State 88 file input/c/c_seq/p4.c line 890 function init thread 0
----------------------------------------------------
  t=0 (00000000000000000000000000000000)

State 89 file input/c/c_seq/p4.c line 890 function init thread 0
----------------------------------------------------
  id=4 (00000000000000000000000000000100)

State 90 file input/c/c_seq/p4.c line 20 function create thread 0
----------------------------------------------------
  active[4]=1 (00000000000000000000000000000001)

State 91 file input/c/c_seq/p4.c line 21 function create thread 0
----------------------------------------------------
  t=4 (00000000000000000000000000000100)

State 94 file input/c/c_seq/p4.c line 897 function main thread 0
----------------------------------------------------
  ct=1 (00000000000000000000000000000001)

State 96 file input/c/c_seq/p4.c line 899 function main thread 0
----------------------------------------------------
  cs=59 (00000000000000000000000000111011)

State 105 file input/c/c_seq/p4.c line 37 function t_one thread 0
----------------------------------------------------
  i=1 (00000000000000000000000000000001)

State 107 file input/c/c_seq/p4.c line 39 function t_one thread 0
----------------------------------------------------
  flag[1]=1 (00000000000000000000000000000001)

State 109 file input/c/c_seq/p4.c line 41 function t_one thread 0
----------------------------------------------------
  turn[1]=1 (00000000000000000000000000000001)

State 111 file input/c/c_seq/p4.c line 45 function t_one thread 0
----------------------------------------------------
  wait=0 (00000000000000000000000000000000)

State 113 file input/c/c_seq/p4.c line 48 function t_one thread 0
----------------------------------------------------
  j=1 (00000000000000000000000000000001)

State 118 file input/c/c_seq/p4.c line 58 function t_one thread 0
----------------------------------------------------
  j=2 (00000000000000000000000000000010)

State 125 file input/c/c_seq/p4.c line 62 function t_one thread 0
----------------------------------------------------
  wait=0 (00000000000000000000000000000000)

State 128 file input/c/c_seq/p4.c line 68 function t_one thread 0
----------------------------------------------------
  j=3 (00000000000000000000000000000011)

State 135 file input/c/c_seq/p4.c line 72 function t_one thread 0
----------------------------------------------------
  wait=0 (00000000000000000000000000000000)

State 138 file input/c/c_seq/p4.c line 78 function t_one thread 0
----------------------------------------------------
  j=4 (00000000000000000000000000000100)

State 145 file input/c/c_seq/p4.c line 82 function t_one thread 0
----------------------------------------------------
  wait=0 (00000000000000000000000000000000)

State 150 file input/c/c_seq/p4.c line 97 function t_one thread 0
----------------------------------------------------
  i=2 (00000000000000000000000000000010)

State 152 file input/c/c_seq/p4.c line 99 function t_one thread 0
----------------------------------------------------
  flag[1]=2 (00000000000000000000000000000010)

State 154 file input/c/c_seq/p4.c line 101 function t_one thread 0
----------------------------------------------------
  turn[2]=1 (00000000000000000000000000000001)

State 156 file input/c/c_seq/p4.c line 105 function t_one thread 0
----------------------------------------------------
  wait=0 (00000000000000000000000000000000)

State 158 file input/c/c_seq/p4.c line 108 function t_one thread 0
----------------------------------------------------
  j=1 (00000000000000000000000000000001)

State 163 file input/c/c_seq/p4.c line 118 function t_one thread 0
----------------------------------------------------
  j=2 (00000000000000000000000000000010)

State 170 file input/c/c_seq/p4.c line 122 function t_one thread 0
----------------------------------------------------
  wait=0 (00000000000000000000000000000000)

State 173 file input/c/c_seq/p4.c line 128 function t_one thread 0
----------------------------------------------------
  j=3 (00000000000000000000000000000011)

State 180 file input/c/c_seq/p4.c line 132 function t_one thread 0
----------------------------------------------------
  wait=0 (00000000000000000000000000000000)

State 183 file input/c/c_seq/p4.c line 138 function t_one thread 0
----------------------------------------------------
  j=4 (00000000000000000000000000000100)

State 190 file input/c/c_seq/p4.c line 142 function t_one thread 0
----------------------------------------------------
  wait=0 (00000000000000000000000000000000)

State 195 file input/c/c_seq/p4.c line 157 function t_one thread 0
----------------------------------------------------
  i=3 (00000000000000000000000000000011)

State 197 file input/c/c_seq/p4.c line 159 function t_one thread 0
----------------------------------------------------
  flag[1]=3 (00000000000000000000000000000011)

State 199 file input/c/c_seq/p4.c line 161 function t_one thread 0
----------------------------------------------------
  turn[3]=1 (00000000000000000000000000000001)

State 201 file input/c/c_seq/p4.c line 165 function t_one thread 0
----------------------------------------------------
  wait=0 (00000000000000000000000000000000)

State 203 file input/c/c_seq/p4.c line 168 function t_one thread 0
----------------------------------------------------
  j=1 (00000000000000000000000000000001)

State 208 file input/c/c_seq/p4.c line 178 function t_one thread 0
----------------------------------------------------
  j=2 (00000000000000000000000000000010)

State 215 file input/c/c_seq/p4.c line 182 function t_one thread 0
----------------------------------------------------
  wait=0 (00000000000000000000000000000000)

State 218 file input/c/c_seq/p4.c line 188 function t_one thread 0
----------------------------------------------------
  j=3 (00000000000000000000000000000011)

State 225 file input/c/c_seq/p4.c line 192 function t_one thread 0
----------------------------------------------------
  wait=0 (00000000000000000000000000000000)

State 228 file input/c/c_seq/p4.c line 198 function t_one thread 0
----------------------------------------------------
  j=4 (00000000000000000000000000000100)

State 235 file input/c/c_seq/p4.c line 202 function t_one thread 0
----------------------------------------------------
  wait=0 (00000000000000000000000000000000)

State 242 file input/c/c_seq/p4.c line 221 function t_one thread 0
----------------------------------------------------
  x_tmp=0 (00000000000000000000000000000000)

State 244 file input/c/c_seq/p4.c line 223 function t_one thread 0
----------------------------------------------------
  x_tmp=1 (00000000000000000000000000000001)

State 246 file input/c/c_seq/p4.c line 225 function t_one thread 0
----------------------------------------------------
  x=1 (00000000000000000000000000000001)

State 250 file input/c/c_seq/p4.c line 240 function t_one thread 0
----------------------------------------------------
  flag[1]=-1 (11111111111111111111111111111111)

State 253 file input/c/c_seq/p4.c line 902 function main thread 0
----------------------------------------------------
  pc[1]=59 (00000000000000000000000000111011)

State 254 file input/c/c_seq/p4.c line 903 function main thread 0
----------------------------------------------------
  active[1]=0 (00000000000000000000000000000000)

State 255 file input/c/c_seq/p4.c line 906 function main thread 0
----------------------------------------------------
  ct=2 (00000000000000000000000000000010)

State 257 file input/c/c_seq/p4.c line 908 function main thread 0
----------------------------------------------------
  cs=1 (00000000000000000000000000000001)

State 266 file input/c/c_seq/p4.c line 252 function t_two thread 0
----------------------------------------------------
  i=1 (00000000000000000000000000000001)

State 327 file input/c/c_seq/p4.c line 911 function main thread 0
----------------------------------------------------
  pc[2]=1 (00000000000000000000000000000001)

State 328 file input/c/c_seq/p4.c line 912 function main thread 0
----------------------------------------------------
  active[2]=1 (00000000000000000000000000000001)

State 329 file input/c/c_seq/p4.c line 915 function main thread 0
----------------------------------------------------
  ct=3 (00000000000000000000000000000011)

State 331 file input/c/c_seq/p4.c line 917 function main thread 0
----------------------------------------------------
  cs=0 (00000000000000000000000000000000)

State 400 file input/c/c_seq/p4.c line 920 function main thread 0
----------------------------------------------------
  pc[3]=0 (00000000000000000000000000000000)

State 401 file input/c/c_seq/p4.c line 921 function main thread 0
----------------------------------------------------
  active[3]=1 (00000000000000000000000000000001)

State 402 file input/c/c_seq/p4.c line 924 function main thread 0
----------------------------------------------------
  ct=4 (00000000000000000000000000000100)

State 404 file input/c/c_seq/p4.c line 926 function main thread 0
----------------------------------------------------
  cs=27 (00000000000000000000000000011011)

State 413 file input/c/c_seq/p4.c line 669 function t_four thread 0
----------------------------------------------------
  i=1 (00000000000000000000000000000001)

State 415 file input/c/c_seq/p4.c line 671 function t_four thread 0
----------------------------------------------------
  flag[4]=1 (00000000000000000000000000000001)

State 417 file input/c/c_seq/p4.c line 673 function t_four thread 0
----------------------------------------------------
  turn[1]=4 (00000000000000000000000000000100)

State 419 file input/c/c_seq/p4.c line 677 function t_four thread 0
----------------------------------------------------
  wait=0 (00000000000000000000000000000000)

State 421 file input/c/c_seq/p4.c line 680 function t_four thread 0
----------------------------------------------------
  j=1 (00000000000000000000000000000001)

State 428 file input/c/c_seq/p4.c line 684 function t_four thread 0
----------------------------------------------------
  wait=0 (00000000000000000000000000000000)

State 431 file input/c/c_seq/p4.c line 690 function t_four thread 0
----------------------------------------------------
  j=2 (00000000000000000000000000000010)

State 438 file input/c/c_seq/p4.c line 694 function t_four thread 0
----------------------------------------------------
  wait=0 (00000000000000000000000000000000)

State 441 file input/c/c_seq/p4.c line 700 function t_four thread 0
----------------------------------------------------
  j=3 (00000000000000000000000000000011)

State 448 file input/c/c_seq/p4.c line 704 function t_four thread 0
----------------------------------------------------
  wait=0 (00000000000000000000000000000000)

State 451 file input/c/c_seq/p4.c line 710 function t_four thread 0
----------------------------------------------------
  j=4 (00000000000000000000000000000100)

State 461 file input/c/c_seq/p4.c line 725 function t_four thread 0
----------------------------------------------------
  i=2 (00000000000000000000000000000010)

State 463 file input/c/c_seq/p4.c line 727 function t_four thread 0
----------------------------------------------------
  flag[4]=2 (00000000000000000000000000000010)

State 465 file input/c/c_seq/p4.c line 729 function t_four thread 0
----------------------------------------------------
  turn[2]=4 (00000000000000000000000000000100)

State 467 file input/c/c_seq/p4.c line 733 function t_four thread 0
----------------------------------------------------
  wait=0 (00000000000000000000000000000000)

State 469 file input/c/c_seq/p4.c line 736 function t_four thread 0
----------------------------------------------------
  j=1 (00000000000000000000000000000001)

State 476 file input/c/c_seq/p4.c line 740 function t_four thread 0
----------------------------------------------------
  wait=0 (00000000000000000000000000000000)

State 479 file input/c/c_seq/p4.c line 746 function t_four thread 0
----------------------------------------------------
  j=2 (00000000000000000000000000000010)

State 486 file input/c/c_seq/p4.c line 750 function t_four thread 0
----------------------------------------------------
  wait=0 (00000000000000000000000000000000)

State 522 file input/c/c_seq/p4.c line 929 function main thread 0
----------------------------------------------------
  pc[4]=27 (00000000000000000000000000011011)

State 523 file input/c/c_seq/p4.c line 930 function main thread 0
----------------------------------------------------
  active[4]=1 (00000000000000000000000000000001)

State 527 file input/c/c_seq/p4.c line 897 function main thread 0
----------------------------------------------------
  ct=1 (00000000000000000000000000000001)

State 529 file input/c/c_seq/p4.c line 906 function main thread 0
----------------------------------------------------
  ct=2 (00000000000000000000000000000010)

State 531 file input/c/c_seq/p4.c line 908 function main thread 0
----------------------------------------------------
  cs=16 (00000000000000000000000000010000)

State 541 file input/c/c_seq/p4.c line 254 function t_two thread 0
----------------------------------------------------
  flag[2]=1 (00000000000000000000000000000001)

State 543 file input/c/c_seq/p4.c line 256 function t_two thread 0
----------------------------------------------------
  turn[1]=2 (00000000000000000000000000000010)

State 545 file input/c/c_seq/p4.c line 260 function t_two thread 0
----------------------------------------------------
  wait=0 (00000000000000000000000000000000)

State 547 file input/c/c_seq/p4.c line 263 function t_two thread 0
----------------------------------------------------
  j=1 (00000000000000000000000000000001)

State 554 file input/c/c_seq/p4.c line 267 function t_two thread 0
----------------------------------------------------
  wait=0 (00000000000000000000000000000000)

State 557 file input/c/c_seq/p4.c line 273 function t_two thread 0
----------------------------------------------------
  j=2 (00000000000000000000000000000010)

State 562 file input/c/c_seq/p4.c line 283 function t_two thread 0
----------------------------------------------------
  j=3 (00000000000000000000000000000011)

State 569 file input/c/c_seq/p4.c line 287 function t_two thread 0
----------------------------------------------------
  wait=0 (00000000000000000000000000000000)

State 572 file input/c/c_seq/p4.c line 293 function t_two thread 0
----------------------------------------------------
  j=4 (00000000000000000000000000000100)

State 579 file input/c/c_seq/p4.c line 297 function t_two thread 0
----------------------------------------------------
  wait=1 (00000000000000000000000000000001)

State 626 file input/c/c_seq/p4.c line 911 function main thread 0
----------------------------------------------------
  pc[2]=16 (00000000000000000000000000010000)

State 627 file input/c/c_seq/p4.c line 912 function main thread 0
----------------------------------------------------
  active[2]=1 (00000000000000000000000000000001)

State 628 file input/c/c_seq/p4.c line 915 function main thread 0
----------------------------------------------------
  ct=3 (00000000000000000000000000000011)

State 630 file input/c/c_seq/p4.c line 917 function main thread 0
----------------------------------------------------
  cs=8 (00000000000000000000000000001000)

State 639 file input/c/c_seq/p4.c line 461 function t_three thread 0
----------------------------------------------------
  i=1 (00000000000000000000000000000001)

State 641 file input/c/c_seq/p4.c line 463 function t_three thread 0
----------------------------------------------------
  flag[3]=1 (00000000000000000000000000000001)

State 643 file input/c/c_seq/p4.c line 465 function t_three thread 0
----------------------------------------------------
  turn[1]=3 (00000000000000000000000000000011)

State 645 file input/c/c_seq/p4.c line 469 function t_three thread 0
----------------------------------------------------
  wait=0 (00000000000000000000000000000000)

State 647 file input/c/c_seq/p4.c line 472 function t_three thread 0
----------------------------------------------------
  j=1 (00000000000000000000000000000001)

State 654 file input/c/c_seq/p4.c line 476 function t_three thread 0
----------------------------------------------------
  wait=0 (00000000000000000000000000000000)

State 657 file input/c/c_seq/p4.c line 482 function t_three thread 0
----------------------------------------------------
  j=2 (00000000000000000000000000000010)

State 711 file input/c/c_seq/p4.c line 920 function main thread 0
----------------------------------------------------
  pc[3]=8 (00000000000000000000000000001000)

State 712 file input/c/c_seq/p4.c line 921 function main thread 0
----------------------------------------------------
  active[3]=1 (00000000000000000000000000000001)

State 713 file input/c/c_seq/p4.c line 924 function main thread 0
----------------------------------------------------
  ct=4 (00000000000000000000000000000100)

State 715 file input/c/c_seq/p4.c line 926 function main thread 0
----------------------------------------------------
  cs=59 (00000000000000000000000000111011)

State 751 file input/c/c_seq/p4.c line 756 function t_four thread 0
----------------------------------------------------
  j=3 (00000000000000000000000000000011)

State 758 file input/c/c_seq/p4.c line 760 function t_four thread 0
----------------------------------------------------
  wait=0 (00000000000000000000000000000000)

State 761 file input/c/c_seq/p4.c line 766 function t_four thread 0
----------------------------------------------------
  j=4 (00000000000000000000000000000100)

State 771 file input/c/c_seq/p4.c line 783 function t_four thread 0
----------------------------------------------------
  i=3 (00000000000000000000000000000011)

State 773 file input/c/c_seq/p4.c line 785 function t_four thread 0
----------------------------------------------------
  flag[4]=3 (00000000000000000000000000000011)

State 775 file input/c/c_seq/p4.c line 787 function t_four thread 0
----------------------------------------------------
  turn[3]=4 (00000000000000000000000000000100)

State 777 file input/c/c_seq/p4.c line 791 function t_four thread 0
----------------------------------------------------
  wait=0 (00000000000000000000000000000000)

State 779 file input/c/c_seq/p4.c line 794 function t_four thread 0
----------------------------------------------------
  j=1 (00000000000000000000000000000001)

State 786 file input/c/c_seq/p4.c line 798 function t_four thread 0
----------------------------------------------------
  wait=0 (00000000000000000000000000000000)

State 789 file input/c/c_seq/p4.c line 804 function t_four thread 0
----------------------------------------------------
  j=2 (00000000000000000000000000000010)

State 796 file input/c/c_seq/p4.c line 808 function t_four thread 0
----------------------------------------------------
  wait=0 (00000000000000000000000000000000)

State 799 file input/c/c_seq/p4.c line 814 function t_four thread 0
----------------------------------------------------
  j=3 (00000000000000000000000000000011)

State 806 file input/c/c_seq/p4.c line 818 function t_four thread 0
----------------------------------------------------
  wait=0 (00000000000000000000000000000000)

State 809 file input/c/c_seq/p4.c line 824 function t_four thread 0
----------------------------------------------------
  j=4 (00000000000000000000000000000100)

State 822 file input/c/c_seq/p4.c line 854 function t_four thread 0
----------------------------------------------------
  x_tmp=1 (00000000000000000000000000000001)

State 824 file input/c/c_seq/p4.c line 856 function t_four thread 0
----------------------------------------------------
  x_tmp=0 (00000000000000000000000000000000)

State 826 file input/c/c_seq/p4.c line 858 function t_four thread 0
----------------------------------------------------
  x=0 (00000000000000000000000000000000)

State 829 file input/c/c_seq/p4.c line 864 function t_four thread 0
----------------------------------------------------
  flag[4]=-1 (11111111111111111111111111111111)

State 832 file input/c/c_seq/p4.c line 929 function main thread 0
----------------------------------------------------
  pc[4]=59 (00000000000000000000000000111011)

State 833 file input/c/c_seq/p4.c line 930 function main thread 0
----------------------------------------------------
  active[4]=0 (00000000000000000000000000000000)

State 837 file input/c/c_seq/p4.c line 897 function main thread 0
----------------------------------------------------
  ct=1 (00000000000000000000000000000001)

State 839 file input/c/c_seq/p4.c line 906 function main thread 0
----------------------------------------------------
  ct=2 (00000000000000000000000000000010)

State 841 file input/c/c_seq/p4.c line 908 function main thread 0
----------------------------------------------------
  cs=59 (00000000000000000000000000111011)

State 872 file input/c/c_seq/p4.c line 310 function t_two thread 0
----------------------------------------------------
  i=2 (00000000000000000000000000000010)

State 874 file input/c/c_seq/p4.c line 312 function t_two thread 0
----------------------------------------------------
  flag[2]=2 (00000000000000000000000000000010)

State 876 file input/c/c_seq/p4.c line 314 function t_two thread 0
----------------------------------------------------
  turn[2]=2 (00000000000000000000000000000010)

State 878 file input/c/c_seq/p4.c line 318 function t_two thread 0
----------------------------------------------------
  wait=0 (00000000000000000000000000000000)

State 880 file input/c/c_seq/p4.c line 321 function t_two thread 0
----------------------------------------------------
  j=1 (00000000000000000000000000000001)

State 887 file input/c/c_seq/p4.c line 325 function t_two thread 0
----------------------------------------------------
  wait=0 (00000000000000000000000000000000)

State 890 file input/c/c_seq/p4.c line 331 function t_two thread 0
----------------------------------------------------
  j=2 (00000000000000000000000000000010)

State 895 file input/c/c_seq/p4.c line 341 function t_two thread 0
----------------------------------------------------
  j=3 (00000000000000000000000000000011)

State 902 file input/c/c_seq/p4.c line 345 function t_two thread 0
----------------------------------------------------
  wait=0 (00000000000000000000000000000000)

State 905 file input/c/c_seq/p4.c line 351 function t_two thread 0
----------------------------------------------------
  j=4 (00000000000000000000000000000100)

State 912 file input/c/c_seq/p4.c line 355 function t_two thread 0
----------------------------------------------------
  wait=0 (00000000000000000000000000000000)

State 920 file input/c/c_seq/p4.c line 368 function t_two thread 0
----------------------------------------------------
  i=3 (00000000000000000000000000000011)

State 922 file input/c/c_seq/p4.c line 370 function t_two thread 0
----------------------------------------------------
  flag[2]=3 (00000000000000000000000000000011)

State 924 file input/c/c_seq/p4.c line 372 function t_two thread 0
----------------------------------------------------
  turn[3]=2 (00000000000000000000000000000010)

State 926 file input/c/c_seq/p4.c line 376 function t_two thread 0
----------------------------------------------------
  wait=0 (00000000000000000000000000000000)

State 928 file input/c/c_seq/p4.c line 379 function t_two thread 0
----------------------------------------------------
  j=1 (00000000000000000000000000000001)

State 935 file input/c/c_seq/p4.c line 383 function t_two thread 0
----------------------------------------------------
  wait=0 (00000000000000000000000000000000)

State 938 file input/c/c_seq/p4.c line 389 function t_two thread 0
----------------------------------------------------
  j=2 (00000000000000000000000000000010)

State 943 file input/c/c_seq/p4.c line 399 function t_two thread 0
----------------------------------------------------
  j=3 (00000000000000000000000000000011)

State 950 file input/c/c_seq/p4.c line 403 function t_two thread 0
----------------------------------------------------
  wait=0 (00000000000000000000000000000000)

State 953 file input/c/c_seq/p4.c line 409 function t_two thread 0
----------------------------------------------------
  j=4 (00000000000000000000000000000100)

State 960 file input/c/c_seq/p4.c line 413 function t_two thread 0
----------------------------------------------------
  wait=0 (00000000000000000000000000000000)

State 971 file input/c/c_seq/p4.c line 439 function t_two thread 0
----------------------------------------------------
  x_tmp=0 (00000000000000000000000000000000)

State 973 file input/c/c_seq/p4.c line 441 function t_two thread 0
----------------------------------------------------
  x_tmp=-1 (11111111111111111111111111111111)

State 975 file input/c/c_seq/p4.c line 443 function t_two thread 0
----------------------------------------------------
  x=-1 (11111111111111111111111111111111)

State 978 file input/c/c_seq/p4.c line 449 function t_two thread 0
----------------------------------------------------
  flag[2]=-1 (11111111111111111111111111111111)

State 981 file input/c/c_seq/p4.c line 911 function main thread 0
----------------------------------------------------
  pc[2]=59 (00000000000000000000000000111011)

State 982 file input/c/c_seq/p4.c line 912 function main thread 0
----------------------------------------------------
  active[2]=0 (00000000000000000000000000000000)

State 983 file input/c/c_seq/p4.c line 915 function main thread 0
----------------------------------------------------
  ct=3 (00000000000000000000000000000011)

State 985 file input/c/c_seq/p4.c line 917 function main thread 0
----------------------------------------------------
  cs=43 (00000000000000000000000000101011)

State 1007 file input/c/c_seq/p4.c line 486 function t_three thread 0
----------------------------------------------------
  wait=0 (00000000000000000000000000000000)

State 1010 file input/c/c_seq/p4.c line 492 function t_three thread 0
----------------------------------------------------
  j=3 (00000000000000000000000000000011)

State 1015 file input/c/c_seq/p4.c line 502 function t_three thread 0
----------------------------------------------------
  j=4 (00000000000000000000000000000100)

State 1022 file input/c/c_seq/p4.c line 506 function t_three thread 0
----------------------------------------------------
  wait=0 (00000000000000000000000000000000)

State 1030 file input/c/c_seq/p4.c line 518 function t_three thread 0
----------------------------------------------------
  i=2 (00000000000000000000000000000010)

State 1032 file input/c/c_seq/p4.c line 520 function t_three thread 0
----------------------------------------------------
  flag[3]=2 (00000000000000000000000000000010)

State 1034 file input/c/c_seq/p4.c line 522 function t_three thread 0
----------------------------------------------------
  turn[2]=3 (00000000000000000000000000000011)

State 1036 file input/c/c_seq/p4.c line 526 function t_three thread 0
----------------------------------------------------
  wait=0 (00000000000000000000000000000000)

State 1038 file input/c/c_seq/p4.c line 529 function t_three thread 0
----------------------------------------------------
  j=1 (00000000000000000000000000000001)

State 1045 file input/c/c_seq/p4.c line 533 function t_three thread 0
----------------------------------------------------
  wait=0 (00000000000000000000000000000000)

State 1048 file input/c/c_seq/p4.c line 539 function t_three thread 0
----------------------------------------------------
  j=2 (00000000000000000000000000000010)

State 1055 file input/c/c_seq/p4.c line 543 function t_three thread 0
----------------------------------------------------
  wait=0 (00000000000000000000000000000000)

State 1058 file input/c/c_seq/p4.c line 549 function t_three thread 0
----------------------------------------------------
  j=3 (00000000000000000000000000000011)

State 1063 file input/c/c_seq/p4.c line 559 function t_three thread 0
----------------------------------------------------
  j=4 (00000000000000000000000000000100)

State 1070 file input/c/c_seq/p4.c line 563 function t_three thread 0
----------------------------------------------------
  wait=0 (00000000000000000000000000000000)

State 1078 file input/c/c_seq/p4.c line 576 function t_three thread 0
----------------------------------------------------
  i=3 (00000000000000000000000000000011)

State 1080 file input/c/c_seq/p4.c line 578 function t_three thread 0
----------------------------------------------------
  flag[3]=3 (00000000000000000000000000000011)

State 1082 file input/c/c_seq/p4.c line 580 function t_three thread 0
----------------------------------------------------
  turn[3]=3 (00000000000000000000000000000011)

State 1084 file input/c/c_seq/p4.c line 584 function t_three thread 0
----------------------------------------------------
  wait=0 (00000000000000000000000000000000)

State 1086 file input/c/c_seq/p4.c line 587 function t_three thread 0
----------------------------------------------------
  j=1 (00000000000000000000000000000001)

State 1093 file input/c/c_seq/p4.c line 591 function t_three thread 0
----------------------------------------------------
  wait=0 (00000000000000000000000000000000)

State 1096 file input/c/c_seq/p4.c line 597 function t_three thread 0
----------------------------------------------------
  j=2 (00000000000000000000000000000010)

State 1117 file input/c/c_seq/p4.c line 920 function main thread 0
----------------------------------------------------
  pc[3]=43 (00000000000000000000000000101011)

State 1118 file input/c/c_seq/p4.c line 921 function main thread 0
----------------------------------------------------
  active[3]=1 (00000000000000000000000000000001)

State 1119 file input/c/c_seq/p4.c line 924 function main thread 0
----------------------------------------------------
  ct=4 (00000000000000000000000000000100)

State 1125 file input/c/c_seq/p4.c line 897 function main thread 0
----------------------------------------------------
  ct=1 (00000000000000000000000000000001)

State 1127 file input/c/c_seq/p4.c line 906 function main thread 0
----------------------------------------------------
  ct=2 (00000000000000000000000000000010)

State 1129 file input/c/c_seq/p4.c line 915 function main thread 0
----------------------------------------------------
  ct=3 (00000000000000000000000000000011)

State 1131 file input/c/c_seq/p4.c line 917 function main thread 0
----------------------------------------------------
  cs=43 (00000000000000000000000000101011)

State 1200 file input/c/c_seq/p4.c line 920 function main thread 0
----------------------------------------------------
  pc[3]=43 (00000000000000000000000000101011)

State 1201 file input/c/c_seq/p4.c line 921 function main thread 0
----------------------------------------------------
  active[3]=1 (00000000000000000000000000000001)

State 1202 file input/c/c_seq/p4.c line 924 function main thread 0
----------------------------------------------------
  ct=4 (00000000000000000000000000000100)

State 1208 file input/c/c_seq/p4.c line 897 function main thread 0
----------------------------------------------------
  ct=1 (00000000000000000000000000000001)

State 1210 file input/c/c_seq/p4.c line 906 function main thread 0
----------------------------------------------------
  ct=2 (00000000000000000000000000000010)

State 1212 file input/c/c_seq/p4.c line 915 function main thread 0
----------------------------------------------------
  ct=3 (00000000000000000000000000000011)

State 1214 file input/c/c_seq/p4.c line 917 function main thread 0
----------------------------------------------------
  cs=43 (00000000000000000000000000101011)

State 1283 file input/c/c_seq/p4.c line 920 function main thread 0
----------------------------------------------------
  pc[3]=43 (00000000000000000000000000101011)

State 1284 file input/c/c_seq/p4.c line 921 function main thread 0
----------------------------------------------------
  active[3]=1 (00000000000000000000000000000001)

State 1285 file input/c/c_seq/p4.c line 924 function main thread 0
----------------------------------------------------
  ct=4 (00000000000000000000000000000100)

State 1291 file input/c/c_seq/p4.c line 897 function main thread 0
----------------------------------------------------
  ct=1 (00000000000000000000000000000001)

State 1293 file input/c/c_seq/p4.c line 906 function main thread 0
----------------------------------------------------
  ct=2 (00000000000000000000000000000010)

State 1295 file input/c/c_seq/p4.c line 915 function main thread 0
----------------------------------------------------
  ct=3 (00000000000000000000000000000011)

State 1297 file input/c/c_seq/p4.c line 917 function main thread 0
----------------------------------------------------
  cs=59 (00000000000000000000000000111011)

State 1352 file input/c/c_seq/p4.c line 601 function t_three thread 0
----------------------------------------------------
  wait=0 (00000000000000000000000000000000)

State 1355 file input/c/c_seq/p4.c line 607 function t_three thread 0
----------------------------------------------------
  j=3 (00000000000000000000000000000011)

State 1360 file input/c/c_seq/p4.c line 617 function t_three thread 0
----------------------------------------------------
  j=4 (00000000000000000000000000000100)

State 1367 file input/c/c_seq/p4.c line 621 function t_three thread 0
----------------------------------------------------
  wait=0 (00000000000000000000000000000000)

State 1377 file input/c/c_seq/p4.c line 638 function t_three thread 0
----------------------------------------------------
  x_tmp=-1 (11111111111111111111111111111111)

State 1379 file input/c/c_seq/p4.c line 640 function t_three thread 0
----------------------------------------------------
  x_tmp=0 (00000000000000000000000000000000)

State 1381 file input/c/c_seq/p4.c line 642 function t_three thread 0
----------------------------------------------------
  x=0 (00000000000000000000000000000000)

State 1385 file input/c/c_seq/p4.c line 657 function t_three thread 0
----------------------------------------------------
  flag[3]=-1 (11111111111111111111111111111111)

State 1388 file input/c/c_seq/p4.c line 920 function main thread 0
----------------------------------------------------
  pc[3]=59 (00000000000000000000000000111011)

State 1389 file input/c/c_seq/p4.c line 921 function main thread 0
----------------------------------------------------
  active[3]=0 (00000000000000000000000000000000)

State 1390 file input/c/c_seq/p4.c line 924 function main thread 0
----------------------------------------------------
  ct=4 (00000000000000000000000000000100)

Violated property:
  file input/c/c_seq/p4.c line 940 function main
  OK
  0 != 0

VERIFICATION FAILED

real	0m22.951s
user	0m22.860s
sys	0m0.080s
