CBMC version 5.4 64-bit x86_64 macos
Parsing input/c/c_seq/act_java_ko.c
Converting
Type-checking act_java_ko
file input/c/c_seq/act_java_ko.c line 584 function main: function `nondet_uint' is not declared
Generating GOTO Program
Adding CPROVER library (x86_64)
Function Pointer Removal
Partial Inlining
Generic Property Instrumentation
Starting Bounded Model Checking
Unwinding loop main.0 iteration 1 (21 max) file input/c/c_seq/act_java_ko.c line 581 function main thread 0
Unwinding loop main.0 iteration 2 (21 max) file input/c/c_seq/act_java_ko.c line 581 function main thread 0
Unwinding loop main.0 iteration 3 (21 max) file input/c/c_seq/act_java_ko.c line 581 function main thread 0
Unwinding loop main.0 iteration 4 (21 max) file input/c/c_seq/act_java_ko.c line 581 function main thread 0
Unwinding loop main.0 iteration 5 (21 max) file input/c/c_seq/act_java_ko.c line 581 function main thread 0
Unwinding loop main.0 iteration 6 (21 max) file input/c/c_seq/act_java_ko.c line 581 function main thread 0
Unwinding loop main.0 iteration 7 (21 max) file input/c/c_seq/act_java_ko.c line 581 function main thread 0
Unwinding loop main.0 iteration 8 (21 max) file input/c/c_seq/act_java_ko.c line 581 function main thread 0
Unwinding loop main.0 iteration 9 (21 max) file input/c/c_seq/act_java_ko.c line 581 function main thread 0
Unwinding loop main.0 iteration 10 (21 max) file input/c/c_seq/act_java_ko.c line 581 function main thread 0
Unwinding loop main.0 iteration 11 (21 max) file input/c/c_seq/act_java_ko.c line 581 function main thread 0
Unwinding loop main.0 iteration 12 (21 max) file input/c/c_seq/act_java_ko.c line 581 function main thread 0
Unwinding loop main.0 iteration 13 (21 max) file input/c/c_seq/act_java_ko.c line 581 function main thread 0
Unwinding loop main.0 iteration 14 (21 max) file input/c/c_seq/act_java_ko.c line 581 function main thread 0
Unwinding loop main.0 iteration 15 (21 max) file input/c/c_seq/act_java_ko.c line 581 function main thread 0
Unwinding loop main.0 iteration 16 (21 max) file input/c/c_seq/act_java_ko.c line 581 function main thread 0
Unwinding loop main.0 iteration 17 (21 max) file input/c/c_seq/act_java_ko.c line 581 function main thread 0
Unwinding loop main.0 iteration 18 (21 max) file input/c/c_seq/act_java_ko.c line 581 function main thread 0
Unwinding loop main.0 iteration 19 (21 max) file input/c/c_seq/act_java_ko.c line 581 function main thread 0
Unwinding loop main.0 iteration 20 (21 max) file input/c/c_seq/act_java_ko.c line 581 function main thread 0
Not unwinding loop main.0 iteration 21 (21 max) file input/c/c_seq/act_java_ko.c line 581 function main thread 0
size of program expression: 19989 steps
simple slicing removed 3 assignments
Generated 525 VCC(s), 525 remaining after simplification
Passing problem to propositional reduction
converting SSA
Running propositional reduction
Post-processing
Solving with MiniSAT 2.2.1 with simplifier
708043 variables, 3270387 clauses
SAT checker: instance is SATISFIABLE
Runtime decision procedure: 134.103s
Building error trace

Counterexample:

State 41 file input/c/c_seq/act_java_ko.c line 560 function init thread 0
----------------------------------------------------
  pc[0]=0 (00000000000000000000000000000000)

State 42 file input/c/c_seq/act_java_ko.c line 561 function init thread 0
----------------------------------------------------
  size[0]=0 (00000000000000000000000000000000)

State 43 file input/c/c_seq/act_java_ko.c line 563 function init thread 0
----------------------------------------------------
  pc[1]=0 (00000000000000000000000000000000)

State 44 file input/c/c_seq/act_java_ko.c line 564 function init thread 0
----------------------------------------------------
  pc[2]=0 (00000000000000000000000000000000)

State 45 file input/c/c_seq/act_java_ko.c line 565 function init thread 0
----------------------------------------------------
  pc[3]=0 (00000000000000000000000000000000)

State 46 file input/c/c_seq/act_java_ko.c line 566 function init thread 0
----------------------------------------------------
  ssize=0 (00000000000000000000000000000000)

State 47 file input/c/c_seq/act_java_ko.c line 566 function init thread 0
----------------------------------------------------
  ssize=33 (00000000000000000000000000100001)

State 48 file input/c/c_seq/act_java_ko.c line 567 function init thread 0
----------------------------------------------------
  size[1]=33 (00000000000000000000000000100001)

State 49 file input/c/c_seq/act_java_ko.c line 568 function init thread 0
----------------------------------------------------
  size[2]=33 (00000000000000000000000000100001)

State 50 file input/c/c_seq/act_java_ko.c line 569 function init thread 0
----------------------------------------------------
  size[3]=33 (00000000000000000000000000100001)

State 51 file input/c/c_seq/act_java_ko.c line 571 function init thread 0
----------------------------------------------------
  t1=0 (00000000000000000000000000000000)

State 52 file input/c/c_seq/act_java_ko.c line 571 function init thread 0
----------------------------------------------------
  t2=0 (00000000000000000000000000000000)

State 53 file input/c/c_seq/act_java_ko.c line 571 function init thread 0
----------------------------------------------------
  t3=0 (00000000000000000000000000000000)

State 56 file input/c/c_seq/act_java_ko.c line 573 function init thread 0
----------------------------------------------------
  t=0 (00000000000000000000000000000000)

State 57 file input/c/c_seq/act_java_ko.c line 573 function init thread 0
----------------------------------------------------
  id=1 (00000000000000000000000000000001)

State 58 file input/c/c_seq/act_java_ko.c line 21 function create thread 0
----------------------------------------------------
  active[1]=1 (00000000000000000000000000000001)

State 59 file input/c/c_seq/act_java_ko.c line 22 function create thread 0
----------------------------------------------------
  t=1 (00000000000000000000000000000001)

State 63 file input/c/c_seq/act_java_ko.c line 574 function init thread 0
----------------------------------------------------
  t=0 (00000000000000000000000000000000)

State 64 file input/c/c_seq/act_java_ko.c line 574 function init thread 0
----------------------------------------------------
  id=2 (00000000000000000000000000000010)

State 65 file input/c/c_seq/act_java_ko.c line 21 function create thread 0
----------------------------------------------------
  active[2]=1 (00000000000000000000000000000001)

State 66 file input/c/c_seq/act_java_ko.c line 22 function create thread 0
----------------------------------------------------
  t=2 (00000000000000000000000000000010)

State 70 file input/c/c_seq/act_java_ko.c line 575 function init thread 0
----------------------------------------------------
  t=0 (00000000000000000000000000000000)

State 71 file input/c/c_seq/act_java_ko.c line 575 function init thread 0
----------------------------------------------------
  id=3 (00000000000000000000000000000011)

State 72 file input/c/c_seq/act_java_ko.c line 21 function create thread 0
----------------------------------------------------
  active[3]=1 (00000000000000000000000000000001)

State 73 file input/c/c_seq/act_java_ko.c line 22 function create thread 0
----------------------------------------------------
  t=3 (00000000000000000000000000000011)

State 76 file input/c/c_seq/act_java_ko.c line 582 function main thread 0
----------------------------------------------------
  ct=1 (00000000000000000000000000000001)

State 78 file input/c/c_seq/act_java_ko.c line 584 function main thread 0
----------------------------------------------------
  cs=15 (00000000000000000000000000001111)

State 87 file input/c/c_seq/act_java_ko.c line 77 function t_one thread 0
----------------------------------------------------
  i=1 (00000000000000000000000000000001)

State 89 file input/c/c_seq/act_java_ko.c line 79 function t_one thread 0
----------------------------------------------------
  MyClaim=4 (00000000000000000000000000000100)

State 91 file input/c/c_seq/act_java_ko.c line 82 function t_one thread 0
----------------------------------------------------
  y=4 (00000000000000000000000000000100)

State 94 file input/c/c_seq/act_java_ko.c line 94 function t_one thread 0
----------------------------------------------------
  stock=18 (00000000000000000000000000010010)

State 98 file input/c/c_seq/act_java_ko.c line 110 function t_one thread 0
----------------------------------------------------
  FullAllocation=4 (00000000000000000000000000000100)

State 100 file input/c/c_seq/act_java_ko.c line 112 function t_one thread 0
----------------------------------------------------
  i=2 (00000000000000000000000000000010)

State 102 file input/c/c_seq/act_java_ko.c line 114 function t_one thread 0
----------------------------------------------------
  MyClaim=3 (00000000000000000000000000000011)

State 104 file input/c/c_seq/act_java_ko.c line 117 function t_one thread 0
----------------------------------------------------
  y=3 (00000000000000000000000000000011)

State 107 file input/c/c_seq/act_java_ko.c line 129 function t_one thread 0
----------------------------------------------------
  stock=15 (00000000000000000000000000001111)

State 130 file input/c/c_seq/act_java_ko.c line 587 function main thread 0
----------------------------------------------------
  pc[1]=15 (00000000000000000000000000001111)

State 131 file input/c/c_seq/act_java_ko.c line 588 function main thread 0
----------------------------------------------------
  active[1]=1 (00000000000000000000000000000001)

State 132 file input/c/c_seq/act_java_ko.c line 589 function main thread 0
----------------------------------------------------
  dead=0 (00000000000000000000000000000000)

State 133 file input/c/c_seq/act_java_ko.c line 592 function main thread 0
----------------------------------------------------
  ct=2 (00000000000000000000000000000010)

State 135 file input/c/c_seq/act_java_ko.c line 594 function main thread 0
----------------------------------------------------
  cs=15 (00000000000000000000000000001111)

State 144 file input/c/c_seq/act_java_ko.c line 241 function t_two thread 0
----------------------------------------------------
  i=1 (00000000000000000000000000000001)

State 146 file input/c/c_seq/act_java_ko.c line 243 function t_two thread 0
----------------------------------------------------
  MyClaim=4 (00000000000000000000000000000100)

State 148 file input/c/c_seq/act_java_ko.c line 246 function t_two thread 0
----------------------------------------------------
  y=4 (00000000000000000000000000000100)

State 151 file input/c/c_seq/act_java_ko.c line 258 function t_two thread 0
----------------------------------------------------
  stock=11 (00000000000000000000000000001011)

State 155 file input/c/c_seq/act_java_ko.c line 274 function t_two thread 0
----------------------------------------------------
  FullAllocation=4 (00000000000000000000000000000100)

State 157 file input/c/c_seq/act_java_ko.c line 276 function t_two thread 0
----------------------------------------------------
  i=2 (00000000000000000000000000000010)

State 159 file input/c/c_seq/act_java_ko.c line 278 function t_two thread 0
----------------------------------------------------
  MyClaim=3 (00000000000000000000000000000011)

State 161 file input/c/c_seq/act_java_ko.c line 281 function t_two thread 0
----------------------------------------------------
  y=3 (00000000000000000000000000000011)

State 164 file input/c/c_seq/act_java_ko.c line 293 function t_two thread 0
----------------------------------------------------
  stock=8 (00000000000000000000000000001000)

State 187 file input/c/c_seq/act_java_ko.c line 597 function main thread 0
----------------------------------------------------
  pc[2]=15 (00000000000000000000000000001111)

State 188 file input/c/c_seq/act_java_ko.c line 598 function main thread 0
----------------------------------------------------
  active[2]=1 (00000000000000000000000000000001)

State 189 file input/c/c_seq/act_java_ko.c line 599 function main thread 0
----------------------------------------------------
  dead=0 (00000000000000000000000000000000)

State 190 file input/c/c_seq/act_java_ko.c line 602 function main thread 0
----------------------------------------------------
  ct=3 (00000000000000000000000000000011)

State 192 file input/c/c_seq/act_java_ko.c line 604 function main thread 0
----------------------------------------------------
  cs=15 (00000000000000000000000000001111)

State 201 file input/c/c_seq/act_java_ko.c line 404 function t_three thread 0
----------------------------------------------------
  i=1 (00000000000000000000000000000001)

State 203 file input/c/c_seq/act_java_ko.c line 406 function t_three thread 0
----------------------------------------------------
  MyClaim=4 (00000000000000000000000000000100)

State 205 file input/c/c_seq/act_java_ko.c line 409 function t_three thread 0
----------------------------------------------------
  y=4 (00000000000000000000000000000100)

State 208 file input/c/c_seq/act_java_ko.c line 421 function t_three thread 0
----------------------------------------------------
  stock=4 (00000000000000000000000000000100)

State 212 file input/c/c_seq/act_java_ko.c line 437 function t_three thread 0
----------------------------------------------------
  FullAllocation=4 (00000000000000000000000000000100)

State 214 file input/c/c_seq/act_java_ko.c line 439 function t_three thread 0
----------------------------------------------------
  i=2 (00000000000000000000000000000010)

State 216 file input/c/c_seq/act_java_ko.c line 441 function t_three thread 0
----------------------------------------------------
  MyClaim=3 (00000000000000000000000000000011)

State 218 file input/c/c_seq/act_java_ko.c line 444 function t_three thread 0
----------------------------------------------------
  y=3 (00000000000000000000000000000011)

State 221 file input/c/c_seq/act_java_ko.c line 456 function t_three thread 0
----------------------------------------------------
  stock=1 (00000000000000000000000000000001)

State 244 file input/c/c_seq/act_java_ko.c line 607 function main thread 0
----------------------------------------------------
  pc[3]=15 (00000000000000000000000000001111)

State 245 file input/c/c_seq/act_java_ko.c line 608 function main thread 0
----------------------------------------------------
  active[3]=1 (00000000000000000000000000000001)

State 246 file input/c/c_seq/act_java_ko.c line 609 function main thread 0
----------------------------------------------------
  dead=0 (00000000000000000000000000000000)

State 249 file input/c/c_seq/act_java_ko.c line 582 function main thread 0
----------------------------------------------------
  ct=1 (00000000000000000000000000000001)

State 251 file input/c/c_seq/act_java_ko.c line 584 function main thread 0
----------------------------------------------------
  cs=21 (00000000000000000000000000010101)

State 275 file input/c/c_seq/act_java_ko.c line 145 function t_one thread 0
----------------------------------------------------
  FullAllocation=7 (00000000000000000000000000000111)

State 277 file input/c/c_seq/act_java_ko.c line 147 function t_one thread 0
----------------------------------------------------
  i=3 (00000000000000000000000000000011)

State 279 file input/c/c_seq/act_java_ko.c line 149 function t_one thread 0
----------------------------------------------------
  MyClaim=2 (00000000000000000000000000000010)

State 281 file input/c/c_seq/act_java_ko.c line 152 function t_one thread 0
----------------------------------------------------
  y=2 (00000000000000000000000000000010)

State 284 file input/c/c_seq/act_java_ko.c line 164 function t_one thread 0
----------------------------------------------------
  stock=-1 (11111111111111111111111111111111)

State 286 file input/c/c_seq/act_java_ko.c line 167 function t_one thread 0
----------------------------------------------------
  assignCount=1 (00000000000000000000000000000001)

State 287 file input/c/c_seq/act_java_ko.c line 168 function t_one thread 0
----------------------------------------------------
  taskInWait=1 (00000000000000000000000000000001)

State 303 file input/c/c_seq/act_java_ko.c line 587 function main thread 0
----------------------------------------------------
  pc[1]=21 (00000000000000000000000000010101)

State 304 file input/c/c_seq/act_java_ko.c line 588 function main thread 0
----------------------------------------------------
  active[1]=1 (00000000000000000000000000000001)

State 305 file input/c/c_seq/act_java_ko.c line 589 function main thread 0
----------------------------------------------------
  dead=0 (00000000000000000000000000000000)

State 306 file input/c/c_seq/act_java_ko.c line 592 function main thread 0
----------------------------------------------------
  ct=2 (00000000000000000000000000000010)

State 308 file input/c/c_seq/act_java_ko.c line 594 function main thread 0
----------------------------------------------------
  cs=19 (00000000000000000000000000010011)

State 332 file input/c/c_seq/act_java_ko.c line 309 function t_two thread 0
----------------------------------------------------
  FullAllocation=7 (00000000000000000000000000000111)

State 334 file input/c/c_seq/act_java_ko.c line 311 function t_two thread 0
----------------------------------------------------
  i=3 (00000000000000000000000000000011)

State 336 file input/c/c_seq/act_java_ko.c line 313 function t_two thread 0
----------------------------------------------------
  MyClaim=2 (00000000000000000000000000000010)

State 338 file input/c/c_seq/act_java_ko.c line 316 function t_two thread 0
----------------------------------------------------
  y=2 (00000000000000000000000000000010)

State 340 file input/c/c_seq/act_java_ko.c line 319 function t_two thread 0
----------------------------------------------------
  taskInWait=2 (00000000000000000000000000000010)

State 358 file input/c/c_seq/act_java_ko.c line 597 function main thread 0
----------------------------------------------------
  pc[2]=19 (00000000000000000000000000010011)

State 359 file input/c/c_seq/act_java_ko.c line 598 function main thread 0
----------------------------------------------------
  active[2]=1 (00000000000000000000000000000001)

State 360 file input/c/c_seq/act_java_ko.c line 599 function main thread 0
----------------------------------------------------
  dead=0 (00000000000000000000000000000000)

State 361 file input/c/c_seq/act_java_ko.c line 602 function main thread 0
----------------------------------------------------
  ct=3 (00000000000000000000000000000011)

State 363 file input/c/c_seq/act_java_ko.c line 604 function main thread 0
----------------------------------------------------
  cs=18 (00000000000000000000000000010010)

State 387 file input/c/c_seq/act_java_ko.c line 472 function t_three thread 0
----------------------------------------------------
  FullAllocation=7 (00000000000000000000000000000111)

State 389 file input/c/c_seq/act_java_ko.c line 474 function t_three thread 0
----------------------------------------------------
  i=3 (00000000000000000000000000000011)

State 391 file input/c/c_seq/act_java_ko.c line 476 function t_three thread 0
----------------------------------------------------
  MyClaim=2 (00000000000000000000000000000010)

State 409 file input/c/c_seq/act_java_ko.c line 607 function main thread 0
----------------------------------------------------
  pc[3]=18 (00000000000000000000000000010010)

State 410 file input/c/c_seq/act_java_ko.c line 608 function main thread 0
----------------------------------------------------
  active[3]=1 (00000000000000000000000000000001)

State 411 file input/c/c_seq/act_java_ko.c line 609 function main thread 0
----------------------------------------------------
  dead=0 (00000000000000000000000000000000)

State 414 file input/c/c_seq/act_java_ko.c line 582 function main thread 0
----------------------------------------------------
  ct=1 (00000000000000000000000000000001)

State 416 file input/c/c_seq/act_java_ko.c line 584 function main thread 0
----------------------------------------------------
  cs=21 (00000000000000000000000000010101)

State 459 file input/c/c_seq/act_java_ko.c line 587 function main thread 0
----------------------------------------------------
  pc[1]=21 (00000000000000000000000000010101)

State 460 file input/c/c_seq/act_java_ko.c line 588 function main thread 0
----------------------------------------------------
  active[1]=1 (00000000000000000000000000000001)

State 461 file input/c/c_seq/act_java_ko.c line 589 function main thread 0
----------------------------------------------------
  dead=0 (00000000000000000000000000000000)

State 462 file input/c/c_seq/act_java_ko.c line 592 function main thread 0
----------------------------------------------------
  ct=2 (00000000000000000000000000000010)

State 464 file input/c/c_seq/act_java_ko.c line 594 function main thread 0
----------------------------------------------------
  cs=19 (00000000000000000000000000010011)

State 507 file input/c/c_seq/act_java_ko.c line 597 function main thread 0
----------------------------------------------------
  pc[2]=19 (00000000000000000000000000010011)

State 508 file input/c/c_seq/act_java_ko.c line 598 function main thread 0
----------------------------------------------------
  active[2]=1 (00000000000000000000000000000001)

State 509 file input/c/c_seq/act_java_ko.c line 599 function main thread 0
----------------------------------------------------
  dead=0 (00000000000000000000000000000000)

State 510 file input/c/c_seq/act_java_ko.c line 602 function main thread 0
----------------------------------------------------
  ct=3 (00000000000000000000000000000011)

State 512 file input/c/c_seq/act_java_ko.c line 604 function main thread 0
----------------------------------------------------
  cs=33 (00000000000000000000000000100001)

State 539 file input/c/c_seq/act_java_ko.c line 479 function t_three thread 0
----------------------------------------------------
  y=2 (00000000000000000000000000000010)

State 541 file input/c/c_seq/act_java_ko.c line 482 function t_three thread 0
----------------------------------------------------
  taskInWait=3 (00000000000000000000000000000011)

Violated property:
  file input/c/c_seq/act_java_ko.c line 483 function t_three
  OK taskInWait==3
  taskInWait < 3

VERIFICATION FAILED

real	2m39.091s
user	2m38.627s
sys	0m0.444s
