CBMC version 5.4 64-bit x86_64 linux
Parsing input/c/c_seq/p4_ko.c
Converting
Type-checking p4_ko
file input/c/c_seq/p4_ko.c line 899 function main: function `nondet_uint' is not declared
Generating GOTO Program
Adding CPROVER library (x86_64)
Function Pointer Removal
Partial Inlining
Generic Property Instrumentation
Starting Bounded Model Checking
Unwinding loop main.0 iteration 1 (4 max) file input/c/c_seq/p4_ko.c line 896 function main thread 0
Unwinding loop main.0 iteration 2 (4 max) file input/c/c_seq/p4_ko.c line 896 function main thread 0
Unwinding loop main.0 iteration 3 (4 max) file input/c/c_seq/p4_ko.c line 896 function main thread 0
Not unwinding loop main.0 iteration 4 (4 max) file input/c/c_seq/p4_ko.c line 896 function main thread 0
size of program expression: 8181 steps
simple slicing removed 3 assignments
Generated 3 VCC(s), 3 remaining after simplification
Passing problem to propositional reduction
converting SSA
Running propositional reduction
Post-processing
Solving with Glucose Syrup with simplifier
143032 variables, 595460 clauses
SAT checker: instance is SATISFIABLE
Runtime decision procedure: 4.711s
Building error trace

Counterexample:

State 48 file input/c/c_seq/p4_ko.c line 871 function init thread 0
----------------------------------------------------
  pc[0]=0 (00000000000000000000000000000000)

State 49 file input/c/c_seq/p4_ko.c line 872 function init thread 0
----------------------------------------------------
  size[0]=0 (00000000000000000000000000000000)

State 50 file input/c/c_seq/p4_ko.c line 874 function init thread 0
----------------------------------------------------
  pc[1]=0 (00000000000000000000000000000000)

State 51 file input/c/c_seq/p4_ko.c line 875 function init thread 0
----------------------------------------------------
  pc[2]=0 (00000000000000000000000000000000)

State 52 file input/c/c_seq/p4_ko.c line 876 function init thread 0
----------------------------------------------------
  pc[3]=0 (00000000000000000000000000000000)

State 53 file input/c/c_seq/p4_ko.c line 877 function init thread 0
----------------------------------------------------
  pc[4]=0 (00000000000000000000000000000000)

State 54 file input/c/c_seq/p4_ko.c line 879 function init thread 0
----------------------------------------------------
  size[0]=4 (00000000000000000000000000000100)

State 55 file input/c/c_seq/p4_ko.c line 880 function init thread 0
----------------------------------------------------
  size[1]=59 (00000000000000000000000000111011)

State 56 file input/c/c_seq/p4_ko.c line 881 function init thread 0
----------------------------------------------------
  size[2]=59 (00000000000000000000000000111011)

State 57 file input/c/c_seq/p4_ko.c line 882 function init thread 0
----------------------------------------------------
  size[3]=59 (00000000000000000000000000111011)

State 58 file input/c/c_seq/p4_ko.c line 883 function init thread 0
----------------------------------------------------
  size[4]=59 (00000000000000000000000000111011)

State 59 file input/c/c_seq/p4_ko.c line 885 function init thread 0
----------------------------------------------------
  t1=0 (00000000000000000000000000000000)

State 60 file input/c/c_seq/p4_ko.c line 885 function init thread 0
----------------------------------------------------
  t2=0 (00000000000000000000000000000000)

State 61 file input/c/c_seq/p4_ko.c line 885 function init thread 0
----------------------------------------------------
  t3=0 (00000000000000000000000000000000)

State 62 file input/c/c_seq/p4_ko.c line 885 function init thread 0
----------------------------------------------------
  t4=0 (00000000000000000000000000000000)

State 63 file input/c/c_seq/p4_ko.c line 885 function init thread 0
----------------------------------------------------
  t5=0 (00000000000000000000000000000000)

State 64 file input/c/c_seq/p4_ko.c line 885 function init thread 0
----------------------------------------------------
  t6=0 (00000000000000000000000000000000)

State 67 file input/c/c_seq/p4_ko.c line 887 function init thread 0
----------------------------------------------------
  t=0 (00000000000000000000000000000000)

State 68 file input/c/c_seq/p4_ko.c line 887 function init thread 0
----------------------------------------------------
  id=1 (00000000000000000000000000000001)

State 69 file input/c/c_seq/p4_ko.c line 20 function create thread 0
----------------------------------------------------
  active[1]=1 (00000000000000000000000000000001)

State 70 file input/c/c_seq/p4_ko.c line 21 function create thread 0
----------------------------------------------------
  t=1 (00000000000000000000000000000001)

State 74 file input/c/c_seq/p4_ko.c line 888 function init thread 0
----------------------------------------------------
  t=0 (00000000000000000000000000000000)

State 75 file input/c/c_seq/p4_ko.c line 888 function init thread 0
----------------------------------------------------
  id=2 (00000000000000000000000000000010)

State 76 file input/c/c_seq/p4_ko.c line 20 function create thread 0
----------------------------------------------------
  active[2]=1 (00000000000000000000000000000001)

State 77 file input/c/c_seq/p4_ko.c line 21 function create thread 0
----------------------------------------------------
  t=2 (00000000000000000000000000000010)

State 81 file input/c/c_seq/p4_ko.c line 889 function init thread 0
----------------------------------------------------
  t=0 (00000000000000000000000000000000)

State 82 file input/c/c_seq/p4_ko.c line 889 function init thread 0
----------------------------------------------------
  id=3 (00000000000000000000000000000011)

State 83 file input/c/c_seq/p4_ko.c line 20 function create thread 0
----------------------------------------------------
  active[3]=1 (00000000000000000000000000000001)

State 84 file input/c/c_seq/p4_ko.c line 21 function create thread 0
----------------------------------------------------
  t=3 (00000000000000000000000000000011)

State 88 file input/c/c_seq/p4_ko.c line 890 function init thread 0
----------------------------------------------------
  t=0 (00000000000000000000000000000000)

State 89 file input/c/c_seq/p4_ko.c line 890 function init thread 0
----------------------------------------------------
  id=4 (00000000000000000000000000000100)

State 90 file input/c/c_seq/p4_ko.c line 20 function create thread 0
----------------------------------------------------
  active[4]=1 (00000000000000000000000000000001)

State 91 file input/c/c_seq/p4_ko.c line 21 function create thread 0
----------------------------------------------------
  t=4 (00000000000000000000000000000100)

State 94 file input/c/c_seq/p4_ko.c line 897 function main thread 0
----------------------------------------------------
  ct=1 (00000000000000000000000000000001)

State 96 file input/c/c_seq/p4_ko.c line 899 function main thread 0
----------------------------------------------------
  cs=1 (00000000000000000000000000000001)

State 105 file input/c/c_seq/p4_ko.c line 37 function t_one thread 0
----------------------------------------------------
  i=1 (00000000000000000000000000000001)

State 166 file input/c/c_seq/p4_ko.c line 902 function main thread 0
----------------------------------------------------
  pc[1]=1 (00000000000000000000000000000001)

State 167 file input/c/c_seq/p4_ko.c line 903 function main thread 0
----------------------------------------------------
  active[1]=1 (00000000000000000000000000000001)

State 168 file input/c/c_seq/p4_ko.c line 906 function main thread 0
----------------------------------------------------
  ct=2 (00000000000000000000000000000010)

State 170 file input/c/c_seq/p4_ko.c line 908 function main thread 0
----------------------------------------------------
  cs=1 (00000000000000000000000000000001)

State 179 file input/c/c_seq/p4_ko.c line 252 function t_two thread 0
----------------------------------------------------
  i=1 (00000000000000000000000000000001)

State 240 file input/c/c_seq/p4_ko.c line 911 function main thread 0
----------------------------------------------------
  pc[2]=1 (00000000000000000000000000000001)

State 241 file input/c/c_seq/p4_ko.c line 912 function main thread 0
----------------------------------------------------
  active[2]=1 (00000000000000000000000000000001)

State 242 file input/c/c_seq/p4_ko.c line 915 function main thread 0
----------------------------------------------------
  ct=3 (00000000000000000000000000000011)

State 244 file input/c/c_seq/p4_ko.c line 917 function main thread 0
----------------------------------------------------
  cs=0 (00000000000000000000000000000000)

State 313 file input/c/c_seq/p4_ko.c line 920 function main thread 0
----------------------------------------------------
  pc[3]=0 (00000000000000000000000000000000)

State 314 file input/c/c_seq/p4_ko.c line 921 function main thread 0
----------------------------------------------------
  active[3]=1 (00000000000000000000000000000001)

State 315 file input/c/c_seq/p4_ko.c line 924 function main thread 0
----------------------------------------------------
  ct=4 (00000000000000000000000000000100)

State 317 file input/c/c_seq/p4_ko.c line 926 function main thread 0
----------------------------------------------------
  cs=1 (00000000000000000000000000000001)

State 326 file input/c/c_seq/p4_ko.c line 669 function t_four thread 0
----------------------------------------------------
  i=1 (00000000000000000000000000000001)

State 387 file input/c/c_seq/p4_ko.c line 929 function main thread 0
----------------------------------------------------
  pc[4]=1 (00000000000000000000000000000001)

State 388 file input/c/c_seq/p4_ko.c line 930 function main thread 0
----------------------------------------------------
  active[4]=1 (00000000000000000000000000000001)

State 391 file input/c/c_seq/p4_ko.c line 897 function main thread 0
----------------------------------------------------
  ct=1 (00000000000000000000000000000001)

State 393 file input/c/c_seq/p4_ko.c line 899 function main thread 0
----------------------------------------------------
  cs=59 (00000000000000000000000000111011)

State 403 file input/c/c_seq/p4_ko.c line 39 function t_one thread 0
----------------------------------------------------
  flag[1]=1 (00000000000000000000000000000001)

State 405 file input/c/c_seq/p4_ko.c line 41 function t_one thread 0
----------------------------------------------------
  turn[1]=1 (00000000000000000000000000000001)

State 407 file input/c/c_seq/p4_ko.c line 45 function t_one thread 0
----------------------------------------------------
  wait=0 (00000000000000000000000000000000)

State 409 file input/c/c_seq/p4_ko.c line 48 function t_one thread 0
----------------------------------------------------
  j=1 (00000000000000000000000000000001)

State 414 file input/c/c_seq/p4_ko.c line 58 function t_one thread 0
----------------------------------------------------
  j=2 (00000000000000000000000000000010)

State 421 file input/c/c_seq/p4_ko.c line 62 function t_one thread 0
----------------------------------------------------
  wait=0 (00000000000000000000000000000000)

State 424 file input/c/c_seq/p4_ko.c line 68 function t_one thread 0
----------------------------------------------------
  j=3 (00000000000000000000000000000011)

State 431 file input/c/c_seq/p4_ko.c line 72 function t_one thread 0
----------------------------------------------------
  wait=0 (00000000000000000000000000000000)

State 434 file input/c/c_seq/p4_ko.c line 78 function t_one thread 0
----------------------------------------------------
  j=4 (00000000000000000000000000000100)

State 441 file input/c/c_seq/p4_ko.c line 82 function t_one thread 0
----------------------------------------------------
  wait=0 (00000000000000000000000000000000)

State 446 file input/c/c_seq/p4_ko.c line 97 function t_one thread 0
----------------------------------------------------
  i=2 (00000000000000000000000000000010)

State 448 file input/c/c_seq/p4_ko.c line 99 function t_one thread 0
----------------------------------------------------
  flag[1]=2 (00000000000000000000000000000010)

State 450 file input/c/c_seq/p4_ko.c line 101 function t_one thread 0
----------------------------------------------------
  turn[2]=1 (00000000000000000000000000000001)

State 452 file input/c/c_seq/p4_ko.c line 105 function t_one thread 0
----------------------------------------------------
  wait=0 (00000000000000000000000000000000)

State 454 file input/c/c_seq/p4_ko.c line 108 function t_one thread 0
----------------------------------------------------
  j=1 (00000000000000000000000000000001)

State 459 file input/c/c_seq/p4_ko.c line 118 function t_one thread 0
----------------------------------------------------
  j=2 (00000000000000000000000000000010)

State 466 file input/c/c_seq/p4_ko.c line 122 function t_one thread 0
----------------------------------------------------
  wait=0 (00000000000000000000000000000000)

State 469 file input/c/c_seq/p4_ko.c line 128 function t_one thread 0
----------------------------------------------------
  j=3 (00000000000000000000000000000011)

State 476 file input/c/c_seq/p4_ko.c line 132 function t_one thread 0
----------------------------------------------------
  wait=0 (00000000000000000000000000000000)

State 479 file input/c/c_seq/p4_ko.c line 138 function t_one thread 0
----------------------------------------------------
  j=4 (00000000000000000000000000000100)

State 486 file input/c/c_seq/p4_ko.c line 142 function t_one thread 0
----------------------------------------------------
  wait=0 (00000000000000000000000000000000)

State 491 file input/c/c_seq/p4_ko.c line 157 function t_one thread 0
----------------------------------------------------
  i=3 (00000000000000000000000000000011)

State 493 file input/c/c_seq/p4_ko.c line 159 function t_one thread 0
----------------------------------------------------
  flag[1]=3 (00000000000000000000000000000011)

State 495 file input/c/c_seq/p4_ko.c line 161 function t_one thread 0
----------------------------------------------------
  turn[3]=1 (00000000000000000000000000000001)

State 497 file input/c/c_seq/p4_ko.c line 165 function t_one thread 0
----------------------------------------------------
  wait=0 (00000000000000000000000000000000)

State 499 file input/c/c_seq/p4_ko.c line 168 function t_one thread 0
----------------------------------------------------
  j=1 (00000000000000000000000000000001)

State 504 file input/c/c_seq/p4_ko.c line 178 function t_one thread 0
----------------------------------------------------
  j=2 (00000000000000000000000000000010)

State 511 file input/c/c_seq/p4_ko.c line 182 function t_one thread 0
----------------------------------------------------
  wait=0 (00000000000000000000000000000000)

State 514 file input/c/c_seq/p4_ko.c line 188 function t_one thread 0
----------------------------------------------------
  j=3 (00000000000000000000000000000011)

State 521 file input/c/c_seq/p4_ko.c line 192 function t_one thread 0
----------------------------------------------------
  wait=0 (00000000000000000000000000000000)

State 524 file input/c/c_seq/p4_ko.c line 198 function t_one thread 0
----------------------------------------------------
  j=4 (00000000000000000000000000000100)

State 531 file input/c/c_seq/p4_ko.c line 202 function t_one thread 0
----------------------------------------------------
  wait=0 (00000000000000000000000000000000)

State 538 file input/c/c_seq/p4_ko.c line 221 function t_one thread 0
----------------------------------------------------
  x_tmp=-1 (11111111111111111111111111111111)

State 540 file input/c/c_seq/p4_ko.c line 223 function t_one thread 0
----------------------------------------------------
  x_tmp=0 (00000000000000000000000000000000)

State 542 file input/c/c_seq/p4_ko.c line 225 function t_one thread 0
----------------------------------------------------
  x=0 (00000000000000000000000000000000)

State 546 file input/c/c_seq/p4_ko.c line 240 function t_one thread 0
----------------------------------------------------
  flag[1]=-1 (11111111111111111111111111111111)

State 549 file input/c/c_seq/p4_ko.c line 902 function main thread 0
----------------------------------------------------
  pc[1]=59 (00000000000000000000000000111011)

State 550 file input/c/c_seq/p4_ko.c line 903 function main thread 0
----------------------------------------------------
  active[1]=0 (00000000000000000000000000000000)

State 551 file input/c/c_seq/p4_ko.c line 906 function main thread 0
----------------------------------------------------
  ct=2 (00000000000000000000000000000010)

State 553 file input/c/c_seq/p4_ko.c line 908 function main thread 0
----------------------------------------------------
  cs=1 (00000000000000000000000000000001)

State 622 file input/c/c_seq/p4_ko.c line 911 function main thread 0
----------------------------------------------------
  pc[2]=1 (00000000000000000000000000000001)

State 623 file input/c/c_seq/p4_ko.c line 912 function main thread 0
----------------------------------------------------
  active[2]=1 (00000000000000000000000000000001)

State 624 file input/c/c_seq/p4_ko.c line 915 function main thread 0
----------------------------------------------------
  ct=3 (00000000000000000000000000000011)

State 626 file input/c/c_seq/p4_ko.c line 917 function main thread 0
----------------------------------------------------
  cs=1 (00000000000000000000000000000001)

State 635 file input/c/c_seq/p4_ko.c line 461 function t_three thread 0
----------------------------------------------------
  i=1 (00000000000000000000000000000001)

State 696 file input/c/c_seq/p4_ko.c line 920 function main thread 0
----------------------------------------------------
  pc[3]=1 (00000000000000000000000000000001)

State 697 file input/c/c_seq/p4_ko.c line 921 function main thread 0
----------------------------------------------------
  active[3]=1 (00000000000000000000000000000001)

State 698 file input/c/c_seq/p4_ko.c line 924 function main thread 0
----------------------------------------------------
  ct=4 (00000000000000000000000000000100)

State 700 file input/c/c_seq/p4_ko.c line 926 function main thread 0
----------------------------------------------------
  cs=42 (00000000000000000000000000101010)

State 710 file input/c/c_seq/p4_ko.c line 671 function t_four thread 0
----------------------------------------------------
  flag[4]=1 (00000000000000000000000000000001)

State 712 file input/c/c_seq/p4_ko.c line 673 function t_four thread 0
----------------------------------------------------
  turn[1]=4 (00000000000000000000000000000100)

State 714 file input/c/c_seq/p4_ko.c line 677 function t_four thread 0
----------------------------------------------------
  wait=0 (00000000000000000000000000000000)

State 716 file input/c/c_seq/p4_ko.c line 680 function t_four thread 0
----------------------------------------------------
  j=1 (00000000000000000000000000000001)

State 723 file input/c/c_seq/p4_ko.c line 684 function t_four thread 0
----------------------------------------------------
  wait=0 (00000000000000000000000000000000)

State 726 file input/c/c_seq/p4_ko.c line 690 function t_four thread 0
----------------------------------------------------
  j=2 (00000000000000000000000000000010)

State 733 file input/c/c_seq/p4_ko.c line 694 function t_four thread 0
----------------------------------------------------
  wait=0 (00000000000000000000000000000000)

State 736 file input/c/c_seq/p4_ko.c line 700 function t_four thread 0
----------------------------------------------------
  j=3 (00000000000000000000000000000011)

State 743 file input/c/c_seq/p4_ko.c line 704 function t_four thread 0
----------------------------------------------------
  wait=0 (00000000000000000000000000000000)

State 746 file input/c/c_seq/p4_ko.c line 710 function t_four thread 0
----------------------------------------------------
  j=4 (00000000000000000000000000000100)

State 756 file input/c/c_seq/p4_ko.c line 725 function t_four thread 0
----------------------------------------------------
  i=2 (00000000000000000000000000000010)

State 758 file input/c/c_seq/p4_ko.c line 727 function t_four thread 0
----------------------------------------------------
  flag[4]=2 (00000000000000000000000000000010)

State 760 file input/c/c_seq/p4_ko.c line 729 function t_four thread 0
----------------------------------------------------
  turn[2]=4 (00000000000000000000000000000100)

State 762 file input/c/c_seq/p4_ko.c line 733 function t_four thread 0
----------------------------------------------------
  wait=0 (00000000000000000000000000000000)

State 764 file input/c/c_seq/p4_ko.c line 736 function t_four thread 0
----------------------------------------------------
  j=1 (00000000000000000000000000000001)

State 771 file input/c/c_seq/p4_ko.c line 740 function t_four thread 0
----------------------------------------------------
  wait=0 (00000000000000000000000000000000)

State 774 file input/c/c_seq/p4_ko.c line 746 function t_four thread 0
----------------------------------------------------
  j=2 (00000000000000000000000000000010)

State 781 file input/c/c_seq/p4_ko.c line 750 function t_four thread 0
----------------------------------------------------
  wait=0 (00000000000000000000000000000000)

State 784 file input/c/c_seq/p4_ko.c line 756 function t_four thread 0
----------------------------------------------------
  j=3 (00000000000000000000000000000011)

State 791 file input/c/c_seq/p4_ko.c line 760 function t_four thread 0
----------------------------------------------------
  wait=0 (00000000000000000000000000000000)

State 794 file input/c/c_seq/p4_ko.c line 766 function t_four thread 0
----------------------------------------------------
  j=4 (00000000000000000000000000000100)

State 804 file input/c/c_seq/p4_ko.c line 783 function t_four thread 0
----------------------------------------------------
  i=3 (00000000000000000000000000000011)

State 806 file input/c/c_seq/p4_ko.c line 785 function t_four thread 0
----------------------------------------------------
  flag[4]=3 (00000000000000000000000000000011)

State 808 file input/c/c_seq/p4_ko.c line 787 function t_four thread 0
----------------------------------------------------
  turn[3]=4 (00000000000000000000000000000100)

State 810 file input/c/c_seq/p4_ko.c line 791 function t_four thread 0
----------------------------------------------------
  wait=0 (00000000000000000000000000000000)

State 812 file input/c/c_seq/p4_ko.c line 794 function t_four thread 0
----------------------------------------------------
  j=1 (00000000000000000000000000000001)

State 819 file input/c/c_seq/p4_ko.c line 798 function t_four thread 0
----------------------------------------------------
  wait=0 (00000000000000000000000000000000)

State 822 file input/c/c_seq/p4_ko.c line 804 function t_four thread 0
----------------------------------------------------
  j=2 (00000000000000000000000000000010)

State 842 file input/c/c_seq/p4_ko.c line 929 function main thread 0
----------------------------------------------------
  pc[4]=42 (00000000000000000000000000101010)

State 843 file input/c/c_seq/p4_ko.c line 930 function main thread 0
----------------------------------------------------
  active[4]=1 (00000000000000000000000000000001)

State 847 file input/c/c_seq/p4_ko.c line 897 function main thread 0
----------------------------------------------------
  ct=1 (00000000000000000000000000000001)

State 849 file input/c/c_seq/p4_ko.c line 906 function main thread 0
----------------------------------------------------
  ct=2 (00000000000000000000000000000010)

State 851 file input/c/c_seq/p4_ko.c line 908 function main thread 0
----------------------------------------------------
  cs=16 (00000000000000000000000000010000)

State 861 file input/c/c_seq/p4_ko.c line 254 function t_two thread 0
----------------------------------------------------
  flag[2]=1 (00000000000000000000000000000001)

State 863 file input/c/c_seq/p4_ko.c line 256 function t_two thread 0
----------------------------------------------------
  turn[1]=2 (00000000000000000000000000000010)

State 865 file input/c/c_seq/p4_ko.c line 260 function t_two thread 0
----------------------------------------------------
  wait=0 (00000000000000000000000000000000)

State 867 file input/c/c_seq/p4_ko.c line 263 function t_two thread 0
----------------------------------------------------
  j=1 (00000000000000000000000000000001)

State 874 file input/c/c_seq/p4_ko.c line 267 function t_two thread 0
----------------------------------------------------
  wait=0 (00000000000000000000000000000000)

State 877 file input/c/c_seq/p4_ko.c line 273 function t_two thread 0
----------------------------------------------------
  j=2 (00000000000000000000000000000010)

State 882 file input/c/c_seq/p4_ko.c line 283 function t_two thread 0
----------------------------------------------------
  j=3 (00000000000000000000000000000011)

State 889 file input/c/c_seq/p4_ko.c line 287 function t_two thread 0
----------------------------------------------------
  wait=0 (00000000000000000000000000000000)

State 892 file input/c/c_seq/p4_ko.c line 293 function t_two thread 0
----------------------------------------------------
  j=4 (00000000000000000000000000000100)

State 899 file input/c/c_seq/p4_ko.c line 297 function t_two thread 0
----------------------------------------------------
  wait=1 (00000000000000000000000000000001)

State 946 file input/c/c_seq/p4_ko.c line 911 function main thread 0
----------------------------------------------------
  pc[2]=16 (00000000000000000000000000010000)

State 947 file input/c/c_seq/p4_ko.c line 912 function main thread 0
----------------------------------------------------
  active[2]=1 (00000000000000000000000000000001)

State 948 file input/c/c_seq/p4_ko.c line 915 function main thread 0
----------------------------------------------------
  ct=3 (00000000000000000000000000000011)

State 950 file input/c/c_seq/p4_ko.c line 917 function main thread 0
----------------------------------------------------
  cs=3 (00000000000000000000000000000011)

State 960 file input/c/c_seq/p4_ko.c line 463 function t_three thread 0
----------------------------------------------------
  flag[3]=1 (00000000000000000000000000000001)

State 962 file input/c/c_seq/p4_ko.c line 465 function t_three thread 0
----------------------------------------------------
  turn[1]=3 (00000000000000000000000000000011)

State 1021 file input/c/c_seq/p4_ko.c line 920 function main thread 0
----------------------------------------------------
  pc[3]=3 (00000000000000000000000000000011)

State 1022 file input/c/c_seq/p4_ko.c line 921 function main thread 0
----------------------------------------------------
  active[3]=1 (00000000000000000000000000000001)

State 1023 file input/c/c_seq/p4_ko.c line 924 function main thread 0
----------------------------------------------------
  ct=4 (00000000000000000000000000000100)

State 1025 file input/c/c_seq/p4_ko.c line 926 function main thread 0
----------------------------------------------------
  cs=59 (00000000000000000000000000111011)

State 1081 file input/c/c_seq/p4_ko.c line 808 function t_four thread 0
----------------------------------------------------
  wait=0 (00000000000000000000000000000000)

State 1084 file input/c/c_seq/p4_ko.c line 814 function t_four thread 0
----------------------------------------------------
  j=3 (00000000000000000000000000000011)

State 1091 file input/c/c_seq/p4_ko.c line 818 function t_four thread 0
----------------------------------------------------
  wait=0 (00000000000000000000000000000000)

State 1094 file input/c/c_seq/p4_ko.c line 824 function t_four thread 0
----------------------------------------------------
  j=4 (00000000000000000000000000000100)

State 1107 file input/c/c_seq/p4_ko.c line 854 function t_four thread 0
----------------------------------------------------
  x_tmp=0 (00000000000000000000000000000000)

State 1109 file input/c/c_seq/p4_ko.c line 856 function t_four thread 0
----------------------------------------------------
  x_tmp=-1 (11111111111111111111111111111111)

State 1111 file input/c/c_seq/p4_ko.c line 858 function t_four thread 0
----------------------------------------------------
  x=-1 (11111111111111111111111111111111)

State 1114 file input/c/c_seq/p4_ko.c line 864 function t_four thread 0
----------------------------------------------------
  flag[4]=-1 (11111111111111111111111111111111)

State 1117 file input/c/c_seq/p4_ko.c line 929 function main thread 0
----------------------------------------------------
  pc[4]=59 (00000000000000000000000000111011)

State 1118 file input/c/c_seq/p4_ko.c line 930 function main thread 0
----------------------------------------------------
  active[4]=0 (00000000000000000000000000000000)

State 1122 file input/c/c_seq/p4_ko.c line 897 function main thread 0
----------------------------------------------------
  ct=1 (00000000000000000000000000000001)

State 1124 file input/c/c_seq/p4_ko.c line 906 function main thread 0
----------------------------------------------------
  ct=2 (00000000000000000000000000000010)

State 1126 file input/c/c_seq/p4_ko.c line 908 function main thread 0
----------------------------------------------------
  cs=59 (00000000000000000000000000111011)

State 1157 file input/c/c_seq/p4_ko.c line 310 function t_two thread 0
----------------------------------------------------
  i=2 (00000000000000000000000000000010)

State 1159 file input/c/c_seq/p4_ko.c line 312 function t_two thread 0
----------------------------------------------------
  flag[2]=2 (00000000000000000000000000000010)

State 1161 file input/c/c_seq/p4_ko.c line 314 function t_two thread 0
----------------------------------------------------
  turn[2]=2 (00000000000000000000000000000010)

State 1163 file input/c/c_seq/p4_ko.c line 318 function t_two thread 0
----------------------------------------------------
  wait=0 (00000000000000000000000000000000)

State 1165 file input/c/c_seq/p4_ko.c line 321 function t_two thread 0
----------------------------------------------------
  j=1 (00000000000000000000000000000001)

State 1172 file input/c/c_seq/p4_ko.c line 325 function t_two thread 0
----------------------------------------------------
  wait=0 (00000000000000000000000000000000)

State 1175 file input/c/c_seq/p4_ko.c line 331 function t_two thread 0
----------------------------------------------------
  j=2 (00000000000000000000000000000010)

State 1180 file input/c/c_seq/p4_ko.c line 341 function t_two thread 0
----------------------------------------------------
  j=3 (00000000000000000000000000000011)

State 1187 file input/c/c_seq/p4_ko.c line 345 function t_two thread 0
----------------------------------------------------
  wait=0 (00000000000000000000000000000000)

State 1190 file input/c/c_seq/p4_ko.c line 351 function t_two thread 0
----------------------------------------------------
  j=4 (00000000000000000000000000000100)

State 1197 file input/c/c_seq/p4_ko.c line 355 function t_two thread 0
----------------------------------------------------
  wait=0 (00000000000000000000000000000000)

State 1205 file input/c/c_seq/p4_ko.c line 368 function t_two thread 0
----------------------------------------------------
  i=3 (00000000000000000000000000000011)

State 1207 file input/c/c_seq/p4_ko.c line 370 function t_two thread 0
----------------------------------------------------
  flag[2]=3 (00000000000000000000000000000011)

State 1209 file input/c/c_seq/p4_ko.c line 372 function t_two thread 0
----------------------------------------------------
  turn[3]=2 (00000000000000000000000000000010)

State 1211 file input/c/c_seq/p4_ko.c line 376 function t_two thread 0
----------------------------------------------------
  wait=0 (00000000000000000000000000000000)

State 1213 file input/c/c_seq/p4_ko.c line 379 function t_two thread 0
----------------------------------------------------
  j=1 (00000000000000000000000000000001)

State 1220 file input/c/c_seq/p4_ko.c line 383 function t_two thread 0
----------------------------------------------------
  wait=0 (00000000000000000000000000000000)

State 1223 file input/c/c_seq/p4_ko.c line 389 function t_two thread 0
----------------------------------------------------
  j=2 (00000000000000000000000000000010)

State 1228 file input/c/c_seq/p4_ko.c line 399 function t_two thread 0
----------------------------------------------------
  j=3 (00000000000000000000000000000011)

State 1235 file input/c/c_seq/p4_ko.c line 403 function t_two thread 0
----------------------------------------------------
  wait=0 (00000000000000000000000000000000)

State 1238 file input/c/c_seq/p4_ko.c line 409 function t_two thread 0
----------------------------------------------------
  j=4 (00000000000000000000000000000100)

State 1245 file input/c/c_seq/p4_ko.c line 413 function t_two thread 0
----------------------------------------------------
  wait=0 (00000000000000000000000000000000)

State 1256 file input/c/c_seq/p4_ko.c line 439 function t_two thread 0
----------------------------------------------------
  x_tmp=-1 (11111111111111111111111111111111)

State 1258 file input/c/c_seq/p4_ko.c line 441 function t_two thread 0
----------------------------------------------------
  x_tmp=-2 (11111111111111111111111111111110)

State 1260 file input/c/c_seq/p4_ko.c line 443 function t_two thread 0
----------------------------------------------------
  x=-2 (11111111111111111111111111111110)

State 1263 file input/c/c_seq/p4_ko.c line 449 function t_two thread 0
----------------------------------------------------
  flag[2]=-1 (11111111111111111111111111111111)

State 1266 file input/c/c_seq/p4_ko.c line 911 function main thread 0
----------------------------------------------------
  pc[2]=59 (00000000000000000000000000111011)

State 1267 file input/c/c_seq/p4_ko.c line 912 function main thread 0
----------------------------------------------------
  active[2]=0 (00000000000000000000000000000000)

State 1268 file input/c/c_seq/p4_ko.c line 915 function main thread 0
----------------------------------------------------
  ct=3 (00000000000000000000000000000011)

State 1270 file input/c/c_seq/p4_ko.c line 917 function main thread 0
----------------------------------------------------
  cs=59 (00000000000000000000000000111011)

State 1282 file input/c/c_seq/p4_ko.c line 469 function t_three thread 0
----------------------------------------------------
  wait=0 (00000000000000000000000000000000)

State 1284 file input/c/c_seq/p4_ko.c line 472 function t_three thread 0
----------------------------------------------------
  j=1 (00000000000000000000000000000001)

State 1291 file input/c/c_seq/p4_ko.c line 476 function t_three thread 0
----------------------------------------------------
  wait=0 (00000000000000000000000000000000)

State 1294 file input/c/c_seq/p4_ko.c line 482 function t_three thread 0
----------------------------------------------------
  j=2 (00000000000000000000000000000010)

State 1301 file input/c/c_seq/p4_ko.c line 486 function t_three thread 0
----------------------------------------------------
  wait=0 (00000000000000000000000000000000)

State 1304 file input/c/c_seq/p4_ko.c line 492 function t_three thread 0
----------------------------------------------------
  j=3 (00000000000000000000000000000011)

State 1309 file input/c/c_seq/p4_ko.c line 502 function t_three thread 0
----------------------------------------------------
  j=4 (00000000000000000000000000000100)

State 1316 file input/c/c_seq/p4_ko.c line 506 function t_three thread 0
----------------------------------------------------
  wait=0 (00000000000000000000000000000000)

State 1324 file input/c/c_seq/p4_ko.c line 518 function t_three thread 0
----------------------------------------------------
  i=2 (00000000000000000000000000000010)

State 1326 file input/c/c_seq/p4_ko.c line 520 function t_three thread 0
----------------------------------------------------
  flag[3]=2 (00000000000000000000000000000010)

State 1328 file input/c/c_seq/p4_ko.c line 522 function t_three thread 0
----------------------------------------------------
  turn[2]=3 (00000000000000000000000000000011)

State 1330 file input/c/c_seq/p4_ko.c line 526 function t_three thread 0
----------------------------------------------------
  wait=0 (00000000000000000000000000000000)

State 1332 file input/c/c_seq/p4_ko.c line 529 function t_three thread 0
----------------------------------------------------
  j=1 (00000000000000000000000000000001)

State 1339 file input/c/c_seq/p4_ko.c line 533 function t_three thread 0
----------------------------------------------------
  wait=0 (00000000000000000000000000000000)

State 1342 file input/c/c_seq/p4_ko.c line 539 function t_three thread 0
----------------------------------------------------
  j=2 (00000000000000000000000000000010)

State 1349 file input/c/c_seq/p4_ko.c line 543 function t_three thread 0
----------------------------------------------------
  wait=0 (00000000000000000000000000000000)

State 1352 file input/c/c_seq/p4_ko.c line 549 function t_three thread 0
----------------------------------------------------
  j=3 (00000000000000000000000000000011)

State 1357 file input/c/c_seq/p4_ko.c line 559 function t_three thread 0
----------------------------------------------------
  j=4 (00000000000000000000000000000100)

State 1364 file input/c/c_seq/p4_ko.c line 563 function t_three thread 0
----------------------------------------------------
  wait=0 (00000000000000000000000000000000)

State 1372 file input/c/c_seq/p4_ko.c line 576 function t_three thread 0
----------------------------------------------------
  i=3 (00000000000000000000000000000011)

State 1374 file input/c/c_seq/p4_ko.c line 578 function t_three thread 0
----------------------------------------------------
  flag[3]=3 (00000000000000000000000000000011)

State 1376 file input/c/c_seq/p4_ko.c line 580 function t_three thread 0
----------------------------------------------------
  turn[3]=3 (00000000000000000000000000000011)

State 1378 file input/c/c_seq/p4_ko.c line 584 function t_three thread 0
----------------------------------------------------
  wait=0 (00000000000000000000000000000000)

State 1380 file input/c/c_seq/p4_ko.c line 587 function t_three thread 0
----------------------------------------------------
  j=1 (00000000000000000000000000000001)

State 1387 file input/c/c_seq/p4_ko.c line 591 function t_three thread 0
----------------------------------------------------
  wait=0 (00000000000000000000000000000000)

State 1390 file input/c/c_seq/p4_ko.c line 597 function t_three thread 0
----------------------------------------------------
  j=2 (00000000000000000000000000000010)

State 1397 file input/c/c_seq/p4_ko.c line 601 function t_three thread 0
----------------------------------------------------
  wait=0 (00000000000000000000000000000000)

State 1400 file input/c/c_seq/p4_ko.c line 607 function t_three thread 0
----------------------------------------------------
  j=3 (00000000000000000000000000000011)

State 1405 file input/c/c_seq/p4_ko.c line 617 function t_three thread 0
----------------------------------------------------
  j=4 (00000000000000000000000000000100)

State 1412 file input/c/c_seq/p4_ko.c line 621 function t_three thread 0
----------------------------------------------------
  wait=0 (00000000000000000000000000000000)

State 1422 file input/c/c_seq/p4_ko.c line 638 function t_three thread 0
----------------------------------------------------
  x_tmp=-2 (11111111111111111111111111111110)

State 1424 file input/c/c_seq/p4_ko.c line 640 function t_three thread 0
----------------------------------------------------
  x_tmp=-1 (11111111111111111111111111111111)

State 1426 file input/c/c_seq/p4_ko.c line 642 function t_three thread 0
----------------------------------------------------
  x=-1 (11111111111111111111111111111111)

State 1430 file input/c/c_seq/p4_ko.c line 657 function t_three thread 0
----------------------------------------------------
  flag[3]=-1 (11111111111111111111111111111111)

State 1433 file input/c/c_seq/p4_ko.c line 920 function main thread 0
----------------------------------------------------
  pc[3]=59 (00000000000000000000000000111011)

State 1434 file input/c/c_seq/p4_ko.c line 921 function main thread 0
----------------------------------------------------
  active[3]=0 (00000000000000000000000000000000)

State 1435 file input/c/c_seq/p4_ko.c line 924 function main thread 0
----------------------------------------------------
  ct=4 (00000000000000000000000000000100)

Violated property:
  file input/c/c_seq/p4_ko.c line 939 function main
  OK x != 0
  x == 0

VERIFICATION FAILED

real	0m12.644s
user	0m12.570s
sys	0m0.050s
