CBMC version 5.4 64-bit x86_64 linux
Parsing input/c/c_seq/p4_ko.c
Converting
Type-checking p4_ko
file input/c/c_seq/p4_ko.c line 899 function main: function `nondet_uint' is not declared
Generating GOTO Program
Adding CPROVER library (x86_64)
Function Pointer Removal
Partial Inlining
Generic Property Instrumentation
Starting Bounded Model Checking
Unwinding loop main.0 iteration 1 (5 max) file input/c/c_seq/p4_ko.c line 896 function main thread 0
Unwinding loop main.0 iteration 2 (5 max) file input/c/c_seq/p4_ko.c line 896 function main thread 0
Unwinding loop main.0 iteration 3 (5 max) file input/c/c_seq/p4_ko.c line 896 function main thread 0
Unwinding loop main.0 iteration 4 (5 max) file input/c/c_seq/p4_ko.c line 896 function main thread 0
Not unwinding loop main.0 iteration 5 (5 max) file input/c/c_seq/p4_ko.c line 896 function main thread 0
size of program expression: 10197 steps
simple slicing removed 3 assignments
Generated 3 VCC(s), 3 remaining after simplification
Passing problem to propositional reduction
converting SSA
Running propositional reduction
Post-processing
Solving with Glucose Syrup with simplifier
181862 variables, 765567 clauses
SAT checker: instance is SATISFIABLE
Runtime decision procedure: 7.175s
Building error trace

Counterexample:

State 48 file input/c/c_seq/p4_ko.c line 871 function init thread 0
----------------------------------------------------
  pc[0]=0 (00000000000000000000000000000000)

State 49 file input/c/c_seq/p4_ko.c line 872 function init thread 0
----------------------------------------------------
  size[0]=0 (00000000000000000000000000000000)

State 50 file input/c/c_seq/p4_ko.c line 874 function init thread 0
----------------------------------------------------
  pc[1]=0 (00000000000000000000000000000000)

State 51 file input/c/c_seq/p4_ko.c line 875 function init thread 0
----------------------------------------------------
  pc[2]=0 (00000000000000000000000000000000)

State 52 file input/c/c_seq/p4_ko.c line 876 function init thread 0
----------------------------------------------------
  pc[3]=0 (00000000000000000000000000000000)

State 53 file input/c/c_seq/p4_ko.c line 877 function init thread 0
----------------------------------------------------
  pc[4]=0 (00000000000000000000000000000000)

State 54 file input/c/c_seq/p4_ko.c line 879 function init thread 0
----------------------------------------------------
  size[0]=4 (00000000000000000000000000000100)

State 55 file input/c/c_seq/p4_ko.c line 880 function init thread 0
----------------------------------------------------
  size[1]=59 (00000000000000000000000000111011)

State 56 file input/c/c_seq/p4_ko.c line 881 function init thread 0
----------------------------------------------------
  size[2]=59 (00000000000000000000000000111011)

State 57 file input/c/c_seq/p4_ko.c line 882 function init thread 0
----------------------------------------------------
  size[3]=59 (00000000000000000000000000111011)

State 58 file input/c/c_seq/p4_ko.c line 883 function init thread 0
----------------------------------------------------
  size[4]=59 (00000000000000000000000000111011)

State 59 file input/c/c_seq/p4_ko.c line 885 function init thread 0
----------------------------------------------------
  t1=0 (00000000000000000000000000000000)

State 60 file input/c/c_seq/p4_ko.c line 885 function init thread 0
----------------------------------------------------
  t2=0 (00000000000000000000000000000000)

State 61 file input/c/c_seq/p4_ko.c line 885 function init thread 0
----------------------------------------------------
  t3=0 (00000000000000000000000000000000)

State 62 file input/c/c_seq/p4_ko.c line 885 function init thread 0
----------------------------------------------------
  t4=0 (00000000000000000000000000000000)

State 63 file input/c/c_seq/p4_ko.c line 885 function init thread 0
----------------------------------------------------
  t5=0 (00000000000000000000000000000000)

State 64 file input/c/c_seq/p4_ko.c line 885 function init thread 0
----------------------------------------------------
  t6=0 (00000000000000000000000000000000)

State 67 file input/c/c_seq/p4_ko.c line 887 function init thread 0
----------------------------------------------------
  t=0 (00000000000000000000000000000000)

State 68 file input/c/c_seq/p4_ko.c line 887 function init thread 0
----------------------------------------------------
  id=1 (00000000000000000000000000000001)

State 69 file input/c/c_seq/p4_ko.c line 20 function create thread 0
----------------------------------------------------
  active[1]=1 (00000000000000000000000000000001)

State 70 file input/c/c_seq/p4_ko.c line 21 function create thread 0
----------------------------------------------------
  t=1 (00000000000000000000000000000001)

State 74 file input/c/c_seq/p4_ko.c line 888 function init thread 0
----------------------------------------------------
  t=0 (00000000000000000000000000000000)

State 75 file input/c/c_seq/p4_ko.c line 888 function init thread 0
----------------------------------------------------
  id=2 (00000000000000000000000000000010)

State 76 file input/c/c_seq/p4_ko.c line 20 function create thread 0
----------------------------------------------------
  active[2]=1 (00000000000000000000000000000001)

State 77 file input/c/c_seq/p4_ko.c line 21 function create thread 0
----------------------------------------------------
  t=2 (00000000000000000000000000000010)

State 81 file input/c/c_seq/p4_ko.c line 889 function init thread 0
----------------------------------------------------
  t=0 (00000000000000000000000000000000)

State 82 file input/c/c_seq/p4_ko.c line 889 function init thread 0
----------------------------------------------------
  id=3 (00000000000000000000000000000011)

State 83 file input/c/c_seq/p4_ko.c line 20 function create thread 0
----------------------------------------------------
  active[3]=1 (00000000000000000000000000000001)

State 84 file input/c/c_seq/p4_ko.c line 21 function create thread 0
----------------------------------------------------
  t=3 (00000000000000000000000000000011)

State 88 file input/c/c_seq/p4_ko.c line 890 function init thread 0
----------------------------------------------------
  t=0 (00000000000000000000000000000000)

State 89 file input/c/c_seq/p4_ko.c line 890 function init thread 0
----------------------------------------------------
  id=4 (00000000000000000000000000000100)

State 90 file input/c/c_seq/p4_ko.c line 20 function create thread 0
----------------------------------------------------
  active[4]=1 (00000000000000000000000000000001)

State 91 file input/c/c_seq/p4_ko.c line 21 function create thread 0
----------------------------------------------------
  t=4 (00000000000000000000000000000100)

State 94 file input/c/c_seq/p4_ko.c line 897 function main thread 0
----------------------------------------------------
  ct=1 (00000000000000000000000000000001)

State 96 file input/c/c_seq/p4_ko.c line 899 function main thread 0
----------------------------------------------------
  cs=52 (00000000000000000000000000110100)

State 105 file input/c/c_seq/p4_ko.c line 37 function t_one thread 0
----------------------------------------------------
  i=1 (00000000000000000000000000000001)

State 107 file input/c/c_seq/p4_ko.c line 39 function t_one thread 0
----------------------------------------------------
  flag[1]=1 (00000000000000000000000000000001)

State 109 file input/c/c_seq/p4_ko.c line 41 function t_one thread 0
----------------------------------------------------
  turn[1]=1 (00000000000000000000000000000001)

State 111 file input/c/c_seq/p4_ko.c line 45 function t_one thread 0
----------------------------------------------------
  wait=0 (00000000000000000000000000000000)

State 113 file input/c/c_seq/p4_ko.c line 48 function t_one thread 0
----------------------------------------------------
  j=1 (00000000000000000000000000000001)

State 118 file input/c/c_seq/p4_ko.c line 58 function t_one thread 0
----------------------------------------------------
  j=2 (00000000000000000000000000000010)

State 125 file input/c/c_seq/p4_ko.c line 62 function t_one thread 0
----------------------------------------------------
  wait=0 (00000000000000000000000000000000)

State 128 file input/c/c_seq/p4_ko.c line 68 function t_one thread 0
----------------------------------------------------
  j=3 (00000000000000000000000000000011)

State 135 file input/c/c_seq/p4_ko.c line 72 function t_one thread 0
----------------------------------------------------
  wait=0 (00000000000000000000000000000000)

State 138 file input/c/c_seq/p4_ko.c line 78 function t_one thread 0
----------------------------------------------------
  j=4 (00000000000000000000000000000100)

State 145 file input/c/c_seq/p4_ko.c line 82 function t_one thread 0
----------------------------------------------------
  wait=0 (00000000000000000000000000000000)

State 150 file input/c/c_seq/p4_ko.c line 97 function t_one thread 0
----------------------------------------------------
  i=2 (00000000000000000000000000000010)

State 152 file input/c/c_seq/p4_ko.c line 99 function t_one thread 0
----------------------------------------------------
  flag[1]=2 (00000000000000000000000000000010)

State 154 file input/c/c_seq/p4_ko.c line 101 function t_one thread 0
----------------------------------------------------
  turn[2]=1 (00000000000000000000000000000001)

State 156 file input/c/c_seq/p4_ko.c line 105 function t_one thread 0
----------------------------------------------------
  wait=0 (00000000000000000000000000000000)

State 158 file input/c/c_seq/p4_ko.c line 108 function t_one thread 0
----------------------------------------------------
  j=1 (00000000000000000000000000000001)

State 163 file input/c/c_seq/p4_ko.c line 118 function t_one thread 0
----------------------------------------------------
  j=2 (00000000000000000000000000000010)

State 170 file input/c/c_seq/p4_ko.c line 122 function t_one thread 0
----------------------------------------------------
  wait=0 (00000000000000000000000000000000)

State 173 file input/c/c_seq/p4_ko.c line 128 function t_one thread 0
----------------------------------------------------
  j=3 (00000000000000000000000000000011)

State 180 file input/c/c_seq/p4_ko.c line 132 function t_one thread 0
----------------------------------------------------
  wait=0 (00000000000000000000000000000000)

State 183 file input/c/c_seq/p4_ko.c line 138 function t_one thread 0
----------------------------------------------------
  j=4 (00000000000000000000000000000100)

State 190 file input/c/c_seq/p4_ko.c line 142 function t_one thread 0
----------------------------------------------------
  wait=0 (00000000000000000000000000000000)

State 195 file input/c/c_seq/p4_ko.c line 157 function t_one thread 0
----------------------------------------------------
  i=3 (00000000000000000000000000000011)

State 197 file input/c/c_seq/p4_ko.c line 159 function t_one thread 0
----------------------------------------------------
  flag[1]=3 (00000000000000000000000000000011)

State 199 file input/c/c_seq/p4_ko.c line 161 function t_one thread 0
----------------------------------------------------
  turn[3]=1 (00000000000000000000000000000001)

State 201 file input/c/c_seq/p4_ko.c line 165 function t_one thread 0
----------------------------------------------------
  wait=0 (00000000000000000000000000000000)

State 203 file input/c/c_seq/p4_ko.c line 168 function t_one thread 0
----------------------------------------------------
  j=1 (00000000000000000000000000000001)

State 208 file input/c/c_seq/p4_ko.c line 178 function t_one thread 0
----------------------------------------------------
  j=2 (00000000000000000000000000000010)

State 215 file input/c/c_seq/p4_ko.c line 182 function t_one thread 0
----------------------------------------------------
  wait=0 (00000000000000000000000000000000)

State 218 file input/c/c_seq/p4_ko.c line 188 function t_one thread 0
----------------------------------------------------
  j=3 (00000000000000000000000000000011)

State 225 file input/c/c_seq/p4_ko.c line 192 function t_one thread 0
----------------------------------------------------
  wait=0 (00000000000000000000000000000000)

State 228 file input/c/c_seq/p4_ko.c line 198 function t_one thread 0
----------------------------------------------------
  j=4 (00000000000000000000000000000100)

State 235 file input/c/c_seq/p4_ko.c line 202 function t_one thread 0
----------------------------------------------------
  wait=0 (00000000000000000000000000000000)

State 250 file input/c/c_seq/p4_ko.c line 902 function main thread 0
----------------------------------------------------
  pc[1]=52 (00000000000000000000000000110100)

State 251 file input/c/c_seq/p4_ko.c line 903 function main thread 0
----------------------------------------------------
  active[1]=1 (00000000000000000000000000000001)

State 252 file input/c/c_seq/p4_ko.c line 906 function main thread 0
----------------------------------------------------
  ct=2 (00000000000000000000000000000010)

State 254 file input/c/c_seq/p4_ko.c line 908 function main thread 0
----------------------------------------------------
  cs=0 (00000000000000000000000000000000)

State 323 file input/c/c_seq/p4_ko.c line 911 function main thread 0
----------------------------------------------------
  pc[2]=0 (00000000000000000000000000000000)

State 324 file input/c/c_seq/p4_ko.c line 912 function main thread 0
----------------------------------------------------
  active[2]=1 (00000000000000000000000000000001)

State 325 file input/c/c_seq/p4_ko.c line 915 function main thread 0
----------------------------------------------------
  ct=3 (00000000000000000000000000000011)

State 327 file input/c/c_seq/p4_ko.c line 917 function main thread 0
----------------------------------------------------
  cs=0 (00000000000000000000000000000000)

State 396 file input/c/c_seq/p4_ko.c line 920 function main thread 0
----------------------------------------------------
  pc[3]=0 (00000000000000000000000000000000)

State 397 file input/c/c_seq/p4_ko.c line 921 function main thread 0
----------------------------------------------------
  active[3]=1 (00000000000000000000000000000001)

State 398 file input/c/c_seq/p4_ko.c line 924 function main thread 0
----------------------------------------------------
  ct=4 (00000000000000000000000000000100)

State 400 file input/c/c_seq/p4_ko.c line 926 function main thread 0
----------------------------------------------------
  cs=1 (00000000000000000000000000000001)

State 409 file input/c/c_seq/p4_ko.c line 669 function t_four thread 0
----------------------------------------------------
  i=1 (00000000000000000000000000000001)

State 470 file input/c/c_seq/p4_ko.c line 929 function main thread 0
----------------------------------------------------
  pc[4]=1 (00000000000000000000000000000001)

State 471 file input/c/c_seq/p4_ko.c line 930 function main thread 0
----------------------------------------------------
  active[4]=1 (00000000000000000000000000000001)

State 474 file input/c/c_seq/p4_ko.c line 897 function main thread 0
----------------------------------------------------
  ct=1 (00000000000000000000000000000001)

State 476 file input/c/c_seq/p4_ko.c line 899 function main thread 0
----------------------------------------------------
  cs=59 (00000000000000000000000000111011)

State 537 file input/c/c_seq/p4_ko.c line 221 function t_one thread 0
----------------------------------------------------
  x_tmp=-1 (11111111111111111111111111111111)

State 539 file input/c/c_seq/p4_ko.c line 223 function t_one thread 0
----------------------------------------------------
  x_tmp=0 (00000000000000000000000000000000)

State 541 file input/c/c_seq/p4_ko.c line 225 function t_one thread 0
----------------------------------------------------
  x=0 (00000000000000000000000000000000)

State 545 file input/c/c_seq/p4_ko.c line 240 function t_one thread 0
----------------------------------------------------
  flag[1]=-1 (11111111111111111111111111111111)

State 548 file input/c/c_seq/p4_ko.c line 902 function main thread 0
----------------------------------------------------
  pc[1]=59 (00000000000000000000000000111011)

State 549 file input/c/c_seq/p4_ko.c line 903 function main thread 0
----------------------------------------------------
  active[1]=0 (00000000000000000000000000000000)

State 550 file input/c/c_seq/p4_ko.c line 906 function main thread 0
----------------------------------------------------
  ct=2 (00000000000000000000000000000010)

State 552 file input/c/c_seq/p4_ko.c line 908 function main thread 0
----------------------------------------------------
  cs=0 (00000000000000000000000000000000)

State 621 file input/c/c_seq/p4_ko.c line 911 function main thread 0
----------------------------------------------------
  pc[2]=0 (00000000000000000000000000000000)

State 622 file input/c/c_seq/p4_ko.c line 912 function main thread 0
----------------------------------------------------
  active[2]=1 (00000000000000000000000000000001)

State 623 file input/c/c_seq/p4_ko.c line 915 function main thread 0
----------------------------------------------------
  ct=3 (00000000000000000000000000000011)

State 625 file input/c/c_seq/p4_ko.c line 917 function main thread 0
----------------------------------------------------
  cs=59 (00000000000000000000000000111011)

State 634 file input/c/c_seq/p4_ko.c line 461 function t_three thread 0
----------------------------------------------------
  i=1 (00000000000000000000000000000001)

State 636 file input/c/c_seq/p4_ko.c line 463 function t_three thread 0
----------------------------------------------------
  flag[3]=1 (00000000000000000000000000000001)

State 638 file input/c/c_seq/p4_ko.c line 465 function t_three thread 0
----------------------------------------------------
  turn[1]=3 (00000000000000000000000000000011)

State 640 file input/c/c_seq/p4_ko.c line 469 function t_three thread 0
----------------------------------------------------
  wait=0 (00000000000000000000000000000000)

State 642 file input/c/c_seq/p4_ko.c line 472 function t_three thread 0
----------------------------------------------------
  j=1 (00000000000000000000000000000001)

State 649 file input/c/c_seq/p4_ko.c line 476 function t_three thread 0
----------------------------------------------------
  wait=0 (00000000000000000000000000000000)

State 652 file input/c/c_seq/p4_ko.c line 482 function t_three thread 0
----------------------------------------------------
  j=2 (00000000000000000000000000000010)

State 659 file input/c/c_seq/p4_ko.c line 486 function t_three thread 0
----------------------------------------------------
  wait=0 (00000000000000000000000000000000)

State 662 file input/c/c_seq/p4_ko.c line 492 function t_three thread 0
----------------------------------------------------
  j=3 (00000000000000000000000000000011)

State 667 file input/c/c_seq/p4_ko.c line 502 function t_three thread 0
----------------------------------------------------
  j=4 (00000000000000000000000000000100)

State 674 file input/c/c_seq/p4_ko.c line 506 function t_three thread 0
----------------------------------------------------
  wait=0 (00000000000000000000000000000000)

State 682 file input/c/c_seq/p4_ko.c line 518 function t_three thread 0
----------------------------------------------------
  i=2 (00000000000000000000000000000010)

State 684 file input/c/c_seq/p4_ko.c line 520 function t_three thread 0
----------------------------------------------------
  flag[3]=2 (00000000000000000000000000000010)

State 686 file input/c/c_seq/p4_ko.c line 522 function t_three thread 0
----------------------------------------------------
  turn[2]=3 (00000000000000000000000000000011)

State 688 file input/c/c_seq/p4_ko.c line 526 function t_three thread 0
----------------------------------------------------
  wait=0 (00000000000000000000000000000000)

State 690 file input/c/c_seq/p4_ko.c line 529 function t_three thread 0
----------------------------------------------------
  j=1 (00000000000000000000000000000001)

State 697 file input/c/c_seq/p4_ko.c line 533 function t_three thread 0
----------------------------------------------------
  wait=0 (00000000000000000000000000000000)

State 700 file input/c/c_seq/p4_ko.c line 539 function t_three thread 0
----------------------------------------------------
  j=2 (00000000000000000000000000000010)

State 707 file input/c/c_seq/p4_ko.c line 543 function t_three thread 0
----------------------------------------------------
  wait=0 (00000000000000000000000000000000)

State 710 file input/c/c_seq/p4_ko.c line 549 function t_three thread 0
----------------------------------------------------
  j=3 (00000000000000000000000000000011)

State 715 file input/c/c_seq/p4_ko.c line 559 function t_three thread 0
----------------------------------------------------
  j=4 (00000000000000000000000000000100)

State 722 file input/c/c_seq/p4_ko.c line 563 function t_three thread 0
----------------------------------------------------
  wait=0 (00000000000000000000000000000000)

State 730 file input/c/c_seq/p4_ko.c line 576 function t_three thread 0
----------------------------------------------------
  i=3 (00000000000000000000000000000011)

State 732 file input/c/c_seq/p4_ko.c line 578 function t_three thread 0
----------------------------------------------------
  flag[3]=3 (00000000000000000000000000000011)

State 734 file input/c/c_seq/p4_ko.c line 580 function t_three thread 0
----------------------------------------------------
  turn[3]=3 (00000000000000000000000000000011)

State 736 file input/c/c_seq/p4_ko.c line 584 function t_three thread 0
----------------------------------------------------
  wait=0 (00000000000000000000000000000000)

State 738 file input/c/c_seq/p4_ko.c line 587 function t_three thread 0
----------------------------------------------------
  j=1 (00000000000000000000000000000001)

State 745 file input/c/c_seq/p4_ko.c line 591 function t_three thread 0
----------------------------------------------------
  wait=0 (00000000000000000000000000000000)

State 748 file input/c/c_seq/p4_ko.c line 597 function t_three thread 0
----------------------------------------------------
  j=2 (00000000000000000000000000000010)

State 755 file input/c/c_seq/p4_ko.c line 601 function t_three thread 0
----------------------------------------------------
  wait=0 (00000000000000000000000000000000)

State 758 file input/c/c_seq/p4_ko.c line 607 function t_three thread 0
----------------------------------------------------
  j=3 (00000000000000000000000000000011)

State 763 file input/c/c_seq/p4_ko.c line 617 function t_three thread 0
----------------------------------------------------
  j=4 (00000000000000000000000000000100)

State 770 file input/c/c_seq/p4_ko.c line 621 function t_three thread 0
----------------------------------------------------
  wait=0 (00000000000000000000000000000000)

State 780 file input/c/c_seq/p4_ko.c line 638 function t_three thread 0
----------------------------------------------------
  x_tmp=0 (00000000000000000000000000000000)

State 782 file input/c/c_seq/p4_ko.c line 640 function t_three thread 0
----------------------------------------------------
  x_tmp=1 (00000000000000000000000000000001)

State 784 file input/c/c_seq/p4_ko.c line 642 function t_three thread 0
----------------------------------------------------
  x=1 (00000000000000000000000000000001)

State 788 file input/c/c_seq/p4_ko.c line 657 function t_three thread 0
----------------------------------------------------
  flag[3]=-1 (11111111111111111111111111111111)

State 791 file input/c/c_seq/p4_ko.c line 920 function main thread 0
----------------------------------------------------
  pc[3]=59 (00000000000000000000000000111011)

State 792 file input/c/c_seq/p4_ko.c line 921 function main thread 0
----------------------------------------------------
  active[3]=0 (00000000000000000000000000000000)

State 793 file input/c/c_seq/p4_ko.c line 924 function main thread 0
----------------------------------------------------
  ct=4 (00000000000000000000000000000100)

State 795 file input/c/c_seq/p4_ko.c line 926 function main thread 0
----------------------------------------------------
  cs=7 (00000000000000000000000000000111)

State 805 file input/c/c_seq/p4_ko.c line 671 function t_four thread 0
----------------------------------------------------
  flag[4]=1 (00000000000000000000000000000001)

State 807 file input/c/c_seq/p4_ko.c line 673 function t_four thread 0
----------------------------------------------------
  turn[1]=4 (00000000000000000000000000000100)

State 809 file input/c/c_seq/p4_ko.c line 677 function t_four thread 0
----------------------------------------------------
  wait=0 (00000000000000000000000000000000)

State 811 file input/c/c_seq/p4_ko.c line 680 function t_four thread 0
----------------------------------------------------
  j=1 (00000000000000000000000000000001)

State 818 file input/c/c_seq/p4_ko.c line 684 function t_four thread 0
----------------------------------------------------
  wait=0 (00000000000000000000000000000000)

State 874 file input/c/c_seq/p4_ko.c line 929 function main thread 0
----------------------------------------------------
  pc[4]=7 (00000000000000000000000000000111)

State 875 file input/c/c_seq/p4_ko.c line 930 function main thread 0
----------------------------------------------------
  active[4]=1 (00000000000000000000000000000001)

State 879 file input/c/c_seq/p4_ko.c line 897 function main thread 0
----------------------------------------------------
  ct=1 (00000000000000000000000000000001)

State 881 file input/c/c_seq/p4_ko.c line 906 function main thread 0
----------------------------------------------------
  ct=2 (00000000000000000000000000000010)

State 883 file input/c/c_seq/p4_ko.c line 908 function main thread 0
----------------------------------------------------
  cs=15 (00000000000000000000000000001111)

State 892 file input/c/c_seq/p4_ko.c line 252 function t_two thread 0
----------------------------------------------------
  i=1 (00000000000000000000000000000001)

State 894 file input/c/c_seq/p4_ko.c line 254 function t_two thread 0
----------------------------------------------------
  flag[2]=1 (00000000000000000000000000000001)

State 896 file input/c/c_seq/p4_ko.c line 256 function t_two thread 0
----------------------------------------------------
  turn[1]=2 (00000000000000000000000000000010)

State 898 file input/c/c_seq/p4_ko.c line 260 function t_two thread 0
----------------------------------------------------
  wait=0 (00000000000000000000000000000000)

State 900 file input/c/c_seq/p4_ko.c line 263 function t_two thread 0
----------------------------------------------------
  j=1 (00000000000000000000000000000001)

State 907 file input/c/c_seq/p4_ko.c line 267 function t_two thread 0
----------------------------------------------------
  wait=0 (00000000000000000000000000000000)

State 910 file input/c/c_seq/p4_ko.c line 273 function t_two thread 0
----------------------------------------------------
  j=2 (00000000000000000000000000000010)

State 915 file input/c/c_seq/p4_ko.c line 283 function t_two thread 0
----------------------------------------------------
  j=3 (00000000000000000000000000000011)

State 922 file input/c/c_seq/p4_ko.c line 287 function t_two thread 0
----------------------------------------------------
  wait=0 (00000000000000000000000000000000)

State 925 file input/c/c_seq/p4_ko.c line 293 function t_two thread 0
----------------------------------------------------
  j=4 (00000000000000000000000000000100)

State 974 file input/c/c_seq/p4_ko.c line 911 function main thread 0
----------------------------------------------------
  pc[2]=15 (00000000000000000000000000001111)

State 975 file input/c/c_seq/p4_ko.c line 912 function main thread 0
----------------------------------------------------
  active[2]=1 (00000000000000000000000000000001)

State 976 file input/c/c_seq/p4_ko.c line 915 function main thread 0
----------------------------------------------------
  ct=3 (00000000000000000000000000000011)

State 978 file input/c/c_seq/p4_ko.c line 924 function main thread 0
----------------------------------------------------
  ct=4 (00000000000000000000000000000100)

State 980 file input/c/c_seq/p4_ko.c line 926 function main thread 0
----------------------------------------------------
  cs=59 (00000000000000000000000000111011)

State 996 file input/c/c_seq/p4_ko.c line 690 function t_four thread 0
----------------------------------------------------
  j=2 (00000000000000000000000000000010)

State 1003 file input/c/c_seq/p4_ko.c line 694 function t_four thread 0
----------------------------------------------------
  wait=1 (00000000000000000000000000000001)

State 1006 file input/c/c_seq/p4_ko.c line 700 function t_four thread 0
----------------------------------------------------
  j=3 (00000000000000000000000000000011)

State 1014 file input/c/c_seq/p4_ko.c line 704 function t_four thread 0
----------------------------------------------------
  wait=1 (00000000000000000000000000000001)

State 1017 file input/c/c_seq/p4_ko.c line 710 function t_four thread 0
----------------------------------------------------
  j=4 (00000000000000000000000000000100)

State 1028 file input/c/c_seq/p4_ko.c line 725 function t_four thread 0
----------------------------------------------------
  i=2 (00000000000000000000000000000010)

State 1030 file input/c/c_seq/p4_ko.c line 727 function t_four thread 0
----------------------------------------------------
  flag[4]=2 (00000000000000000000000000000010)

State 1032 file input/c/c_seq/p4_ko.c line 729 function t_four thread 0
----------------------------------------------------
  turn[2]=4 (00000000000000000000000000000100)

State 1034 file input/c/c_seq/p4_ko.c line 733 function t_four thread 0
----------------------------------------------------
  wait=0 (00000000000000000000000000000000)

State 1036 file input/c/c_seq/p4_ko.c line 736 function t_four thread 0
----------------------------------------------------
  j=1 (00000000000000000000000000000001)

State 1043 file input/c/c_seq/p4_ko.c line 740 function t_four thread 0
----------------------------------------------------
  wait=0 (00000000000000000000000000000000)

State 1046 file input/c/c_seq/p4_ko.c line 746 function t_four thread 0
----------------------------------------------------
  j=2 (00000000000000000000000000000010)

State 1053 file input/c/c_seq/p4_ko.c line 750 function t_four thread 0
----------------------------------------------------
  wait=0 (00000000000000000000000000000000)

State 1056 file input/c/c_seq/p4_ko.c line 756 function t_four thread 0
----------------------------------------------------
  j=3 (00000000000000000000000000000011)

State 1063 file input/c/c_seq/p4_ko.c line 760 function t_four thread 0
----------------------------------------------------
  wait=0 (00000000000000000000000000000000)

State 1066 file input/c/c_seq/p4_ko.c line 766 function t_four thread 0
----------------------------------------------------
  j=4 (00000000000000000000000000000100)

State 1076 file input/c/c_seq/p4_ko.c line 783 function t_four thread 0
----------------------------------------------------
  i=3 (00000000000000000000000000000011)

State 1078 file input/c/c_seq/p4_ko.c line 785 function t_four thread 0
----------------------------------------------------
  flag[4]=3 (00000000000000000000000000000011)

State 1080 file input/c/c_seq/p4_ko.c line 787 function t_four thread 0
----------------------------------------------------
  turn[3]=4 (00000000000000000000000000000100)

State 1082 file input/c/c_seq/p4_ko.c line 791 function t_four thread 0
----------------------------------------------------
  wait=0 (00000000000000000000000000000000)

State 1084 file input/c/c_seq/p4_ko.c line 794 function t_four thread 0
----------------------------------------------------
  j=1 (00000000000000000000000000000001)

State 1091 file input/c/c_seq/p4_ko.c line 798 function t_four thread 0
----------------------------------------------------
  wait=0 (00000000000000000000000000000000)

State 1094 file input/c/c_seq/p4_ko.c line 804 function t_four thread 0
----------------------------------------------------
  j=2 (00000000000000000000000000000010)

State 1101 file input/c/c_seq/p4_ko.c line 808 function t_four thread 0
----------------------------------------------------
  wait=0 (00000000000000000000000000000000)

State 1104 file input/c/c_seq/p4_ko.c line 814 function t_four thread 0
----------------------------------------------------
  j=3 (00000000000000000000000000000011)

State 1111 file input/c/c_seq/p4_ko.c line 818 function t_four thread 0
----------------------------------------------------
  wait=0 (00000000000000000000000000000000)

State 1114 file input/c/c_seq/p4_ko.c line 824 function t_four thread 0
----------------------------------------------------
  j=4 (00000000000000000000000000000100)

State 1127 file input/c/c_seq/p4_ko.c line 854 function t_four thread 0
----------------------------------------------------
  x_tmp=1 (00000000000000000000000000000001)

State 1129 file input/c/c_seq/p4_ko.c line 856 function t_four thread 0
----------------------------------------------------
  x_tmp=0 (00000000000000000000000000000000)

State 1131 file input/c/c_seq/p4_ko.c line 858 function t_four thread 0
----------------------------------------------------
  x=0 (00000000000000000000000000000000)

State 1134 file input/c/c_seq/p4_ko.c line 864 function t_four thread 0
----------------------------------------------------
  flag[4]=-1 (11111111111111111111111111111111)

State 1137 file input/c/c_seq/p4_ko.c line 929 function main thread 0
----------------------------------------------------
  pc[4]=59 (00000000000000000000000000111011)

State 1138 file input/c/c_seq/p4_ko.c line 930 function main thread 0
----------------------------------------------------
  active[4]=0 (00000000000000000000000000000000)

State 1142 file input/c/c_seq/p4_ko.c line 897 function main thread 0
----------------------------------------------------
  ct=1 (00000000000000000000000000000001)

State 1144 file input/c/c_seq/p4_ko.c line 906 function main thread 0
----------------------------------------------------
  ct=2 (00000000000000000000000000000010)

State 1146 file input/c/c_seq/p4_ko.c line 908 function main thread 0
----------------------------------------------------
  cs=17 (00000000000000000000000000010001)

State 1173 file input/c/c_seq/p4_ko.c line 297 function t_two thread 0
----------------------------------------------------
  wait=0 (00000000000000000000000000000000)

State 1224 file input/c/c_seq/p4_ko.c line 911 function main thread 0
----------------------------------------------------
  pc[2]=17 (00000000000000000000000000010001)

State 1225 file input/c/c_seq/p4_ko.c line 912 function main thread 0
----------------------------------------------------
  active[2]=1 (00000000000000000000000000000001)

State 1226 file input/c/c_seq/p4_ko.c line 915 function main thread 0
----------------------------------------------------
  ct=3 (00000000000000000000000000000011)

State 1228 file input/c/c_seq/p4_ko.c line 924 function main thread 0
----------------------------------------------------
  ct=4 (00000000000000000000000000000100)

State 1233 file input/c/c_seq/p4_ko.c line 897 function main thread 0
----------------------------------------------------
  ct=1 (00000000000000000000000000000001)

State 1235 file input/c/c_seq/p4_ko.c line 906 function main thread 0
----------------------------------------------------
  ct=2 (00000000000000000000000000000010)

State 1237 file input/c/c_seq/p4_ko.c line 908 function main thread 0
----------------------------------------------------
  cs=59 (00000000000000000000000000111011)

State 1263 file input/c/c_seq/p4_ko.c line 310 function t_two thread 0
----------------------------------------------------
  i=2 (00000000000000000000000000000010)

State 1265 file input/c/c_seq/p4_ko.c line 312 function t_two thread 0
----------------------------------------------------
  flag[2]=2 (00000000000000000000000000000010)

State 1267 file input/c/c_seq/p4_ko.c line 314 function t_two thread 0
----------------------------------------------------
  turn[2]=2 (00000000000000000000000000000010)

State 1269 file input/c/c_seq/p4_ko.c line 318 function t_two thread 0
----------------------------------------------------
  wait=0 (00000000000000000000000000000000)

State 1271 file input/c/c_seq/p4_ko.c line 321 function t_two thread 0
----------------------------------------------------
  j=1 (00000000000000000000000000000001)

State 1278 file input/c/c_seq/p4_ko.c line 325 function t_two thread 0
----------------------------------------------------
  wait=0 (00000000000000000000000000000000)

State 1281 file input/c/c_seq/p4_ko.c line 331 function t_two thread 0
----------------------------------------------------
  j=2 (00000000000000000000000000000010)

State 1286 file input/c/c_seq/p4_ko.c line 341 function t_two thread 0
----------------------------------------------------
  j=3 (00000000000000000000000000000011)

State 1293 file input/c/c_seq/p4_ko.c line 345 function t_two thread 0
----------------------------------------------------
  wait=0 (00000000000000000000000000000000)

State 1296 file input/c/c_seq/p4_ko.c line 351 function t_two thread 0
----------------------------------------------------
  j=4 (00000000000000000000000000000100)

State 1303 file input/c/c_seq/p4_ko.c line 355 function t_two thread 0
----------------------------------------------------
  wait=0 (00000000000000000000000000000000)

State 1311 file input/c/c_seq/p4_ko.c line 368 function t_two thread 0
----------------------------------------------------
  i=3 (00000000000000000000000000000011)

State 1313 file input/c/c_seq/p4_ko.c line 370 function t_two thread 0
----------------------------------------------------
  flag[2]=3 (00000000000000000000000000000011)

State 1315 file input/c/c_seq/p4_ko.c line 372 function t_two thread 0
----------------------------------------------------
  turn[3]=2 (00000000000000000000000000000010)

State 1317 file input/c/c_seq/p4_ko.c line 376 function t_two thread 0
----------------------------------------------------
  wait=0 (00000000000000000000000000000000)

State 1319 file input/c/c_seq/p4_ko.c line 379 function t_two thread 0
----------------------------------------------------
  j=1 (00000000000000000000000000000001)

State 1326 file input/c/c_seq/p4_ko.c line 383 function t_two thread 0
----------------------------------------------------
  wait=0 (00000000000000000000000000000000)

State 1329 file input/c/c_seq/p4_ko.c line 389 function t_two thread 0
----------------------------------------------------
  j=2 (00000000000000000000000000000010)

State 1334 file input/c/c_seq/p4_ko.c line 399 function t_two thread 0
----------------------------------------------------
  j=3 (00000000000000000000000000000011)

State 1341 file input/c/c_seq/p4_ko.c line 403 function t_two thread 0
----------------------------------------------------
  wait=0 (00000000000000000000000000000000)

State 1344 file input/c/c_seq/p4_ko.c line 409 function t_two thread 0
----------------------------------------------------
  j=4 (00000000000000000000000000000100)

State 1351 file input/c/c_seq/p4_ko.c line 413 function t_two thread 0
----------------------------------------------------
  wait=0 (00000000000000000000000000000000)

State 1362 file input/c/c_seq/p4_ko.c line 439 function t_two thread 0
----------------------------------------------------
  x_tmp=0 (00000000000000000000000000000000)

State 1364 file input/c/c_seq/p4_ko.c line 441 function t_two thread 0
----------------------------------------------------
  x_tmp=-1 (11111111111111111111111111111111)

State 1366 file input/c/c_seq/p4_ko.c line 443 function t_two thread 0
----------------------------------------------------
  x=-1 (11111111111111111111111111111111)

State 1369 file input/c/c_seq/p4_ko.c line 449 function t_two thread 0
----------------------------------------------------
  flag[2]=-1 (11111111111111111111111111111111)

State 1372 file input/c/c_seq/p4_ko.c line 911 function main thread 0
----------------------------------------------------
  pc[2]=59 (00000000000000000000000000111011)

State 1373 file input/c/c_seq/p4_ko.c line 912 function main thread 0
----------------------------------------------------
  active[2]=0 (00000000000000000000000000000000)

State 1374 file input/c/c_seq/p4_ko.c line 915 function main thread 0
----------------------------------------------------
  ct=3 (00000000000000000000000000000011)

State 1376 file input/c/c_seq/p4_ko.c line 924 function main thread 0
----------------------------------------------------
  ct=4 (00000000000000000000000000000100)

Violated property:
  file input/c/c_seq/p4_ko.c line 939 function main
  OK x != 0
  x == 0

VERIFICATION FAILED

real	0m18.424s
user	0m18.320s
sys	0m0.080s
