CBMC version 5.4 64-bit x86_64 linux
Parsing input/c/c_seq/p4_ko.c
Converting
Type-checking p4_ko
file input/c/c_seq/p4_ko.c line 899 function main: function `nondet_uint' is not declared
Generating GOTO Program
Adding CPROVER library (x86_64)
Function Pointer Removal
Partial Inlining
Generic Property Instrumentation
Starting Bounded Model Checking
Unwinding loop main.0 iteration 1 (7 max) file input/c/c_seq/p4_ko.c line 896 function main thread 0
Unwinding loop main.0 iteration 2 (7 max) file input/c/c_seq/p4_ko.c line 896 function main thread 0
Unwinding loop main.0 iteration 3 (7 max) file input/c/c_seq/p4_ko.c line 896 function main thread 0
Unwinding loop main.0 iteration 4 (7 max) file input/c/c_seq/p4_ko.c line 896 function main thread 0
Unwinding loop main.0 iteration 5 (7 max) file input/c/c_seq/p4_ko.c line 896 function main thread 0
Unwinding loop main.0 iteration 6 (7 max) file input/c/c_seq/p4_ko.c line 896 function main thread 0
Not unwinding loop main.0 iteration 7 (7 max) file input/c/c_seq/p4_ko.c line 896 function main thread 0
size of program expression: 14229 steps
simple slicing removed 3 assignments
Generated 3 VCC(s), 3 remaining after simplification
Passing problem to propositional reduction
converting SSA
Running propositional reduction
Post-processing
Solving with MiniSAT 2.2.1 with simplifier
259522 variables, 1115621 clauses
SAT checker: instance is SATISFIABLE
Runtime decision procedure: 11.558s
Building error trace

Counterexample:

State 48 file input/c/c_seq/p4_ko.c line 871 function init thread 0
----------------------------------------------------
  pc[0]=0 (00000000000000000000000000000000)

State 49 file input/c/c_seq/p4_ko.c line 872 function init thread 0
----------------------------------------------------
  size[0]=0 (00000000000000000000000000000000)

State 50 file input/c/c_seq/p4_ko.c line 874 function init thread 0
----------------------------------------------------
  pc[1]=0 (00000000000000000000000000000000)

State 51 file input/c/c_seq/p4_ko.c line 875 function init thread 0
----------------------------------------------------
  pc[2]=0 (00000000000000000000000000000000)

State 52 file input/c/c_seq/p4_ko.c line 876 function init thread 0
----------------------------------------------------
  pc[3]=0 (00000000000000000000000000000000)

State 53 file input/c/c_seq/p4_ko.c line 877 function init thread 0
----------------------------------------------------
  pc[4]=0 (00000000000000000000000000000000)

State 54 file input/c/c_seq/p4_ko.c line 879 function init thread 0
----------------------------------------------------
  size[0]=4 (00000000000000000000000000000100)

State 55 file input/c/c_seq/p4_ko.c line 880 function init thread 0
----------------------------------------------------
  size[1]=59 (00000000000000000000000000111011)

State 56 file input/c/c_seq/p4_ko.c line 881 function init thread 0
----------------------------------------------------
  size[2]=59 (00000000000000000000000000111011)

State 57 file input/c/c_seq/p4_ko.c line 882 function init thread 0
----------------------------------------------------
  size[3]=59 (00000000000000000000000000111011)

State 58 file input/c/c_seq/p4_ko.c line 883 function init thread 0
----------------------------------------------------
  size[4]=59 (00000000000000000000000000111011)

State 59 file input/c/c_seq/p4_ko.c line 885 function init thread 0
----------------------------------------------------
  t1=0 (00000000000000000000000000000000)

State 60 file input/c/c_seq/p4_ko.c line 885 function init thread 0
----------------------------------------------------
  t2=0 (00000000000000000000000000000000)

State 61 file input/c/c_seq/p4_ko.c line 885 function init thread 0
----------------------------------------------------
  t3=0 (00000000000000000000000000000000)

State 62 file input/c/c_seq/p4_ko.c line 885 function init thread 0
----------------------------------------------------
  t4=0 (00000000000000000000000000000000)

State 63 file input/c/c_seq/p4_ko.c line 885 function init thread 0
----------------------------------------------------
  t5=0 (00000000000000000000000000000000)

State 64 file input/c/c_seq/p4_ko.c line 885 function init thread 0
----------------------------------------------------
  t6=0 (00000000000000000000000000000000)

State 67 file input/c/c_seq/p4_ko.c line 887 function init thread 0
----------------------------------------------------
  t=0 (00000000000000000000000000000000)

State 68 file input/c/c_seq/p4_ko.c line 887 function init thread 0
----------------------------------------------------
  id=1 (00000000000000000000000000000001)

State 69 file input/c/c_seq/p4_ko.c line 20 function create thread 0
----------------------------------------------------
  active[1]=1 (00000000000000000000000000000001)

State 70 file input/c/c_seq/p4_ko.c line 21 function create thread 0
----------------------------------------------------
  t=1 (00000000000000000000000000000001)

State 74 file input/c/c_seq/p4_ko.c line 888 function init thread 0
----------------------------------------------------
  t=0 (00000000000000000000000000000000)

State 75 file input/c/c_seq/p4_ko.c line 888 function init thread 0
----------------------------------------------------
  id=2 (00000000000000000000000000000010)

State 76 file input/c/c_seq/p4_ko.c line 20 function create thread 0
----------------------------------------------------
  active[2]=1 (00000000000000000000000000000001)

State 77 file input/c/c_seq/p4_ko.c line 21 function create thread 0
----------------------------------------------------
  t=2 (00000000000000000000000000000010)

State 81 file input/c/c_seq/p4_ko.c line 889 function init thread 0
----------------------------------------------------
  t=0 (00000000000000000000000000000000)

State 82 file input/c/c_seq/p4_ko.c line 889 function init thread 0
----------------------------------------------------
  id=3 (00000000000000000000000000000011)

State 83 file input/c/c_seq/p4_ko.c line 20 function create thread 0
----------------------------------------------------
  active[3]=1 (00000000000000000000000000000001)

State 84 file input/c/c_seq/p4_ko.c line 21 function create thread 0
----------------------------------------------------
  t=3 (00000000000000000000000000000011)

State 88 file input/c/c_seq/p4_ko.c line 890 function init thread 0
----------------------------------------------------
  t=0 (00000000000000000000000000000000)

State 89 file input/c/c_seq/p4_ko.c line 890 function init thread 0
----------------------------------------------------
  id=4 (00000000000000000000000000000100)

State 90 file input/c/c_seq/p4_ko.c line 20 function create thread 0
----------------------------------------------------
  active[4]=1 (00000000000000000000000000000001)

State 91 file input/c/c_seq/p4_ko.c line 21 function create thread 0
----------------------------------------------------
  t=4 (00000000000000000000000000000100)

State 94 file input/c/c_seq/p4_ko.c line 897 function main thread 0
----------------------------------------------------
  ct=1 (00000000000000000000000000000001)

State 96 file input/c/c_seq/p4_ko.c line 899 function main thread 0
----------------------------------------------------
  cs=2 (00000000000000000000000000000010)

State 105 file input/c/c_seq/p4_ko.c line 37 function t_one thread 0
----------------------------------------------------
  i=1 (00000000000000000000000000000001)

State 107 file input/c/c_seq/p4_ko.c line 39 function t_one thread 0
----------------------------------------------------
  flag[1]=1 (00000000000000000000000000000001)

State 167 file input/c/c_seq/p4_ko.c line 902 function main thread 0
----------------------------------------------------
  pc[1]=2 (00000000000000000000000000000010)

State 168 file input/c/c_seq/p4_ko.c line 903 function main thread 0
----------------------------------------------------
  active[1]=1 (00000000000000000000000000000001)

State 169 file input/c/c_seq/p4_ko.c line 906 function main thread 0
----------------------------------------------------
  ct=2 (00000000000000000000000000000010)

State 171 file input/c/c_seq/p4_ko.c line 908 function main thread 0
----------------------------------------------------
  cs=0 (00000000000000000000000000000000)

State 240 file input/c/c_seq/p4_ko.c line 911 function main thread 0
----------------------------------------------------
  pc[2]=0 (00000000000000000000000000000000)

State 241 file input/c/c_seq/p4_ko.c line 912 function main thread 0
----------------------------------------------------
  active[2]=1 (00000000000000000000000000000001)

State 242 file input/c/c_seq/p4_ko.c line 915 function main thread 0
----------------------------------------------------
  ct=3 (00000000000000000000000000000011)

State 244 file input/c/c_seq/p4_ko.c line 917 function main thread 0
----------------------------------------------------
  cs=3 (00000000000000000000000000000011)

State 253 file input/c/c_seq/p4_ko.c line 461 function t_three thread 0
----------------------------------------------------
  i=1 (00000000000000000000000000000001)

State 255 file input/c/c_seq/p4_ko.c line 463 function t_three thread 0
----------------------------------------------------
  flag[3]=1 (00000000000000000000000000000001)

State 257 file input/c/c_seq/p4_ko.c line 465 function t_three thread 0
----------------------------------------------------
  turn[1]=3 (00000000000000000000000000000011)

State 316 file input/c/c_seq/p4_ko.c line 920 function main thread 0
----------------------------------------------------
  pc[3]=3 (00000000000000000000000000000011)

State 317 file input/c/c_seq/p4_ko.c line 921 function main thread 0
----------------------------------------------------
  active[3]=1 (00000000000000000000000000000001)

State 318 file input/c/c_seq/p4_ko.c line 924 function main thread 0
----------------------------------------------------
  ct=4 (00000000000000000000000000000100)

State 320 file input/c/c_seq/p4_ko.c line 926 function main thread 0
----------------------------------------------------
  cs=3 (00000000000000000000000000000011)

State 329 file input/c/c_seq/p4_ko.c line 669 function t_four thread 0
----------------------------------------------------
  i=1 (00000000000000000000000000000001)

State 331 file input/c/c_seq/p4_ko.c line 671 function t_four thread 0
----------------------------------------------------
  flag[4]=1 (00000000000000000000000000000001)

State 333 file input/c/c_seq/p4_ko.c line 673 function t_four thread 0
----------------------------------------------------
  turn[1]=4 (00000000000000000000000000000100)

State 392 file input/c/c_seq/p4_ko.c line 929 function main thread 0
----------------------------------------------------
  pc[4]=3 (00000000000000000000000000000011)

State 393 file input/c/c_seq/p4_ko.c line 930 function main thread 0
----------------------------------------------------
  active[4]=1 (00000000000000000000000000000001)

State 396 file input/c/c_seq/p4_ko.c line 897 function main thread 0
----------------------------------------------------
  ct=1 (00000000000000000000000000000001)

State 398 file input/c/c_seq/p4_ko.c line 899 function main thread 0
----------------------------------------------------
  cs=15 (00000000000000000000000000001111)

State 409 file input/c/c_seq/p4_ko.c line 41 function t_one thread 0
----------------------------------------------------
  turn[1]=1 (00000000000000000000000000000001)

State 411 file input/c/c_seq/p4_ko.c line 45 function t_one thread 0
----------------------------------------------------
  wait=0 (00000000000000000000000000000000)

State 413 file input/c/c_seq/p4_ko.c line 48 function t_one thread 0
----------------------------------------------------
  j=1 (00000000000000000000000000000001)

State 418 file input/c/c_seq/p4_ko.c line 58 function t_one thread 0
----------------------------------------------------
  j=2 (00000000000000000000000000000010)

State 425 file input/c/c_seq/p4_ko.c line 62 function t_one thread 0
----------------------------------------------------
  wait=0 (00000000000000000000000000000000)

State 428 file input/c/c_seq/p4_ko.c line 68 function t_one thread 0
----------------------------------------------------
  j=3 (00000000000000000000000000000011)

State 435 file input/c/c_seq/p4_ko.c line 72 function t_one thread 0
----------------------------------------------------
  wait=1 (00000000000000000000000000000001)

State 438 file input/c/c_seq/p4_ko.c line 78 function t_one thread 0
----------------------------------------------------
  j=4 (00000000000000000000000000000100)

State 487 file input/c/c_seq/p4_ko.c line 902 function main thread 0
----------------------------------------------------
  pc[1]=15 (00000000000000000000000000001111)

State 488 file input/c/c_seq/p4_ko.c line 903 function main thread 0
----------------------------------------------------
  active[1]=1 (00000000000000000000000000000001)

State 489 file input/c/c_seq/p4_ko.c line 906 function main thread 0
----------------------------------------------------
  ct=2 (00000000000000000000000000000010)

State 491 file input/c/c_seq/p4_ko.c line 908 function main thread 0
----------------------------------------------------
  cs=0 (00000000000000000000000000000000)

State 560 file input/c/c_seq/p4_ko.c line 911 function main thread 0
----------------------------------------------------
  pc[2]=0 (00000000000000000000000000000000)

State 561 file input/c/c_seq/p4_ko.c line 912 function main thread 0
----------------------------------------------------
  active[2]=1 (00000000000000000000000000000001)

State 562 file input/c/c_seq/p4_ko.c line 915 function main thread 0
----------------------------------------------------
  ct=3 (00000000000000000000000000000011)

State 564 file input/c/c_seq/p4_ko.c line 917 function main thread 0
----------------------------------------------------
  cs=3 (00000000000000000000000000000011)

State 633 file input/c/c_seq/p4_ko.c line 920 function main thread 0
----------------------------------------------------
  pc[3]=3 (00000000000000000000000000000011)

State 634 file input/c/c_seq/p4_ko.c line 921 function main thread 0
----------------------------------------------------
  active[3]=1 (00000000000000000000000000000001)

State 635 file input/c/c_seq/p4_ko.c line 924 function main thread 0
----------------------------------------------------
  ct=4 (00000000000000000000000000000100)

State 637 file input/c/c_seq/p4_ko.c line 926 function main thread 0
----------------------------------------------------
  cs=3 (00000000000000000000000000000011)

State 706 file input/c/c_seq/p4_ko.c line 929 function main thread 0
----------------------------------------------------
  pc[4]=3 (00000000000000000000000000000011)

State 707 file input/c/c_seq/p4_ko.c line 930 function main thread 0
----------------------------------------------------
  active[4]=1 (00000000000000000000000000000001)

State 710 file input/c/c_seq/p4_ko.c line 897 function main thread 0
----------------------------------------------------
  ct=1 (00000000000000000000000000000001)

State 712 file input/c/c_seq/p4_ko.c line 899 function main thread 0
----------------------------------------------------
  cs=17 (00000000000000000000000000010001)

State 740 file input/c/c_seq/p4_ko.c line 82 function t_one thread 0
----------------------------------------------------
  wait=1 (00000000000000000000000000000001)

State 745 file input/c/c_seq/p4_ko.c line 92 function t_one thread 0
----------------------------------------------------
  cs=3 (00000000000000000000000000000011)

State 749 file input/c/c_seq/p4_ko.c line 902 function main thread 0
----------------------------------------------------
  pc[1]=3 (00000000000000000000000000000011)

State 750 file input/c/c_seq/p4_ko.c line 903 function main thread 0
----------------------------------------------------
  active[1]=1 (00000000000000000000000000000001)

State 751 file input/c/c_seq/p4_ko.c line 906 function main thread 0
----------------------------------------------------
  ct=2 (00000000000000000000000000000010)

State 753 file input/c/c_seq/p4_ko.c line 908 function main thread 0
----------------------------------------------------
  cs=5 (00000000000000000000000000000101)

State 762 file input/c/c_seq/p4_ko.c line 252 function t_two thread 0
----------------------------------------------------
  i=1 (00000000000000000000000000000001)

State 764 file input/c/c_seq/p4_ko.c line 254 function t_two thread 0
----------------------------------------------------
  flag[2]=1 (00000000000000000000000000000001)

State 766 file input/c/c_seq/p4_ko.c line 256 function t_two thread 0
----------------------------------------------------
  turn[1]=2 (00000000000000000000000000000010)

State 768 file input/c/c_seq/p4_ko.c line 260 function t_two thread 0
----------------------------------------------------
  wait=0 (00000000000000000000000000000000)

State 770 file input/c/c_seq/p4_ko.c line 263 function t_two thread 0
----------------------------------------------------
  j=1 (00000000000000000000000000000001)

State 827 file input/c/c_seq/p4_ko.c line 911 function main thread 0
----------------------------------------------------
  pc[2]=5 (00000000000000000000000000000101)

State 828 file input/c/c_seq/p4_ko.c line 912 function main thread 0
----------------------------------------------------
  active[2]=1 (00000000000000000000000000000001)

State 829 file input/c/c_seq/p4_ko.c line 915 function main thread 0
----------------------------------------------------
  ct=3 (00000000000000000000000000000011)

State 831 file input/c/c_seq/p4_ko.c line 917 function main thread 0
----------------------------------------------------
  cs=59 (00000000000000000000000000111011)

State 843 file input/c/c_seq/p4_ko.c line 469 function t_three thread 0
----------------------------------------------------
  wait=0 (00000000000000000000000000000000)

State 845 file input/c/c_seq/p4_ko.c line 472 function t_three thread 0
----------------------------------------------------
  j=1 (00000000000000000000000000000001)

State 852 file input/c/c_seq/p4_ko.c line 476 function t_three thread 0
----------------------------------------------------
  wait=1 (00000000000000000000000000000001)

State 855 file input/c/c_seq/p4_ko.c line 482 function t_three thread 0
----------------------------------------------------
  j=2 (00000000000000000000000000000010)

State 863 file input/c/c_seq/p4_ko.c line 486 function t_three thread 0
----------------------------------------------------
  wait=1 (00000000000000000000000000000001)

State 866 file input/c/c_seq/p4_ko.c line 492 function t_three thread 0
----------------------------------------------------
  j=3 (00000000000000000000000000000011)

State 871 file input/c/c_seq/p4_ko.c line 502 function t_three thread 0
----------------------------------------------------
  j=4 (00000000000000000000000000000100)

State 879 file input/c/c_seq/p4_ko.c line 506 function t_three thread 0
----------------------------------------------------
  wait=1 (00000000000000000000000000000001)

State 888 file input/c/c_seq/p4_ko.c line 518 function t_three thread 0
----------------------------------------------------
  i=2 (00000000000000000000000000000010)

State 890 file input/c/c_seq/p4_ko.c line 520 function t_three thread 0
----------------------------------------------------
  flag[3]=2 (00000000000000000000000000000010)

State 892 file input/c/c_seq/p4_ko.c line 522 function t_three thread 0
----------------------------------------------------
  turn[2]=3 (00000000000000000000000000000011)

State 894 file input/c/c_seq/p4_ko.c line 526 function t_three thread 0
----------------------------------------------------
  wait=0 (00000000000000000000000000000000)

State 896 file input/c/c_seq/p4_ko.c line 529 function t_three thread 0
----------------------------------------------------
  j=1 (00000000000000000000000000000001)

State 903 file input/c/c_seq/p4_ko.c line 533 function t_three thread 0
----------------------------------------------------
  wait=0 (00000000000000000000000000000000)

State 906 file input/c/c_seq/p4_ko.c line 539 function t_three thread 0
----------------------------------------------------
  j=2 (00000000000000000000000000000010)

State 913 file input/c/c_seq/p4_ko.c line 543 function t_three thread 0
----------------------------------------------------
  wait=0 (00000000000000000000000000000000)

State 916 file input/c/c_seq/p4_ko.c line 549 function t_three thread 0
----------------------------------------------------
  j=3 (00000000000000000000000000000011)

State 921 file input/c/c_seq/p4_ko.c line 559 function t_three thread 0
----------------------------------------------------
  j=4 (00000000000000000000000000000100)

State 928 file input/c/c_seq/p4_ko.c line 563 function t_three thread 0
----------------------------------------------------
  wait=0 (00000000000000000000000000000000)

State 936 file input/c/c_seq/p4_ko.c line 576 function t_three thread 0
----------------------------------------------------
  i=3 (00000000000000000000000000000011)

State 938 file input/c/c_seq/p4_ko.c line 578 function t_three thread 0
----------------------------------------------------
  flag[3]=3 (00000000000000000000000000000011)

State 940 file input/c/c_seq/p4_ko.c line 580 function t_three thread 0
----------------------------------------------------
  turn[3]=3 (00000000000000000000000000000011)

State 942 file input/c/c_seq/p4_ko.c line 584 function t_three thread 0
----------------------------------------------------
  wait=0 (00000000000000000000000000000000)

State 944 file input/c/c_seq/p4_ko.c line 587 function t_three thread 0
----------------------------------------------------
  j=1 (00000000000000000000000000000001)

State 951 file input/c/c_seq/p4_ko.c line 591 function t_three thread 0
----------------------------------------------------
  wait=0 (00000000000000000000000000000000)

State 954 file input/c/c_seq/p4_ko.c line 597 function t_three thread 0
----------------------------------------------------
  j=2 (00000000000000000000000000000010)

State 961 file input/c/c_seq/p4_ko.c line 601 function t_three thread 0
----------------------------------------------------
  wait=0 (00000000000000000000000000000000)

State 964 file input/c/c_seq/p4_ko.c line 607 function t_three thread 0
----------------------------------------------------
  j=3 (00000000000000000000000000000011)

State 969 file input/c/c_seq/p4_ko.c line 617 function t_three thread 0
----------------------------------------------------
  j=4 (00000000000000000000000000000100)

State 976 file input/c/c_seq/p4_ko.c line 621 function t_three thread 0
----------------------------------------------------
  wait=0 (00000000000000000000000000000000)

State 986 file input/c/c_seq/p4_ko.c line 638 function t_three thread 0
----------------------------------------------------
  x_tmp=-1 (11111111111111111111111111111111)

State 988 file input/c/c_seq/p4_ko.c line 640 function t_three thread 0
----------------------------------------------------
  x_tmp=0 (00000000000000000000000000000000)

State 990 file input/c/c_seq/p4_ko.c line 642 function t_three thread 0
----------------------------------------------------
  x=0 (00000000000000000000000000000000)

State 994 file input/c/c_seq/p4_ko.c line 657 function t_three thread 0
----------------------------------------------------
  flag[3]=-1 (11111111111111111111111111111111)

State 997 file input/c/c_seq/p4_ko.c line 920 function main thread 0
----------------------------------------------------
  pc[3]=59 (00000000000000000000000000111011)

State 998 file input/c/c_seq/p4_ko.c line 921 function main thread 0
----------------------------------------------------
  active[3]=0 (00000000000000000000000000000000)

State 999 file input/c/c_seq/p4_ko.c line 924 function main thread 0
----------------------------------------------------
  ct=4 (00000000000000000000000000000100)

State 1001 file input/c/c_seq/p4_ko.c line 926 function main thread 0
----------------------------------------------------
  cs=59 (00000000000000000000000000111011)

State 1013 file input/c/c_seq/p4_ko.c line 677 function t_four thread 0
----------------------------------------------------
  wait=0 (00000000000000000000000000000000)

State 1015 file input/c/c_seq/p4_ko.c line 680 function t_four thread 0
----------------------------------------------------
  j=1 (00000000000000000000000000000001)

State 1022 file input/c/c_seq/p4_ko.c line 684 function t_four thread 0
----------------------------------------------------
  wait=1 (00000000000000000000000000000001)

State 1025 file input/c/c_seq/p4_ko.c line 690 function t_four thread 0
----------------------------------------------------
  j=2 (00000000000000000000000000000010)

State 1033 file input/c/c_seq/p4_ko.c line 694 function t_four thread 0
----------------------------------------------------
  wait=1 (00000000000000000000000000000001)

State 1036 file input/c/c_seq/p4_ko.c line 700 function t_four thread 0
----------------------------------------------------
  j=3 (00000000000000000000000000000011)

State 1044 file input/c/c_seq/p4_ko.c line 704 function t_four thread 0
----------------------------------------------------
  wait=1 (00000000000000000000000000000001)

State 1047 file input/c/c_seq/p4_ko.c line 710 function t_four thread 0
----------------------------------------------------
  j=4 (00000000000000000000000000000100)

State 1058 file input/c/c_seq/p4_ko.c line 725 function t_four thread 0
----------------------------------------------------
  i=2 (00000000000000000000000000000010)

State 1060 file input/c/c_seq/p4_ko.c line 727 function t_four thread 0
----------------------------------------------------
  flag[4]=2 (00000000000000000000000000000010)

State 1062 file input/c/c_seq/p4_ko.c line 729 function t_four thread 0
----------------------------------------------------
  turn[2]=4 (00000000000000000000000000000100)

State 1064 file input/c/c_seq/p4_ko.c line 733 function t_four thread 0
----------------------------------------------------
  wait=0 (00000000000000000000000000000000)

State 1066 file input/c/c_seq/p4_ko.c line 736 function t_four thread 0
----------------------------------------------------
  j=1 (00000000000000000000000000000001)

State 1073 file input/c/c_seq/p4_ko.c line 740 function t_four thread 0
----------------------------------------------------
  wait=0 (00000000000000000000000000000000)

State 1076 file input/c/c_seq/p4_ko.c line 746 function t_four thread 0
----------------------------------------------------
  j=2 (00000000000000000000000000000010)

State 1083 file input/c/c_seq/p4_ko.c line 750 function t_four thread 0
----------------------------------------------------
  wait=0 (00000000000000000000000000000000)

State 1086 file input/c/c_seq/p4_ko.c line 756 function t_four thread 0
----------------------------------------------------
  j=3 (00000000000000000000000000000011)

State 1093 file input/c/c_seq/p4_ko.c line 760 function t_four thread 0
----------------------------------------------------
  wait=0 (00000000000000000000000000000000)

State 1096 file input/c/c_seq/p4_ko.c line 766 function t_four thread 0
----------------------------------------------------
  j=4 (00000000000000000000000000000100)

State 1106 file input/c/c_seq/p4_ko.c line 783 function t_four thread 0
----------------------------------------------------
  i=3 (00000000000000000000000000000011)

State 1108 file input/c/c_seq/p4_ko.c line 785 function t_four thread 0
----------------------------------------------------
  flag[4]=3 (00000000000000000000000000000011)

State 1110 file input/c/c_seq/p4_ko.c line 787 function t_four thread 0
----------------------------------------------------
  turn[3]=4 (00000000000000000000000000000100)

State 1112 file input/c/c_seq/p4_ko.c line 791 function t_four thread 0
----------------------------------------------------
  wait=0 (00000000000000000000000000000000)

State 1114 file input/c/c_seq/p4_ko.c line 794 function t_four thread 0
----------------------------------------------------
  j=1 (00000000000000000000000000000001)

State 1121 file input/c/c_seq/p4_ko.c line 798 function t_four thread 0
----------------------------------------------------
  wait=0 (00000000000000000000000000000000)

State 1124 file input/c/c_seq/p4_ko.c line 804 function t_four thread 0
----------------------------------------------------
  j=2 (00000000000000000000000000000010)

State 1131 file input/c/c_seq/p4_ko.c line 808 function t_four thread 0
----------------------------------------------------
  wait=0 (00000000000000000000000000000000)

State 1134 file input/c/c_seq/p4_ko.c line 814 function t_four thread 0
----------------------------------------------------
  j=3 (00000000000000000000000000000011)

State 1141 file input/c/c_seq/p4_ko.c line 818 function t_four thread 0
----------------------------------------------------
  wait=0 (00000000000000000000000000000000)

State 1144 file input/c/c_seq/p4_ko.c line 824 function t_four thread 0
----------------------------------------------------
  j=4 (00000000000000000000000000000100)

State 1157 file input/c/c_seq/p4_ko.c line 854 function t_four thread 0
----------------------------------------------------
  x_tmp=0 (00000000000000000000000000000000)

State 1159 file input/c/c_seq/p4_ko.c line 856 function t_four thread 0
----------------------------------------------------
  x_tmp=-1 (11111111111111111111111111111111)

State 1161 file input/c/c_seq/p4_ko.c line 858 function t_four thread 0
----------------------------------------------------
  x=-1 (11111111111111111111111111111111)

State 1164 file input/c/c_seq/p4_ko.c line 864 function t_four thread 0
----------------------------------------------------
  flag[4]=-1 (11111111111111111111111111111111)

State 1167 file input/c/c_seq/p4_ko.c line 929 function main thread 0
----------------------------------------------------
  pc[4]=59 (00000000000000000000000000111011)

State 1168 file input/c/c_seq/p4_ko.c line 930 function main thread 0
----------------------------------------------------
  active[4]=0 (00000000000000000000000000000000)

State 1171 file input/c/c_seq/p4_ko.c line 897 function main thread 0
----------------------------------------------------
  ct=1 (00000000000000000000000000000001)

State 1173 file input/c/c_seq/p4_ko.c line 899 function main thread 0
----------------------------------------------------
  cs=59 (00000000000000000000000000111011)

State 1185 file input/c/c_seq/p4_ko.c line 45 function t_one thread 0
----------------------------------------------------
  wait=0 (00000000000000000000000000000000)

State 1187 file input/c/c_seq/p4_ko.c line 48 function t_one thread 0
----------------------------------------------------
  j=1 (00000000000000000000000000000001)

State 1192 file input/c/c_seq/p4_ko.c line 58 function t_one thread 0
----------------------------------------------------
  j=2 (00000000000000000000000000000010)

State 1199 file input/c/c_seq/p4_ko.c line 62 function t_one thread 0
----------------------------------------------------
  wait=1 (00000000000000000000000000000001)

State 1202 file input/c/c_seq/p4_ko.c line 68 function t_one thread 0
----------------------------------------------------
  j=3 (00000000000000000000000000000011)

State 1210 file input/c/c_seq/p4_ko.c line 72 function t_one thread 0
----------------------------------------------------
  wait=1 (00000000000000000000000000000001)

State 1213 file input/c/c_seq/p4_ko.c line 78 function t_one thread 0
----------------------------------------------------
  j=4 (00000000000000000000000000000100)

State 1221 file input/c/c_seq/p4_ko.c line 82 function t_one thread 0
----------------------------------------------------
  wait=1 (00000000000000000000000000000001)

State 1227 file input/c/c_seq/p4_ko.c line 97 function t_one thread 0
----------------------------------------------------
  i=2 (00000000000000000000000000000010)

State 1229 file input/c/c_seq/p4_ko.c line 99 function t_one thread 0
----------------------------------------------------
  flag[1]=2 (00000000000000000000000000000010)

State 1231 file input/c/c_seq/p4_ko.c line 101 function t_one thread 0
----------------------------------------------------
  turn[2]=1 (00000000000000000000000000000001)

State 1233 file input/c/c_seq/p4_ko.c line 105 function t_one thread 0
----------------------------------------------------
  wait=0 (00000000000000000000000000000000)

State 1235 file input/c/c_seq/p4_ko.c line 108 function t_one thread 0
----------------------------------------------------
  j=1 (00000000000000000000000000000001)

State 1240 file input/c/c_seq/p4_ko.c line 118 function t_one thread 0
----------------------------------------------------
  j=2 (00000000000000000000000000000010)

State 1247 file input/c/c_seq/p4_ko.c line 122 function t_one thread 0
----------------------------------------------------
  wait=0 (00000000000000000000000000000000)

State 1250 file input/c/c_seq/p4_ko.c line 128 function t_one thread 0
----------------------------------------------------
  j=3 (00000000000000000000000000000011)

State 1257 file input/c/c_seq/p4_ko.c line 132 function t_one thread 0
----------------------------------------------------
  wait=0 (00000000000000000000000000000000)

State 1260 file input/c/c_seq/p4_ko.c line 138 function t_one thread 0
----------------------------------------------------
  j=4 (00000000000000000000000000000100)

State 1267 file input/c/c_seq/p4_ko.c line 142 function t_one thread 0
----------------------------------------------------
  wait=0 (00000000000000000000000000000000)

State 1272 file input/c/c_seq/p4_ko.c line 157 function t_one thread 0
----------------------------------------------------
  i=3 (00000000000000000000000000000011)

State 1274 file input/c/c_seq/p4_ko.c line 159 function t_one thread 0
----------------------------------------------------
  flag[1]=3 (00000000000000000000000000000011)

State 1276 file input/c/c_seq/p4_ko.c line 161 function t_one thread 0
----------------------------------------------------
  turn[3]=1 (00000000000000000000000000000001)

State 1278 file input/c/c_seq/p4_ko.c line 165 function t_one thread 0
----------------------------------------------------
  wait=0 (00000000000000000000000000000000)

State 1280 file input/c/c_seq/p4_ko.c line 168 function t_one thread 0
----------------------------------------------------
  j=1 (00000000000000000000000000000001)

State 1285 file input/c/c_seq/p4_ko.c line 178 function t_one thread 0
----------------------------------------------------
  j=2 (00000000000000000000000000000010)

State 1292 file input/c/c_seq/p4_ko.c line 182 function t_one thread 0
----------------------------------------------------
  wait=0 (00000000000000000000000000000000)

State 1295 file input/c/c_seq/p4_ko.c line 188 function t_one thread 0
----------------------------------------------------
  j=3 (00000000000000000000000000000011)

State 1302 file input/c/c_seq/p4_ko.c line 192 function t_one thread 0
----------------------------------------------------
  wait=0 (00000000000000000000000000000000)

State 1305 file input/c/c_seq/p4_ko.c line 198 function t_one thread 0
----------------------------------------------------
  j=4 (00000000000000000000000000000100)

State 1312 file input/c/c_seq/p4_ko.c line 202 function t_one thread 0
----------------------------------------------------
  wait=0 (00000000000000000000000000000000)

State 1319 file input/c/c_seq/p4_ko.c line 221 function t_one thread 0
----------------------------------------------------
  x_tmp=-1 (11111111111111111111111111111111)

State 1321 file input/c/c_seq/p4_ko.c line 223 function t_one thread 0
----------------------------------------------------
  x_tmp=0 (00000000000000000000000000000000)

State 1323 file input/c/c_seq/p4_ko.c line 225 function t_one thread 0
----------------------------------------------------
  x=0 (00000000000000000000000000000000)

State 1327 file input/c/c_seq/p4_ko.c line 240 function t_one thread 0
----------------------------------------------------
  flag[1]=-1 (11111111111111111111111111111111)

State 1330 file input/c/c_seq/p4_ko.c line 902 function main thread 0
----------------------------------------------------
  pc[1]=59 (00000000000000000000000000111011)

State 1331 file input/c/c_seq/p4_ko.c line 903 function main thread 0
----------------------------------------------------
  active[1]=0 (00000000000000000000000000000000)

State 1332 file input/c/c_seq/p4_ko.c line 906 function main thread 0
----------------------------------------------------
  ct=2 (00000000000000000000000000000010)

State 1334 file input/c/c_seq/p4_ko.c line 908 function main thread 0
----------------------------------------------------
  cs=35 (00000000000000000000000000100011)

State 1353 file input/c/c_seq/p4_ko.c line 267 function t_two thread 0
----------------------------------------------------
  wait=0 (00000000000000000000000000000000)

State 1356 file input/c/c_seq/p4_ko.c line 273 function t_two thread 0
----------------------------------------------------
  j=2 (00000000000000000000000000000010)

State 1361 file input/c/c_seq/p4_ko.c line 283 function t_two thread 0
----------------------------------------------------
  j=3 (00000000000000000000000000000011)

State 1368 file input/c/c_seq/p4_ko.c line 287 function t_two thread 0
----------------------------------------------------
  wait=0 (00000000000000000000000000000000)

State 1371 file input/c/c_seq/p4_ko.c line 293 function t_two thread 0
----------------------------------------------------
  j=4 (00000000000000000000000000000100)

State 1378 file input/c/c_seq/p4_ko.c line 297 function t_two thread 0
----------------------------------------------------
  wait=0 (00000000000000000000000000000000)

State 1386 file input/c/c_seq/p4_ko.c line 310 function t_two thread 0
----------------------------------------------------
  i=2 (00000000000000000000000000000010)

State 1388 file input/c/c_seq/p4_ko.c line 312 function t_two thread 0
----------------------------------------------------
  flag[2]=2 (00000000000000000000000000000010)

State 1390 file input/c/c_seq/p4_ko.c line 314 function t_two thread 0
----------------------------------------------------
  turn[2]=2 (00000000000000000000000000000010)

State 1392 file input/c/c_seq/p4_ko.c line 318 function t_two thread 0
----------------------------------------------------
  wait=0 (00000000000000000000000000000000)

State 1394 file input/c/c_seq/p4_ko.c line 321 function t_two thread 0
----------------------------------------------------
  j=1 (00000000000000000000000000000001)

State 1401 file input/c/c_seq/p4_ko.c line 325 function t_two thread 0
----------------------------------------------------
  wait=0 (00000000000000000000000000000000)

State 1404 file input/c/c_seq/p4_ko.c line 331 function t_two thread 0
----------------------------------------------------
  j=2 (00000000000000000000000000000010)

State 1409 file input/c/c_seq/p4_ko.c line 341 function t_two thread 0
----------------------------------------------------
  j=3 (00000000000000000000000000000011)

State 1416 file input/c/c_seq/p4_ko.c line 345 function t_two thread 0
----------------------------------------------------
  wait=0 (00000000000000000000000000000000)

State 1419 file input/c/c_seq/p4_ko.c line 351 function t_two thread 0
----------------------------------------------------
  j=4 (00000000000000000000000000000100)

State 1426 file input/c/c_seq/p4_ko.c line 355 function t_two thread 0
----------------------------------------------------
  wait=0 (00000000000000000000000000000000)

State 1434 file input/c/c_seq/p4_ko.c line 368 function t_two thread 0
----------------------------------------------------
  i=3 (00000000000000000000000000000011)

State 1461 file input/c/c_seq/p4_ko.c line 911 function main thread 0
----------------------------------------------------
  pc[2]=35 (00000000000000000000000000100011)

State 1462 file input/c/c_seq/p4_ko.c line 912 function main thread 0
----------------------------------------------------
  active[2]=1 (00000000000000000000000000000001)

State 1463 file input/c/c_seq/p4_ko.c line 915 function main thread 0
----------------------------------------------------
  ct=3 (00000000000000000000000000000011)

State 1465 file input/c/c_seq/p4_ko.c line 924 function main thread 0
----------------------------------------------------
  ct=4 (00000000000000000000000000000100)

State 1470 file input/c/c_seq/p4_ko.c line 897 function main thread 0
----------------------------------------------------
  ct=1 (00000000000000000000000000000001)

State 1472 file input/c/c_seq/p4_ko.c line 906 function main thread 0
----------------------------------------------------
  ct=2 (00000000000000000000000000000010)

State 1474 file input/c/c_seq/p4_ko.c line 908 function main thread 0
----------------------------------------------------
  cs=57 (00000000000000000000000000111001)

State 1518 file input/c/c_seq/p4_ko.c line 370 function t_two thread 0
----------------------------------------------------
  flag[2]=3 (00000000000000000000000000000011)

State 1520 file input/c/c_seq/p4_ko.c line 372 function t_two thread 0
----------------------------------------------------
  turn[3]=2 (00000000000000000000000000000010)

State 1522 file input/c/c_seq/p4_ko.c line 376 function t_two thread 0
----------------------------------------------------
  wait=0 (00000000000000000000000000000000)

State 1524 file input/c/c_seq/p4_ko.c line 379 function t_two thread 0
----------------------------------------------------
  j=1 (00000000000000000000000000000001)

State 1531 file input/c/c_seq/p4_ko.c line 383 function t_two thread 0
----------------------------------------------------
  wait=0 (00000000000000000000000000000000)

State 1534 file input/c/c_seq/p4_ko.c line 389 function t_two thread 0
----------------------------------------------------
  j=2 (00000000000000000000000000000010)

State 1539 file input/c/c_seq/p4_ko.c line 399 function t_two thread 0
----------------------------------------------------
  j=3 (00000000000000000000000000000011)

State 1546 file input/c/c_seq/p4_ko.c line 403 function t_two thread 0
----------------------------------------------------
  wait=0 (00000000000000000000000000000000)

State 1549 file input/c/c_seq/p4_ko.c line 409 function t_two thread 0
----------------------------------------------------
  j=4 (00000000000000000000000000000100)

State 1556 file input/c/c_seq/p4_ko.c line 413 function t_two thread 0
----------------------------------------------------
  wait=0 (00000000000000000000000000000000)

State 1567 file input/c/c_seq/p4_ko.c line 439 function t_two thread 0
----------------------------------------------------
  x_tmp=0 (00000000000000000000000000000000)

State 1569 file input/c/c_seq/p4_ko.c line 441 function t_two thread 0
----------------------------------------------------
  x_tmp=-1 (11111111111111111111111111111111)

State 1574 file input/c/c_seq/p4_ko.c line 911 function main thread 0
----------------------------------------------------
  pc[2]=57 (00000000000000000000000000111001)

State 1575 file input/c/c_seq/p4_ko.c line 912 function main thread 0
----------------------------------------------------
  active[2]=1 (00000000000000000000000000000001)

State 1576 file input/c/c_seq/p4_ko.c line 915 function main thread 0
----------------------------------------------------
  ct=3 (00000000000000000000000000000011)

State 1578 file input/c/c_seq/p4_ko.c line 924 function main thread 0
----------------------------------------------------
  ct=4 (00000000000000000000000000000100)

State 1583 file input/c/c_seq/p4_ko.c line 897 function main thread 0
----------------------------------------------------
  ct=1 (00000000000000000000000000000001)

State 1585 file input/c/c_seq/p4_ko.c line 906 function main thread 0
----------------------------------------------------
  ct=2 (00000000000000000000000000000010)

State 1587 file input/c/c_seq/p4_ko.c line 908 function main thread 0
----------------------------------------------------
  cs=57 (00000000000000000000000000111001)

State 1656 file input/c/c_seq/p4_ko.c line 911 function main thread 0
----------------------------------------------------
  pc[2]=57 (00000000000000000000000000111001)

State 1657 file input/c/c_seq/p4_ko.c line 912 function main thread 0
----------------------------------------------------
  active[2]=1 (00000000000000000000000000000001)

State 1658 file input/c/c_seq/p4_ko.c line 915 function main thread 0
----------------------------------------------------
  ct=3 (00000000000000000000000000000011)

State 1660 file input/c/c_seq/p4_ko.c line 924 function main thread 0
----------------------------------------------------
  ct=4 (00000000000000000000000000000100)

State 1665 file input/c/c_seq/p4_ko.c line 897 function main thread 0
----------------------------------------------------
  ct=1 (00000000000000000000000000000001)

State 1667 file input/c/c_seq/p4_ko.c line 906 function main thread 0
----------------------------------------------------
  ct=2 (00000000000000000000000000000010)

State 1669 file input/c/c_seq/p4_ko.c line 908 function main thread 0
----------------------------------------------------
  cs=59 (00000000000000000000000000111011)

State 1735 file input/c/c_seq/p4_ko.c line 443 function t_two thread 0
----------------------------------------------------
  x=-1 (11111111111111111111111111111111)

State 1738 file input/c/c_seq/p4_ko.c line 449 function t_two thread 0
----------------------------------------------------
  flag[2]=-1 (11111111111111111111111111111111)

State 1741 file input/c/c_seq/p4_ko.c line 911 function main thread 0
----------------------------------------------------
  pc[2]=59 (00000000000000000000000000111011)

State 1742 file input/c/c_seq/p4_ko.c line 912 function main thread 0
----------------------------------------------------
  active[2]=0 (00000000000000000000000000000000)

State 1743 file input/c/c_seq/p4_ko.c line 915 function main thread 0
----------------------------------------------------
  ct=3 (00000000000000000000000000000011)

State 1745 file input/c/c_seq/p4_ko.c line 924 function main thread 0
----------------------------------------------------
  ct=4 (00000000000000000000000000000100)

Violated property:
  file input/c/c_seq/p4_ko.c line 939 function main
  OK x != 0
  x == 0

VERIFICATION FAILED

real	0m29.662s
user	0m29.530s
sys	0m0.110s
