p4_ko;Glucose-Syrup;3;KO;6.300;8181;143032;595460
p4_ko;Glucose-Syrup;4;KO;9.072;10197;181862;765567
p4_ko;Glucose-Syrup;5;KO;12.436;12213;220692;938954
p4_ko;Glucose-Syrup;6;KO;16.748;14229;259522;1115621
p4_ko;Glucose-Syrup;7;KO;22.710;16245;298352;1295568
p4_ko;Glucose-Syrup;8;KO;29.392;18261;337182;1478795
p4_ko;MiniSAT-2.2.1;3;KO;5.995;8181;143032;595460
p4_ko;MiniSAT-2.2.1;4;KO;8.850;10197;181862;765567
p4_ko;MiniSAT-2.2.1;5;KO;12.799;12213;220692;938954
p4_ko;MiniSAT-2.2.1;6;KO;17.099;14229;259522;1115621
p4_ko;MiniSAT-2.2.1;7;KO;22.947;16245;298352;1295568
p4_ko;MiniSAT-2.2.1;8;KO;28.171;18261;337182;1478795
