CBMC version 5.4 64-bit x86_64 macos
Parsing input/c/c_seq_complete/act_java_ko.c
Converting
Type-checking act_java_ko
file input/c/c_seq_complete/act_java_ko.c line 584 function main: function `nondet_uint' is not declared
Generating GOTO Program
Adding CPROVER library (x86_64)
Function Pointer Removal
Partial Inlining
Generic Property Instrumentation
Starting Bounded Model Checking
Unwinding loop main.0 iteration 1 (20 max) file input/c/c_seq_complete/act_java_ko.c line 581 function main thread 0
Unwinding loop main.0 iteration 2 (20 max) file input/c/c_seq_complete/act_java_ko.c line 581 function main thread 0
Unwinding loop main.0 iteration 3 (20 max) file input/c/c_seq_complete/act_java_ko.c line 581 function main thread 0
Unwinding loop main.0 iteration 4 (20 max) file input/c/c_seq_complete/act_java_ko.c line 581 function main thread 0
Unwinding loop main.0 iteration 5 (20 max) file input/c/c_seq_complete/act_java_ko.c line 581 function main thread 0
Unwinding loop main.0 iteration 6 (20 max) file input/c/c_seq_complete/act_java_ko.c line 581 function main thread 0
Unwinding loop main.0 iteration 7 (20 max) file input/c/c_seq_complete/act_java_ko.c line 581 function main thread 0
Unwinding loop main.0 iteration 8 (20 max) file input/c/c_seq_complete/act_java_ko.c line 581 function main thread 0
Unwinding loop main.0 iteration 9 (20 max) file input/c/c_seq_complete/act_java_ko.c line 581 function main thread 0
Unwinding loop main.0 iteration 10 (20 max) file input/c/c_seq_complete/act_java_ko.c line 581 function main thread 0
Unwinding loop main.0 iteration 11 (20 max) file input/c/c_seq_complete/act_java_ko.c line 581 function main thread 0
Unwinding loop main.0 iteration 12 (20 max) file input/c/c_seq_complete/act_java_ko.c line 581 function main thread 0
Unwinding loop main.0 iteration 13 (20 max) file input/c/c_seq_complete/act_java_ko.c line 581 function main thread 0
Unwinding loop main.0 iteration 14 (20 max) file input/c/c_seq_complete/act_java_ko.c line 581 function main thread 0
Unwinding loop main.0 iteration 15 (20 max) file input/c/c_seq_complete/act_java_ko.c line 581 function main thread 0
Unwinding loop main.0 iteration 16 (20 max) file input/c/c_seq_complete/act_java_ko.c line 581 function main thread 0
Unwinding loop main.0 iteration 17 (20 max) file input/c/c_seq_complete/act_java_ko.c line 581 function main thread 0
Unwinding loop main.0 iteration 18 (20 max) file input/c/c_seq_complete/act_java_ko.c line 581 function main thread 0
Unwinding loop main.0 iteration 19 (20 max) file input/c/c_seq_complete/act_java_ko.c line 581 function main thread 0
Not unwinding loop main.0 iteration 20 (20 max) file input/c/c_seq_complete/act_java_ko.c line 581 function main thread 0
size of program expression: 18901 steps
simple slicing removed 60 assignments
Generated 479 VCC(s), 479 remaining after simplification
Passing problem to propositional reduction
converting SSA
Running propositional reduction
Post-processing
Solving with Glucose Syrup with simplifier
672238 variables, 3070167 clauses
SAT checker: instance is SATISFIABLE
Runtime decision procedure: 161.183s
Building error trace

Counterexample:

State 41 file input/c/c_seq_complete/act_java_ko.c line 560 function init thread 0
----------------------------------------------------
  pc[0]=0 (00000000000000000000000000000000)

State 42 file input/c/c_seq_complete/act_java_ko.c line 561 function init thread 0
----------------------------------------------------
  size[0]=0 (00000000000000000000000000000000)

State 43 file input/c/c_seq_complete/act_java_ko.c line 563 function init thread 0
----------------------------------------------------
  pc[1]=0 (00000000000000000000000000000000)

State 44 file input/c/c_seq_complete/act_java_ko.c line 564 function init thread 0
----------------------------------------------------
  pc[2]=0 (00000000000000000000000000000000)

State 45 file input/c/c_seq_complete/act_java_ko.c line 565 function init thread 0
----------------------------------------------------
  pc[3]=0 (00000000000000000000000000000000)

State 46 file input/c/c_seq_complete/act_java_ko.c line 566 function init thread 0
----------------------------------------------------
  ssize=0 (00000000000000000000000000000000)

State 47 file input/c/c_seq_complete/act_java_ko.c line 566 function init thread 0
----------------------------------------------------
  ssize=33 (00000000000000000000000000100001)

State 48 file input/c/c_seq_complete/act_java_ko.c line 567 function init thread 0
----------------------------------------------------
  size[1]=33 (00000000000000000000000000100001)

State 49 file input/c/c_seq_complete/act_java_ko.c line 568 function init thread 0
----------------------------------------------------
  size[2]=33 (00000000000000000000000000100001)

State 50 file input/c/c_seq_complete/act_java_ko.c line 569 function init thread 0
----------------------------------------------------
  size[3]=33 (00000000000000000000000000100001)

State 51 file input/c/c_seq_complete/act_java_ko.c line 571 function init thread 0
----------------------------------------------------
  t1=0 (00000000000000000000000000000000)

State 52 file input/c/c_seq_complete/act_java_ko.c line 571 function init thread 0
----------------------------------------------------
  t2=0 (00000000000000000000000000000000)

State 53 file input/c/c_seq_complete/act_java_ko.c line 571 function init thread 0
----------------------------------------------------
  t3=0 (00000000000000000000000000000000)

State 56 file input/c/c_seq_complete/act_java_ko.c line 573 function init thread 0
----------------------------------------------------
  t=0 (00000000000000000000000000000000)

State 57 file input/c/c_seq_complete/act_java_ko.c line 573 function init thread 0
----------------------------------------------------
  id=1 (00000000000000000000000000000001)

State 58 file input/c/c_seq_complete/act_java_ko.c line 21 function create thread 0
----------------------------------------------------
  active[1]=1 (00000000000000000000000000000001)

State 59 file input/c/c_seq_complete/act_java_ko.c line 22 function create thread 0
----------------------------------------------------
  t=1 (00000000000000000000000000000001)

State 63 file input/c/c_seq_complete/act_java_ko.c line 574 function init thread 0
----------------------------------------------------
  t=0 (00000000000000000000000000000000)

State 64 file input/c/c_seq_complete/act_java_ko.c line 574 function init thread 0
----------------------------------------------------
  id=2 (00000000000000000000000000000010)

State 65 file input/c/c_seq_complete/act_java_ko.c line 21 function create thread 0
----------------------------------------------------
  active[2]=1 (00000000000000000000000000000001)

State 66 file input/c/c_seq_complete/act_java_ko.c line 22 function create thread 0
----------------------------------------------------
  t=2 (00000000000000000000000000000010)

State 70 file input/c/c_seq_complete/act_java_ko.c line 575 function init thread 0
----------------------------------------------------
  t=0 (00000000000000000000000000000000)

State 71 file input/c/c_seq_complete/act_java_ko.c line 575 function init thread 0
----------------------------------------------------
  id=3 (00000000000000000000000000000011)

State 72 file input/c/c_seq_complete/act_java_ko.c line 21 function create thread 0
----------------------------------------------------
  active[3]=1 (00000000000000000000000000000001)

State 73 file input/c/c_seq_complete/act_java_ko.c line 22 function create thread 0
----------------------------------------------------
  t=3 (00000000000000000000000000000011)

State 76 file input/c/c_seq_complete/act_java_ko.c line 582 function main thread 0
----------------------------------------------------
  ct=1 (00000000000000000000000000000001)

State 78 file input/c/c_seq_complete/act_java_ko.c line 584 function main thread 0
----------------------------------------------------
  cs=24 (00000000000000000000000000011000)

State 87 file input/c/c_seq_complete/act_java_ko.c line 77 function t_one thread 0
----------------------------------------------------
  i=1 (00000000000000000000000000000001)

State 89 file input/c/c_seq_complete/act_java_ko.c line 79 function t_one thread 0
----------------------------------------------------
  MyClaim=4 (00000000000000000000000000000100)

State 91 file input/c/c_seq_complete/act_java_ko.c line 82 function t_one thread 0
----------------------------------------------------
  y=4 (00000000000000000000000000000100)

State 94 file input/c/c_seq_complete/act_java_ko.c line 94 function t_one thread 0
----------------------------------------------------
  stock=18 (00000000000000000000000000010010)

State 98 file input/c/c_seq_complete/act_java_ko.c line 110 function t_one thread 0
----------------------------------------------------
  FullAllocation=4 (00000000000000000000000000000100)

State 100 file input/c/c_seq_complete/act_java_ko.c line 112 function t_one thread 0
----------------------------------------------------
  i=2 (00000000000000000000000000000010)

State 102 file input/c/c_seq_complete/act_java_ko.c line 114 function t_one thread 0
----------------------------------------------------
  MyClaim=3 (00000000000000000000000000000011)

State 104 file input/c/c_seq_complete/act_java_ko.c line 117 function t_one thread 0
----------------------------------------------------
  y=3 (00000000000000000000000000000011)

State 107 file input/c/c_seq_complete/act_java_ko.c line 129 function t_one thread 0
----------------------------------------------------
  stock=15 (00000000000000000000000000001111)

State 111 file input/c/c_seq_complete/act_java_ko.c line 145 function t_one thread 0
----------------------------------------------------
  FullAllocation=7 (00000000000000000000000000000111)

State 113 file input/c/c_seq_complete/act_java_ko.c line 147 function t_one thread 0
----------------------------------------------------
  i=3 (00000000000000000000000000000011)

State 115 file input/c/c_seq_complete/act_java_ko.c line 149 function t_one thread 0
----------------------------------------------------
  MyClaim=2 (00000000000000000000000000000010)

State 117 file input/c/c_seq_complete/act_java_ko.c line 152 function t_one thread 0
----------------------------------------------------
  y=2 (00000000000000000000000000000010)

State 120 file input/c/c_seq_complete/act_java_ko.c line 164 function t_one thread 0
----------------------------------------------------
  stock=13 (00000000000000000000000000001101)

State 124 file input/c/c_seq_complete/act_java_ko.c line 180 function t_one thread 0
----------------------------------------------------
  FullAllocation=9 (00000000000000000000000000001001)

State 136 file input/c/c_seq_complete/act_java_ko.c line 587 function main thread 0
----------------------------------------------------
  pc[1]=24 (00000000000000000000000000011000)

State 137 file input/c/c_seq_complete/act_java_ko.c line 588 function main thread 0
----------------------------------------------------
  active[1]=1 (00000000000000000000000000000001)

State 138 file input/c/c_seq_complete/act_java_ko.c line 589 function main thread 0
----------------------------------------------------
  dead=0 (00000000000000000000000000000000)

State 139 file input/c/c_seq_complete/act_java_ko.c line 592 function main thread 0
----------------------------------------------------
  ct=2 (00000000000000000000000000000010)

State 141 file input/c/c_seq_complete/act_java_ko.c line 594 function main thread 0
----------------------------------------------------
  cs=10 (00000000000000000000000000001010)

State 150 file input/c/c_seq_complete/act_java_ko.c line 241 function t_two thread 0
----------------------------------------------------
  i=1 (00000000000000000000000000000001)

State 152 file input/c/c_seq_complete/act_java_ko.c line 243 function t_two thread 0
----------------------------------------------------
  MyClaim=4 (00000000000000000000000000000100)

State 154 file input/c/c_seq_complete/act_java_ko.c line 246 function t_two thread 0
----------------------------------------------------
  y=4 (00000000000000000000000000000100)

State 157 file input/c/c_seq_complete/act_java_ko.c line 258 function t_two thread 0
----------------------------------------------------
  stock=9 (00000000000000000000000000001001)

State 161 file input/c/c_seq_complete/act_java_ko.c line 274 function t_two thread 0
----------------------------------------------------
  FullAllocation=4 (00000000000000000000000000000100)

State 163 file input/c/c_seq_complete/act_java_ko.c line 276 function t_two thread 0
----------------------------------------------------
  i=2 (00000000000000000000000000000010)

State 165 file input/c/c_seq_complete/act_java_ko.c line 278 function t_two thread 0
----------------------------------------------------
  MyClaim=3 (00000000000000000000000000000011)

State 191 file input/c/c_seq_complete/act_java_ko.c line 597 function main thread 0
----------------------------------------------------
  pc[2]=10 (00000000000000000000000000001010)

State 192 file input/c/c_seq_complete/act_java_ko.c line 598 function main thread 0
----------------------------------------------------
  active[2]=1 (00000000000000000000000000000001)

State 193 file input/c/c_seq_complete/act_java_ko.c line 599 function main thread 0
----------------------------------------------------
  dead=0 (00000000000000000000000000000000)

State 194 file input/c/c_seq_complete/act_java_ko.c line 602 function main thread 0
----------------------------------------------------
  ct=3 (00000000000000000000000000000011)

State 196 file input/c/c_seq_complete/act_java_ko.c line 604 function main thread 0
----------------------------------------------------
  cs=29 (00000000000000000000000000011101)

State 205 file input/c/c_seq_complete/act_java_ko.c line 404 function t_three thread 0
----------------------------------------------------
  i=1 (00000000000000000000000000000001)

State 207 file input/c/c_seq_complete/act_java_ko.c line 406 function t_three thread 0
----------------------------------------------------
  MyClaim=4 (00000000000000000000000000000100)

State 209 file input/c/c_seq_complete/act_java_ko.c line 409 function t_three thread 0
----------------------------------------------------
  y=4 (00000000000000000000000000000100)

State 212 file input/c/c_seq_complete/act_java_ko.c line 421 function t_three thread 0
----------------------------------------------------
  stock=5 (00000000000000000000000000000101)

State 216 file input/c/c_seq_complete/act_java_ko.c line 437 function t_three thread 0
----------------------------------------------------
  FullAllocation=4 (00000000000000000000000000000100)

State 218 file input/c/c_seq_complete/act_java_ko.c line 439 function t_three thread 0
----------------------------------------------------
  i=2 (00000000000000000000000000000010)

State 220 file input/c/c_seq_complete/act_java_ko.c line 441 function t_three thread 0
----------------------------------------------------
  MyClaim=3 (00000000000000000000000000000011)

State 222 file input/c/c_seq_complete/act_java_ko.c line 444 function t_three thread 0
----------------------------------------------------
  y=3 (00000000000000000000000000000011)

State 225 file input/c/c_seq_complete/act_java_ko.c line 456 function t_three thread 0
----------------------------------------------------
  stock=2 (00000000000000000000000000000010)

State 229 file input/c/c_seq_complete/act_java_ko.c line 472 function t_three thread 0
----------------------------------------------------
  FullAllocation=7 (00000000000000000000000000000111)

State 231 file input/c/c_seq_complete/act_java_ko.c line 474 function t_three thread 0
----------------------------------------------------
  i=3 (00000000000000000000000000000011)

State 233 file input/c/c_seq_complete/act_java_ko.c line 476 function t_three thread 0
----------------------------------------------------
  MyClaim=2 (00000000000000000000000000000010)

State 235 file input/c/c_seq_complete/act_java_ko.c line 479 function t_three thread 0
----------------------------------------------------
  y=2 (00000000000000000000000000000010)

State 238 file input/c/c_seq_complete/act_java_ko.c line 491 function t_three thread 0
----------------------------------------------------
  stock=0 (00000000000000000000000000000000)

State 242 file input/c/c_seq_complete/act_java_ko.c line 507 function t_three thread 0
----------------------------------------------------
  FullAllocation=9 (00000000000000000000000000001001)

State 244 file input/c/c_seq_complete/act_java_ko.c line 509 function t_three thread 0
----------------------------------------------------
  i=4 (00000000000000000000000000000100)

State 246 file input/c/c_seq_complete/act_java_ko.c line 511 function t_three thread 0
----------------------------------------------------
  MyClaim=1 (00000000000000000000000000000001)

State 248 file input/c/c_seq_complete/act_java_ko.c line 514 function t_three thread 0
----------------------------------------------------
  y=1 (00000000000000000000000000000001)

State 251 file input/c/c_seq_complete/act_java_ko.c line 526 function t_three thread 0
----------------------------------------------------
  stock=-1 (11111111111111111111111111111111)

State 253 file input/c/c_seq_complete/act_java_ko.c line 529 function t_three thread 0
----------------------------------------------------
  assignCount=1 (00000000000000000000000000000001)

State 254 file input/c/c_seq_complete/act_java_ko.c line 530 function t_three thread 0
----------------------------------------------------
  taskInWait=1 (00000000000000000000000000000001)

State 262 file input/c/c_seq_complete/act_java_ko.c line 607 function main thread 0
----------------------------------------------------
  pc[3]=29 (00000000000000000000000000011101)

State 263 file input/c/c_seq_complete/act_java_ko.c line 608 function main thread 0
----------------------------------------------------
  active[3]=1 (00000000000000000000000000000001)

State 264 file input/c/c_seq_complete/act_java_ko.c line 609 function main thread 0
----------------------------------------------------
  dead=0 (00000000000000000000000000000000)

State 266 file input/c/c_seq_complete/act_java_ko.c line 582 function main thread 0
----------------------------------------------------
  ct=1 (00000000000000000000000000000001)

State 268 file input/c/c_seq_complete/act_java_ko.c line 584 function main thread 0
----------------------------------------------------
  cs=27 (00000000000000000000000000011011)

State 301 file input/c/c_seq_complete/act_java_ko.c line 182 function t_one thread 0
----------------------------------------------------
  i=4 (00000000000000000000000000000100)

State 303 file input/c/c_seq_complete/act_java_ko.c line 184 function t_one thread 0
----------------------------------------------------
  MyClaim=1 (00000000000000000000000000000001)

State 305 file input/c/c_seq_complete/act_java_ko.c line 187 function t_one thread 0
----------------------------------------------------
  y=1 (00000000000000000000000000000001)

State 307 file input/c/c_seq_complete/act_java_ko.c line 190 function t_one thread 0
----------------------------------------------------
  taskInWait=2 (00000000000000000000000000000010)

State 317 file input/c/c_seq_complete/act_java_ko.c line 587 function main thread 0
----------------------------------------------------
  pc[1]=27 (00000000000000000000000000011011)

State 318 file input/c/c_seq_complete/act_java_ko.c line 588 function main thread 0
----------------------------------------------------
  active[1]=1 (00000000000000000000000000000001)

State 319 file input/c/c_seq_complete/act_java_ko.c line 589 function main thread 0
----------------------------------------------------
  dead=0 (00000000000000000000000000000000)

State 320 file input/c/c_seq_complete/act_java_ko.c line 592 function main thread 0
----------------------------------------------------
  ct=2 (00000000000000000000000000000010)

State 322 file input/c/c_seq_complete/act_java_ko.c line 594 function main thread 0
----------------------------------------------------
  cs=11 (00000000000000000000000000001011)

State 341 file input/c/c_seq_complete/act_java_ko.c line 281 function t_two thread 0
----------------------------------------------------
  y=3 (00000000000000000000000000000011)

State 343 file input/c/c_seq_complete/act_java_ko.c line 284 function t_two thread 0
----------------------------------------------------
  taskInWait=3 (00000000000000000000000000000011)

Violated property:
  file input/c/c_seq_complete/act_java_ko.c line 285 function t_two
  OK taskInWait==3
  taskInWait < 3

VERIFICATION FAILED

real	3m2.431s
user	3m1.704s
sys	0m0.694s
