CBMC version 5.4 64-bit x86_64 macos
Parsing input/c/c_seq/p4.c
Converting
Type-checking p4
file input/c/c_seq/p4.c line 899 function main: function `nondet_uint' is not declared
Generating GOTO Program
Adding CPROVER library (x86_64)
Function Pointer Removal
Partial Inlining
Generic Property Instrumentation
Starting Bounded Model Checking
Unwinding loop main.0 iteration 1 (10 max) file input/c/c_seq/p4.c line 896 function main thread 0
Unwinding loop main.0 iteration 2 (10 max) file input/c/c_seq/p4.c line 896 function main thread 0
Unwinding loop main.0 iteration 3 (10 max) file input/c/c_seq/p4.c line 896 function main thread 0
Unwinding loop main.0 iteration 4 (10 max) file input/c/c_seq/p4.c line 896 function main thread 0
Unwinding loop main.0 iteration 5 (10 max) file input/c/c_seq/p4.c line 896 function main thread 0
Unwinding loop main.0 iteration 6 (10 max) file input/c/c_seq/p4.c line 896 function main thread 0
Unwinding loop main.0 iteration 7 (10 max) file input/c/c_seq/p4.c line 896 function main thread 0
Unwinding loop main.0 iteration 8 (10 max) file input/c/c_seq/p4.c line 896 function main thread 0
Unwinding loop main.0 iteration 9 (10 max) file input/c/c_seq/p4.c line 896 function main thread 0
Not unwinding loop main.0 iteration 10 (10 max) file input/c/c_seq/p4.c line 896 function main thread 0
size of program expression: 20028 steps
simple slicing removed 3 assignments
Generated 21 VCC(s), 21 remaining after simplification
Passing problem to propositional reduction
converting SSA
Running propositional reduction
Post-processing
Solving with Glucose Syrup with simplifier
370345 variables, 1616945 clauses
SAT checker: instance is SATISFIABLE
Runtime decision procedure: 13.116s
Building error trace

Counterexample:

State 48 file input/c/c_seq/p4.c line 871 function init thread 0
----------------------------------------------------
  pc[0]=0 (00000000000000000000000000000000)

State 49 file input/c/c_seq/p4.c line 872 function init thread 0
----------------------------------------------------
  size[0]=0 (00000000000000000000000000000000)

State 50 file input/c/c_seq/p4.c line 874 function init thread 0
----------------------------------------------------
  pc[1]=0 (00000000000000000000000000000000)

State 51 file input/c/c_seq/p4.c line 875 function init thread 0
----------------------------------------------------
  pc[2]=0 (00000000000000000000000000000000)

State 52 file input/c/c_seq/p4.c line 876 function init thread 0
----------------------------------------------------
  pc[3]=0 (00000000000000000000000000000000)

State 53 file input/c/c_seq/p4.c line 877 function init thread 0
----------------------------------------------------
  pc[4]=0 (00000000000000000000000000000000)

State 54 file input/c/c_seq/p4.c line 879 function init thread 0
----------------------------------------------------
  size[0]=4 (00000000000000000000000000000100)

State 55 file input/c/c_seq/p4.c line 880 function init thread 0
----------------------------------------------------
  size[1]=59 (00000000000000000000000000111011)

State 56 file input/c/c_seq/p4.c line 881 function init thread 0
----------------------------------------------------
  size[2]=59 (00000000000000000000000000111011)

State 57 file input/c/c_seq/p4.c line 882 function init thread 0
----------------------------------------------------
  size[3]=59 (00000000000000000000000000111011)

State 58 file input/c/c_seq/p4.c line 883 function init thread 0
----------------------------------------------------
  size[4]=59 (00000000000000000000000000111011)

State 59 file input/c/c_seq/p4.c line 885 function init thread 0
----------------------------------------------------
  t1=0 (00000000000000000000000000000000)

State 60 file input/c/c_seq/p4.c line 885 function init thread 0
----------------------------------------------------
  t2=0 (00000000000000000000000000000000)

State 61 file input/c/c_seq/p4.c line 885 function init thread 0
----------------------------------------------------
  t3=0 (00000000000000000000000000000000)

State 62 file input/c/c_seq/p4.c line 885 function init thread 0
----------------------------------------------------
  t4=0 (00000000000000000000000000000000)

State 63 file input/c/c_seq/p4.c line 885 function init thread 0
----------------------------------------------------
  t5=0 (00000000000000000000000000000000)

State 64 file input/c/c_seq/p4.c line 885 function init thread 0
----------------------------------------------------
  t6=0 (00000000000000000000000000000000)

State 67 file input/c/c_seq/p4.c line 887 function init thread 0
----------------------------------------------------
  t=0 (00000000000000000000000000000000)

State 68 file input/c/c_seq/p4.c line 887 function init thread 0
----------------------------------------------------
  id=1 (00000000000000000000000000000001)

State 69 file input/c/c_seq/p4.c line 20 function create thread 0
----------------------------------------------------
  active[1]=1 (00000000000000000000000000000001)

State 70 file input/c/c_seq/p4.c line 21 function create thread 0
----------------------------------------------------
  t=1 (00000000000000000000000000000001)

State 74 file input/c/c_seq/p4.c line 888 function init thread 0
----------------------------------------------------
  t=0 (00000000000000000000000000000000)

State 75 file input/c/c_seq/p4.c line 888 function init thread 0
----------------------------------------------------
  id=2 (00000000000000000000000000000010)

State 76 file input/c/c_seq/p4.c line 20 function create thread 0
----------------------------------------------------
  active[2]=1 (00000000000000000000000000000001)

State 77 file input/c/c_seq/p4.c line 21 function create thread 0
----------------------------------------------------
  t=2 (00000000000000000000000000000010)

State 81 file input/c/c_seq/p4.c line 889 function init thread 0
----------------------------------------------------
  t=0 (00000000000000000000000000000000)

State 82 file input/c/c_seq/p4.c line 889 function init thread 0
----------------------------------------------------
  id=3 (00000000000000000000000000000011)

State 83 file input/c/c_seq/p4.c line 20 function create thread 0
----------------------------------------------------
  active[3]=1 (00000000000000000000000000000001)

State 84 file input/c/c_seq/p4.c line 21 function create thread 0
----------------------------------------------------
  t=3 (00000000000000000000000000000011)

State 88 file input/c/c_seq/p4.c line 890 function init thread 0
----------------------------------------------------
  t=0 (00000000000000000000000000000000)

State 89 file input/c/c_seq/p4.c line 890 function init thread 0
----------------------------------------------------
  id=4 (00000000000000000000000000000100)

State 90 file input/c/c_seq/p4.c line 20 function create thread 0
----------------------------------------------------
  active[4]=1 (00000000000000000000000000000001)

State 91 file input/c/c_seq/p4.c line 21 function create thread 0
----------------------------------------------------
  t=4 (00000000000000000000000000000100)

State 94 file input/c/c_seq/p4.c line 897 function main thread 0
----------------------------------------------------
  ct=1 (00000000000000000000000000000001)

State 96 file input/c/c_seq/p4.c line 899 function main thread 0
----------------------------------------------------
  cs=0 (00000000000000000000000000000000)

State 165 file input/c/c_seq/p4.c line 902 function main thread 0
----------------------------------------------------
  pc[1]=0 (00000000000000000000000000000000)

State 166 file input/c/c_seq/p4.c line 903 function main thread 0
----------------------------------------------------
  active[1]=1 (00000000000000000000000000000001)

State 167 file input/c/c_seq/p4.c line 906 function main thread 0
----------------------------------------------------
  ct=2 (00000000000000000000000000000010)

State 169 file input/c/c_seq/p4.c line 908 function main thread 0
----------------------------------------------------
  cs=1 (00000000000000000000000000000001)

State 178 file input/c/c_seq/p4.c line 252 function t_two thread 0
----------------------------------------------------
  i=1 (00000000000000000000000000000001)

State 239 file input/c/c_seq/p4.c line 911 function main thread 0
----------------------------------------------------
  pc[2]=1 (00000000000000000000000000000001)

State 240 file input/c/c_seq/p4.c line 912 function main thread 0
----------------------------------------------------
  active[2]=1 (00000000000000000000000000000001)

State 241 file input/c/c_seq/p4.c line 915 function main thread 0
----------------------------------------------------
  ct=3 (00000000000000000000000000000011)

State 243 file input/c/c_seq/p4.c line 917 function main thread 0
----------------------------------------------------
  cs=1 (00000000000000000000000000000001)

State 252 file input/c/c_seq/p4.c line 461 function t_three thread 0
----------------------------------------------------
  i=1 (00000000000000000000000000000001)

State 313 file input/c/c_seq/p4.c line 920 function main thread 0
----------------------------------------------------
  pc[3]=1 (00000000000000000000000000000001)

State 314 file input/c/c_seq/p4.c line 921 function main thread 0
----------------------------------------------------
  active[3]=1 (00000000000000000000000000000001)

State 315 file input/c/c_seq/p4.c line 924 function main thread 0
----------------------------------------------------
  ct=4 (00000000000000000000000000000100)

State 317 file input/c/c_seq/p4.c line 926 function main thread 0
----------------------------------------------------
  cs=0 (00000000000000000000000000000000)

State 386 file input/c/c_seq/p4.c line 929 function main thread 0
----------------------------------------------------
  pc[4]=0 (00000000000000000000000000000000)

State 387 file input/c/c_seq/p4.c line 930 function main thread 0
----------------------------------------------------
  active[4]=1 (00000000000000000000000000000001)

State 390 file input/c/c_seq/p4.c line 897 function main thread 0
----------------------------------------------------
  ct=1 (00000000000000000000000000000001)

State 392 file input/c/c_seq/p4.c line 899 function main thread 0
----------------------------------------------------
  cs=0 (00000000000000000000000000000000)

State 461 file input/c/c_seq/p4.c line 902 function main thread 0
----------------------------------------------------
  pc[1]=0 (00000000000000000000000000000000)

State 462 file input/c/c_seq/p4.c line 903 function main thread 0
----------------------------------------------------
  active[1]=1 (00000000000000000000000000000001)

State 463 file input/c/c_seq/p4.c line 906 function main thread 0
----------------------------------------------------
  ct=2 (00000000000000000000000000000010)

State 465 file input/c/c_seq/p4.c line 908 function main thread 0
----------------------------------------------------
  cs=1 (00000000000000000000000000000001)

State 534 file input/c/c_seq/p4.c line 911 function main thread 0
----------------------------------------------------
  pc[2]=1 (00000000000000000000000000000001)

State 535 file input/c/c_seq/p4.c line 912 function main thread 0
----------------------------------------------------
  active[2]=1 (00000000000000000000000000000001)

State 536 file input/c/c_seq/p4.c line 915 function main thread 0
----------------------------------------------------
  ct=3 (00000000000000000000000000000011)

State 538 file input/c/c_seq/p4.c line 917 function main thread 0
----------------------------------------------------
  cs=1 (00000000000000000000000000000001)

State 607 file input/c/c_seq/p4.c line 920 function main thread 0
----------------------------------------------------
  pc[3]=1 (00000000000000000000000000000001)

State 608 file input/c/c_seq/p4.c line 921 function main thread 0
----------------------------------------------------
  active[3]=1 (00000000000000000000000000000001)

State 609 file input/c/c_seq/p4.c line 924 function main thread 0
----------------------------------------------------
  ct=4 (00000000000000000000000000000100)

State 611 file input/c/c_seq/p4.c line 926 function main thread 0
----------------------------------------------------
  cs=59 (00000000000000000000000000111011)

State 620 file input/c/c_seq/p4.c line 669 function t_four thread 0
----------------------------------------------------
  i=1 (00000000000000000000000000000001)

State 622 file input/c/c_seq/p4.c line 671 function t_four thread 0
----------------------------------------------------
  flag[4]=1 (00000000000000000000000000000001)

State 624 file input/c/c_seq/p4.c line 673 function t_four thread 0
----------------------------------------------------
  turn[1]=4 (00000000000000000000000000000100)

State 626 file input/c/c_seq/p4.c line 677 function t_four thread 0
----------------------------------------------------
  wait=0 (00000000000000000000000000000000)

State 628 file input/c/c_seq/p4.c line 680 function t_four thread 0
----------------------------------------------------
  j=1 (00000000000000000000000000000001)

State 635 file input/c/c_seq/p4.c line 684 function t_four thread 0
----------------------------------------------------
  wait=0 (00000000000000000000000000000000)

State 638 file input/c/c_seq/p4.c line 690 function t_four thread 0
----------------------------------------------------
  j=2 (00000000000000000000000000000010)

State 645 file input/c/c_seq/p4.c line 694 function t_four thread 0
----------------------------------------------------
  wait=0 (00000000000000000000000000000000)

State 648 file input/c/c_seq/p4.c line 700 function t_four thread 0
----------------------------------------------------
  j=3 (00000000000000000000000000000011)

State 655 file input/c/c_seq/p4.c line 704 function t_four thread 0
----------------------------------------------------
  wait=0 (00000000000000000000000000000000)

State 658 file input/c/c_seq/p4.c line 710 function t_four thread 0
----------------------------------------------------
  j=4 (00000000000000000000000000000100)

State 668 file input/c/c_seq/p4.c line 725 function t_four thread 0
----------------------------------------------------
  i=2 (00000000000000000000000000000010)

State 670 file input/c/c_seq/p4.c line 727 function t_four thread 0
----------------------------------------------------
  flag[4]=2 (00000000000000000000000000000010)

State 672 file input/c/c_seq/p4.c line 729 function t_four thread 0
----------------------------------------------------
  turn[2]=4 (00000000000000000000000000000100)

State 674 file input/c/c_seq/p4.c line 733 function t_four thread 0
----------------------------------------------------
  wait=0 (00000000000000000000000000000000)

State 676 file input/c/c_seq/p4.c line 736 function t_four thread 0
----------------------------------------------------
  j=1 (00000000000000000000000000000001)

State 683 file input/c/c_seq/p4.c line 740 function t_four thread 0
----------------------------------------------------
  wait=0 (00000000000000000000000000000000)

State 686 file input/c/c_seq/p4.c line 746 function t_four thread 0
----------------------------------------------------
  j=2 (00000000000000000000000000000010)

State 693 file input/c/c_seq/p4.c line 750 function t_four thread 0
----------------------------------------------------
  wait=0 (00000000000000000000000000000000)

State 696 file input/c/c_seq/p4.c line 756 function t_four thread 0
----------------------------------------------------
  j=3 (00000000000000000000000000000011)

State 703 file input/c/c_seq/p4.c line 760 function t_four thread 0
----------------------------------------------------
  wait=0 (00000000000000000000000000000000)

State 706 file input/c/c_seq/p4.c line 766 function t_four thread 0
----------------------------------------------------
  j=4 (00000000000000000000000000000100)

State 716 file input/c/c_seq/p4.c line 783 function t_four thread 0
----------------------------------------------------
  i=3 (00000000000000000000000000000011)

State 718 file input/c/c_seq/p4.c line 785 function t_four thread 0
----------------------------------------------------
  flag[4]=3 (00000000000000000000000000000011)

State 720 file input/c/c_seq/p4.c line 787 function t_four thread 0
----------------------------------------------------
  turn[3]=4 (00000000000000000000000000000100)

State 722 file input/c/c_seq/p4.c line 791 function t_four thread 0
----------------------------------------------------
  wait=0 (00000000000000000000000000000000)

State 724 file input/c/c_seq/p4.c line 794 function t_four thread 0
----------------------------------------------------
  j=1 (00000000000000000000000000000001)

State 731 file input/c/c_seq/p4.c line 798 function t_four thread 0
----------------------------------------------------
  wait=0 (00000000000000000000000000000000)

State 734 file input/c/c_seq/p4.c line 804 function t_four thread 0
----------------------------------------------------
  j=2 (00000000000000000000000000000010)

State 741 file input/c/c_seq/p4.c line 808 function t_four thread 0
----------------------------------------------------
  wait=0 (00000000000000000000000000000000)

State 744 file input/c/c_seq/p4.c line 814 function t_four thread 0
----------------------------------------------------
  j=3 (00000000000000000000000000000011)

State 751 file input/c/c_seq/p4.c line 818 function t_four thread 0
----------------------------------------------------
  wait=0 (00000000000000000000000000000000)

State 754 file input/c/c_seq/p4.c line 824 function t_four thread 0
----------------------------------------------------
  j=4 (00000000000000000000000000000100)

State 767 file input/c/c_seq/p4.c line 854 function t_four thread 0
----------------------------------------------------
  x_tmp=0 (00000000000000000000000000000000)

State 769 file input/c/c_seq/p4.c line 856 function t_four thread 0
----------------------------------------------------
  x_tmp=-1 (11111111111111111111111111111111)

State 771 file input/c/c_seq/p4.c line 858 function t_four thread 0
----------------------------------------------------
  x=-1 (11111111111111111111111111111111)

State 774 file input/c/c_seq/p4.c line 864 function t_four thread 0
----------------------------------------------------
  flag[4]=-1 (11111111111111111111111111111111)

State 777 file input/c/c_seq/p4.c line 929 function main thread 0
----------------------------------------------------
  pc[4]=59 (00000000000000000000000000111011)

State 778 file input/c/c_seq/p4.c line 930 function main thread 0
----------------------------------------------------
  active[4]=0 (00000000000000000000000000000000)

State 781 file input/c/c_seq/p4.c line 897 function main thread 0
----------------------------------------------------
  ct=1 (00000000000000000000000000000001)

State 783 file input/c/c_seq/p4.c line 899 function main thread 0
----------------------------------------------------
  cs=59 (00000000000000000000000000111011)

State 792 file input/c/c_seq/p4.c line 37 function t_one thread 0
----------------------------------------------------
  i=1 (00000000000000000000000000000001)

State 794 file input/c/c_seq/p4.c line 39 function t_one thread 0
----------------------------------------------------
  flag[1]=1 (00000000000000000000000000000001)

State 796 file input/c/c_seq/p4.c line 41 function t_one thread 0
----------------------------------------------------
  turn[1]=1 (00000000000000000000000000000001)

State 798 file input/c/c_seq/p4.c line 45 function t_one thread 0
----------------------------------------------------
  wait=0 (00000000000000000000000000000000)

State 800 file input/c/c_seq/p4.c line 48 function t_one thread 0
----------------------------------------------------
  j=1 (00000000000000000000000000000001)

State 805 file input/c/c_seq/p4.c line 58 function t_one thread 0
----------------------------------------------------
  j=2 (00000000000000000000000000000010)

State 812 file input/c/c_seq/p4.c line 62 function t_one thread 0
----------------------------------------------------
  wait=0 (00000000000000000000000000000000)

State 815 file input/c/c_seq/p4.c line 68 function t_one thread 0
----------------------------------------------------
  j=3 (00000000000000000000000000000011)

State 822 file input/c/c_seq/p4.c line 72 function t_one thread 0
----------------------------------------------------
  wait=0 (00000000000000000000000000000000)

State 825 file input/c/c_seq/p4.c line 78 function t_one thread 0
----------------------------------------------------
  j=4 (00000000000000000000000000000100)

State 832 file input/c/c_seq/p4.c line 82 function t_one thread 0
----------------------------------------------------
  wait=0 (00000000000000000000000000000000)

State 837 file input/c/c_seq/p4.c line 97 function t_one thread 0
----------------------------------------------------
  i=2 (00000000000000000000000000000010)

State 839 file input/c/c_seq/p4.c line 99 function t_one thread 0
----------------------------------------------------
  flag[1]=2 (00000000000000000000000000000010)

State 841 file input/c/c_seq/p4.c line 101 function t_one thread 0
----------------------------------------------------
  turn[2]=1 (00000000000000000000000000000001)

State 843 file input/c/c_seq/p4.c line 105 function t_one thread 0
----------------------------------------------------
  wait=0 (00000000000000000000000000000000)

State 845 file input/c/c_seq/p4.c line 108 function t_one thread 0
----------------------------------------------------
  j=1 (00000000000000000000000000000001)

State 850 file input/c/c_seq/p4.c line 118 function t_one thread 0
----------------------------------------------------
  j=2 (00000000000000000000000000000010)

State 857 file input/c/c_seq/p4.c line 122 function t_one thread 0
----------------------------------------------------
  wait=0 (00000000000000000000000000000000)

State 860 file input/c/c_seq/p4.c line 128 function t_one thread 0
----------------------------------------------------
  j=3 (00000000000000000000000000000011)

State 867 file input/c/c_seq/p4.c line 132 function t_one thread 0
----------------------------------------------------
  wait=0 (00000000000000000000000000000000)

State 870 file input/c/c_seq/p4.c line 138 function t_one thread 0
----------------------------------------------------
  j=4 (00000000000000000000000000000100)

State 877 file input/c/c_seq/p4.c line 142 function t_one thread 0
----------------------------------------------------
  wait=0 (00000000000000000000000000000000)

State 882 file input/c/c_seq/p4.c line 157 function t_one thread 0
----------------------------------------------------
  i=3 (00000000000000000000000000000011)

State 884 file input/c/c_seq/p4.c line 159 function t_one thread 0
----------------------------------------------------
  flag[1]=3 (00000000000000000000000000000011)

State 886 file input/c/c_seq/p4.c line 161 function t_one thread 0
----------------------------------------------------
  turn[3]=1 (00000000000000000000000000000001)

State 888 file input/c/c_seq/p4.c line 165 function t_one thread 0
----------------------------------------------------
  wait=0 (00000000000000000000000000000000)

State 890 file input/c/c_seq/p4.c line 168 function t_one thread 0
----------------------------------------------------
  j=1 (00000000000000000000000000000001)

State 895 file input/c/c_seq/p4.c line 178 function t_one thread 0
----------------------------------------------------
  j=2 (00000000000000000000000000000010)

State 902 file input/c/c_seq/p4.c line 182 function t_one thread 0
----------------------------------------------------
  wait=0 (00000000000000000000000000000000)

State 905 file input/c/c_seq/p4.c line 188 function t_one thread 0
----------------------------------------------------
  j=3 (00000000000000000000000000000011)

State 912 file input/c/c_seq/p4.c line 192 function t_one thread 0
----------------------------------------------------
  wait=0 (00000000000000000000000000000000)

State 915 file input/c/c_seq/p4.c line 198 function t_one thread 0
----------------------------------------------------
  j=4 (00000000000000000000000000000100)

State 922 file input/c/c_seq/p4.c line 202 function t_one thread 0
----------------------------------------------------
  wait=0 (00000000000000000000000000000000)

State 929 file input/c/c_seq/p4.c line 221 function t_one thread 0
----------------------------------------------------
  x_tmp=-1 (11111111111111111111111111111111)

State 931 file input/c/c_seq/p4.c line 223 function t_one thread 0
----------------------------------------------------
  x_tmp=0 (00000000000000000000000000000000)

State 933 file input/c/c_seq/p4.c line 225 function t_one thread 0
----------------------------------------------------
  x=0 (00000000000000000000000000000000)

State 937 file input/c/c_seq/p4.c line 240 function t_one thread 0
----------------------------------------------------
  flag[1]=-1 (11111111111111111111111111111111)

State 940 file input/c/c_seq/p4.c line 902 function main thread 0
----------------------------------------------------
  pc[1]=59 (00000000000000000000000000111011)

State 941 file input/c/c_seq/p4.c line 903 function main thread 0
----------------------------------------------------
  active[1]=0 (00000000000000000000000000000000)

State 942 file input/c/c_seq/p4.c line 906 function main thread 0
----------------------------------------------------
  ct=2 (00000000000000000000000000000010)

State 944 file input/c/c_seq/p4.c line 908 function main thread 0
----------------------------------------------------
  cs=59 (00000000000000000000000000111011)

State 954 file input/c/c_seq/p4.c line 254 function t_two thread 0
----------------------------------------------------
  flag[2]=1 (00000000000000000000000000000001)

State 956 file input/c/c_seq/p4.c line 256 function t_two thread 0
----------------------------------------------------
  turn[1]=2 (00000000000000000000000000000010)

State 958 file input/c/c_seq/p4.c line 260 function t_two thread 0
----------------------------------------------------
  wait=0 (00000000000000000000000000000000)

State 960 file input/c/c_seq/p4.c line 263 function t_two thread 0
----------------------------------------------------
  j=1 (00000000000000000000000000000001)

State 967 file input/c/c_seq/p4.c line 267 function t_two thread 0
----------------------------------------------------
  wait=0 (00000000000000000000000000000000)

State 970 file input/c/c_seq/p4.c line 273 function t_two thread 0
----------------------------------------------------
  j=2 (00000000000000000000000000000010)

State 975 file input/c/c_seq/p4.c line 283 function t_two thread 0
----------------------------------------------------
  j=3 (00000000000000000000000000000011)

State 982 file input/c/c_seq/p4.c line 287 function t_two thread 0
----------------------------------------------------
  wait=0 (00000000000000000000000000000000)

State 985 file input/c/c_seq/p4.c line 293 function t_two thread 0
----------------------------------------------------
  j=4 (00000000000000000000000000000100)

State 992 file input/c/c_seq/p4.c line 297 function t_two thread 0
----------------------------------------------------
  wait=0 (00000000000000000000000000000000)

State 1000 file input/c/c_seq/p4.c line 310 function t_two thread 0
----------------------------------------------------
  i=2 (00000000000000000000000000000010)

State 1002 file input/c/c_seq/p4.c line 312 function t_two thread 0
----------------------------------------------------
  flag[2]=2 (00000000000000000000000000000010)

State 1004 file input/c/c_seq/p4.c line 314 function t_two thread 0
----------------------------------------------------
  turn[2]=2 (00000000000000000000000000000010)

State 1006 file input/c/c_seq/p4.c line 318 function t_two thread 0
----------------------------------------------------
  wait=0 (00000000000000000000000000000000)

State 1008 file input/c/c_seq/p4.c line 321 function t_two thread 0
----------------------------------------------------
  j=1 (00000000000000000000000000000001)

State 1015 file input/c/c_seq/p4.c line 325 function t_two thread 0
----------------------------------------------------
  wait=0 (00000000000000000000000000000000)

State 1018 file input/c/c_seq/p4.c line 331 function t_two thread 0
----------------------------------------------------
  j=2 (00000000000000000000000000000010)

State 1023 file input/c/c_seq/p4.c line 341 function t_two thread 0
----------------------------------------------------
  j=3 (00000000000000000000000000000011)

State 1030 file input/c/c_seq/p4.c line 345 function t_two thread 0
----------------------------------------------------
  wait=0 (00000000000000000000000000000000)

State 1033 file input/c/c_seq/p4.c line 351 function t_two thread 0
----------------------------------------------------
  j=4 (00000000000000000000000000000100)

State 1040 file input/c/c_seq/p4.c line 355 function t_two thread 0
----------------------------------------------------
  wait=0 (00000000000000000000000000000000)

State 1048 file input/c/c_seq/p4.c line 368 function t_two thread 0
----------------------------------------------------
  i=3 (00000000000000000000000000000011)

State 1050 file input/c/c_seq/p4.c line 370 function t_two thread 0
----------------------------------------------------
  flag[2]=3 (00000000000000000000000000000011)

State 1052 file input/c/c_seq/p4.c line 372 function t_two thread 0
----------------------------------------------------
  turn[3]=2 (00000000000000000000000000000010)

State 1054 file input/c/c_seq/p4.c line 376 function t_two thread 0
----------------------------------------------------
  wait=0 (00000000000000000000000000000000)

State 1056 file input/c/c_seq/p4.c line 379 function t_two thread 0
----------------------------------------------------
  j=1 (00000000000000000000000000000001)

State 1063 file input/c/c_seq/p4.c line 383 function t_two thread 0
----------------------------------------------------
  wait=0 (00000000000000000000000000000000)

State 1066 file input/c/c_seq/p4.c line 389 function t_two thread 0
----------------------------------------------------
  j=2 (00000000000000000000000000000010)

State 1071 file input/c/c_seq/p4.c line 399 function t_two thread 0
----------------------------------------------------
  j=3 (00000000000000000000000000000011)

State 1078 file input/c/c_seq/p4.c line 403 function t_two thread 0
----------------------------------------------------
  wait=0 (00000000000000000000000000000000)

State 1081 file input/c/c_seq/p4.c line 409 function t_two thread 0
----------------------------------------------------
  j=4 (00000000000000000000000000000100)

State 1088 file input/c/c_seq/p4.c line 413 function t_two thread 0
----------------------------------------------------
  wait=0 (00000000000000000000000000000000)

State 1099 file input/c/c_seq/p4.c line 439 function t_two thread 0
----------------------------------------------------
  x_tmp=0 (00000000000000000000000000000000)

State 1101 file input/c/c_seq/p4.c line 441 function t_two thread 0
----------------------------------------------------
  x_tmp=-1 (11111111111111111111111111111111)

State 1103 file input/c/c_seq/p4.c line 443 function t_two thread 0
----------------------------------------------------
  x=-1 (11111111111111111111111111111111)

State 1106 file input/c/c_seq/p4.c line 449 function t_two thread 0
----------------------------------------------------
  flag[2]=-1 (11111111111111111111111111111111)

State 1109 file input/c/c_seq/p4.c line 911 function main thread 0
----------------------------------------------------
  pc[2]=59 (00000000000000000000000000111011)

State 1110 file input/c/c_seq/p4.c line 912 function main thread 0
----------------------------------------------------
  active[2]=0 (00000000000000000000000000000000)

State 1111 file input/c/c_seq/p4.c line 915 function main thread 0
----------------------------------------------------
  ct=3 (00000000000000000000000000000011)

State 1113 file input/c/c_seq/p4.c line 917 function main thread 0
----------------------------------------------------
  cs=27 (00000000000000000000000000011011)

State 1123 file input/c/c_seq/p4.c line 463 function t_three thread 0
----------------------------------------------------
  flag[3]=1 (00000000000000000000000000000001)

State 1125 file input/c/c_seq/p4.c line 465 function t_three thread 0
----------------------------------------------------
  turn[1]=3 (00000000000000000000000000000011)

State 1127 file input/c/c_seq/p4.c line 469 function t_three thread 0
----------------------------------------------------
  wait=0 (00000000000000000000000000000000)

State 1129 file input/c/c_seq/p4.c line 472 function t_three thread 0
----------------------------------------------------
  j=1 (00000000000000000000000000000001)

State 1136 file input/c/c_seq/p4.c line 476 function t_three thread 0
----------------------------------------------------
  wait=0 (00000000000000000000000000000000)

State 1139 file input/c/c_seq/p4.c line 482 function t_three thread 0
----------------------------------------------------
  j=2 (00000000000000000000000000000010)

State 1146 file input/c/c_seq/p4.c line 486 function t_three thread 0
----------------------------------------------------
  wait=0 (00000000000000000000000000000000)

State 1149 file input/c/c_seq/p4.c line 492 function t_three thread 0
----------------------------------------------------
  j=3 (00000000000000000000000000000011)

State 1154 file input/c/c_seq/p4.c line 502 function t_three thread 0
----------------------------------------------------
  j=4 (00000000000000000000000000000100)

State 1161 file input/c/c_seq/p4.c line 506 function t_three thread 0
----------------------------------------------------
  wait=0 (00000000000000000000000000000000)

State 1169 file input/c/c_seq/p4.c line 518 function t_three thread 0
----------------------------------------------------
  i=2 (00000000000000000000000000000010)

State 1171 file input/c/c_seq/p4.c line 520 function t_three thread 0
----------------------------------------------------
  flag[3]=2 (00000000000000000000000000000010)

State 1173 file input/c/c_seq/p4.c line 522 function t_three thread 0
----------------------------------------------------
  turn[2]=3 (00000000000000000000000000000011)

State 1175 file input/c/c_seq/p4.c line 526 function t_three thread 0
----------------------------------------------------
  wait=0 (00000000000000000000000000000000)

State 1177 file input/c/c_seq/p4.c line 529 function t_three thread 0
----------------------------------------------------
  j=1 (00000000000000000000000000000001)

State 1184 file input/c/c_seq/p4.c line 533 function t_three thread 0
----------------------------------------------------
  wait=0 (00000000000000000000000000000000)

State 1187 file input/c/c_seq/p4.c line 539 function t_three thread 0
----------------------------------------------------
  j=2 (00000000000000000000000000000010)

State 1194 file input/c/c_seq/p4.c line 543 function t_three thread 0
----------------------------------------------------
  wait=0 (00000000000000000000000000000000)

State 1230 file input/c/c_seq/p4.c line 920 function main thread 0
----------------------------------------------------
  pc[3]=27 (00000000000000000000000000011011)

State 1231 file input/c/c_seq/p4.c line 921 function main thread 0
----------------------------------------------------
  active[3]=1 (00000000000000000000000000000001)

State 1232 file input/c/c_seq/p4.c line 924 function main thread 0
----------------------------------------------------
  ct=4 (00000000000000000000000000000100)

State 1238 file input/c/c_seq/p4.c line 897 function main thread 0
----------------------------------------------------
  ct=1 (00000000000000000000000000000001)

State 1240 file input/c/c_seq/p4.c line 906 function main thread 0
----------------------------------------------------
  ct=2 (00000000000000000000000000000010)

State 1242 file input/c/c_seq/p4.c line 915 function main thread 0
----------------------------------------------------
  ct=3 (00000000000000000000000000000011)

State 1244 file input/c/c_seq/p4.c line 917 function main thread 0
----------------------------------------------------
  cs=27 (00000000000000000000000000011011)

State 1313 file input/c/c_seq/p4.c line 920 function main thread 0
----------------------------------------------------
  pc[3]=27 (00000000000000000000000000011011)

State 1314 file input/c/c_seq/p4.c line 921 function main thread 0
----------------------------------------------------
  active[3]=1 (00000000000000000000000000000001)

State 1315 file input/c/c_seq/p4.c line 924 function main thread 0
----------------------------------------------------
  ct=4 (00000000000000000000000000000100)

State 1321 file input/c/c_seq/p4.c line 897 function main thread 0
----------------------------------------------------
  ct=1 (00000000000000000000000000000001)

State 1323 file input/c/c_seq/p4.c line 906 function main thread 0
----------------------------------------------------
  ct=2 (00000000000000000000000000000010)

State 1325 file input/c/c_seq/p4.c line 915 function main thread 0
----------------------------------------------------
  ct=3 (00000000000000000000000000000011)

State 1327 file input/c/c_seq/p4.c line 917 function main thread 0
----------------------------------------------------
  cs=47 (00000000000000000000000000101111)

State 1363 file input/c/c_seq/p4.c line 549 function t_three thread 0
----------------------------------------------------
  j=3 (00000000000000000000000000000011)

State 1368 file input/c/c_seq/p4.c line 559 function t_three thread 0
----------------------------------------------------
  j=4 (00000000000000000000000000000100)

State 1375 file input/c/c_seq/p4.c line 563 function t_three thread 0
----------------------------------------------------
  wait=0 (00000000000000000000000000000000)

State 1383 file input/c/c_seq/p4.c line 576 function t_three thread 0
----------------------------------------------------
  i=3 (00000000000000000000000000000011)

State 1385 file input/c/c_seq/p4.c line 578 function t_three thread 0
----------------------------------------------------
  flag[3]=3 (00000000000000000000000000000011)

State 1387 file input/c/c_seq/p4.c line 580 function t_three thread 0
----------------------------------------------------
  turn[3]=3 (00000000000000000000000000000011)

State 1389 file input/c/c_seq/p4.c line 584 function t_three thread 0
----------------------------------------------------
  wait=0 (00000000000000000000000000000000)

State 1391 file input/c/c_seq/p4.c line 587 function t_three thread 0
----------------------------------------------------
  j=1 (00000000000000000000000000000001)

State 1398 file input/c/c_seq/p4.c line 591 function t_three thread 0
----------------------------------------------------
  wait=0 (00000000000000000000000000000000)

State 1401 file input/c/c_seq/p4.c line 597 function t_three thread 0
----------------------------------------------------
  j=2 (00000000000000000000000000000010)

State 1408 file input/c/c_seq/p4.c line 601 function t_three thread 0
----------------------------------------------------
  wait=0 (00000000000000000000000000000000)

State 1411 file input/c/c_seq/p4.c line 607 function t_three thread 0
----------------------------------------------------
  j=3 (00000000000000000000000000000011)

State 1429 file input/c/c_seq/p4.c line 920 function main thread 0
----------------------------------------------------
  pc[3]=47 (00000000000000000000000000101111)

State 1430 file input/c/c_seq/p4.c line 921 function main thread 0
----------------------------------------------------
  active[3]=1 (00000000000000000000000000000001)

State 1431 file input/c/c_seq/p4.c line 924 function main thread 0
----------------------------------------------------
  ct=4 (00000000000000000000000000000100)

State 1437 file input/c/c_seq/p4.c line 897 function main thread 0
----------------------------------------------------
  ct=1 (00000000000000000000000000000001)

State 1439 file input/c/c_seq/p4.c line 906 function main thread 0
----------------------------------------------------
  ct=2 (00000000000000000000000000000010)

State 1441 file input/c/c_seq/p4.c line 915 function main thread 0
----------------------------------------------------
  ct=3 (00000000000000000000000000000011)

State 1443 file input/c/c_seq/p4.c line 917 function main thread 0
----------------------------------------------------
  cs=59 (00000000000000000000000000111011)

State 1499 file input/c/c_seq/p4.c line 617 function t_three thread 0
----------------------------------------------------
  j=4 (00000000000000000000000000000100)

State 1506 file input/c/c_seq/p4.c line 621 function t_three thread 0
----------------------------------------------------
  wait=0 (00000000000000000000000000000000)

State 1516 file input/c/c_seq/p4.c line 638 function t_three thread 0
----------------------------------------------------
  x_tmp=-1 (11111111111111111111111111111111)

State 1518 file input/c/c_seq/p4.c line 640 function t_three thread 0
----------------------------------------------------
  x_tmp=0 (00000000000000000000000000000000)

State 1520 file input/c/c_seq/p4.c line 642 function t_three thread 0
----------------------------------------------------
  x=0 (00000000000000000000000000000000)

State 1524 file input/c/c_seq/p4.c line 657 function t_three thread 0
----------------------------------------------------
  flag[3]=-1 (11111111111111111111111111111111)

State 1527 file input/c/c_seq/p4.c line 920 function main thread 0
----------------------------------------------------
  pc[3]=59 (00000000000000000000000000111011)

State 1528 file input/c/c_seq/p4.c line 921 function main thread 0
----------------------------------------------------
  active[3]=0 (00000000000000000000000000000000)

State 1529 file input/c/c_seq/p4.c line 924 function main thread 0
----------------------------------------------------
  ct=4 (00000000000000000000000000000100)

Violated property:
  file input/c/c_seq/p4.c line 935 function main
  OK
  0 != 0

VERIFICATION FAILED

real	0m36.077s
user	0m35.741s
sys	0m0.314s
