CBMC version 5.4 64-bit x86_64 macos
Parsing input/c/c_seq/p4.c
Converting
Type-checking p4
file input/c/c_seq/p4.c line 899 function main: function `nondet_uint' is not declared
Generating GOTO Program
Adding CPROVER library (x86_64)
Function Pointer Removal
Partial Inlining
Generic Property Instrumentation
Starting Bounded Model Checking
Unwinding loop main.0 iteration 1 (4 max) file input/c/c_seq/p4.c line 896 function main thread 0
Unwinding loop main.0 iteration 2 (4 max) file input/c/c_seq/p4.c line 896 function main thread 0
Unwinding loop main.0 iteration 3 (4 max) file input/c/c_seq/p4.c line 896 function main thread 0
Not unwinding loop main.0 iteration 4 (4 max) file input/c/c_seq/p4.c line 896 function main thread 0
size of program expression: 8082 steps
simple slicing removed 3 assignments
Generated 9 VCC(s), 9 remaining after simplification
Passing problem to propositional reduction
converting SSA
Running propositional reduction
Post-processing
Solving with MiniSAT 2.2.1 with simplifier
141037 variables, 584168 clauses
SAT checker: instance is SATISFIABLE
Runtime decision procedure: 2.621s
Building error trace

Counterexample:

State 48 file input/c/c_seq/p4.c line 871 function init thread 0
----------------------------------------------------
  pc[0]=0 (00000000000000000000000000000000)

State 49 file input/c/c_seq/p4.c line 872 function init thread 0
----------------------------------------------------
  size[0]=0 (00000000000000000000000000000000)

State 50 file input/c/c_seq/p4.c line 874 function init thread 0
----------------------------------------------------
  pc[1]=0 (00000000000000000000000000000000)

State 51 file input/c/c_seq/p4.c line 875 function init thread 0
----------------------------------------------------
  pc[2]=0 (00000000000000000000000000000000)

State 52 file input/c/c_seq/p4.c line 876 function init thread 0
----------------------------------------------------
  pc[3]=0 (00000000000000000000000000000000)

State 53 file input/c/c_seq/p4.c line 877 function init thread 0
----------------------------------------------------
  pc[4]=0 (00000000000000000000000000000000)

State 54 file input/c/c_seq/p4.c line 879 function init thread 0
----------------------------------------------------
  size[0]=4 (00000000000000000000000000000100)

State 55 file input/c/c_seq/p4.c line 880 function init thread 0
----------------------------------------------------
  size[1]=59 (00000000000000000000000000111011)

State 56 file input/c/c_seq/p4.c line 881 function init thread 0
----------------------------------------------------
  size[2]=59 (00000000000000000000000000111011)

State 57 file input/c/c_seq/p4.c line 882 function init thread 0
----------------------------------------------------
  size[3]=59 (00000000000000000000000000111011)

State 58 file input/c/c_seq/p4.c line 883 function init thread 0
----------------------------------------------------
  size[4]=59 (00000000000000000000000000111011)

State 59 file input/c/c_seq/p4.c line 885 function init thread 0
----------------------------------------------------
  t1=0 (00000000000000000000000000000000)

State 60 file input/c/c_seq/p4.c line 885 function init thread 0
----------------------------------------------------
  t2=0 (00000000000000000000000000000000)

State 61 file input/c/c_seq/p4.c line 885 function init thread 0
----------------------------------------------------
  t3=0 (00000000000000000000000000000000)

State 62 file input/c/c_seq/p4.c line 885 function init thread 0
----------------------------------------------------
  t4=0 (00000000000000000000000000000000)

State 63 file input/c/c_seq/p4.c line 885 function init thread 0
----------------------------------------------------
  t5=0 (00000000000000000000000000000000)

State 64 file input/c/c_seq/p4.c line 885 function init thread 0
----------------------------------------------------
  t6=0 (00000000000000000000000000000000)

State 67 file input/c/c_seq/p4.c line 887 function init thread 0
----------------------------------------------------
  t=0 (00000000000000000000000000000000)

State 68 file input/c/c_seq/p4.c line 887 function init thread 0
----------------------------------------------------
  id=1 (00000000000000000000000000000001)

State 69 file input/c/c_seq/p4.c line 20 function create thread 0
----------------------------------------------------
  active[1]=1 (00000000000000000000000000000001)

State 70 file input/c/c_seq/p4.c line 21 function create thread 0
----------------------------------------------------
  t=1 (00000000000000000000000000000001)

State 74 file input/c/c_seq/p4.c line 888 function init thread 0
----------------------------------------------------
  t=0 (00000000000000000000000000000000)

State 75 file input/c/c_seq/p4.c line 888 function init thread 0
----------------------------------------------------
  id=2 (00000000000000000000000000000010)

State 76 file input/c/c_seq/p4.c line 20 function create thread 0
----------------------------------------------------
  active[2]=1 (00000000000000000000000000000001)

State 77 file input/c/c_seq/p4.c line 21 function create thread 0
----------------------------------------------------
  t=2 (00000000000000000000000000000010)

State 81 file input/c/c_seq/p4.c line 889 function init thread 0
----------------------------------------------------
  t=0 (00000000000000000000000000000000)

State 82 file input/c/c_seq/p4.c line 889 function init thread 0
----------------------------------------------------
  id=3 (00000000000000000000000000000011)

State 83 file input/c/c_seq/p4.c line 20 function create thread 0
----------------------------------------------------
  active[3]=1 (00000000000000000000000000000001)

State 84 file input/c/c_seq/p4.c line 21 function create thread 0
----------------------------------------------------
  t=3 (00000000000000000000000000000011)

State 88 file input/c/c_seq/p4.c line 890 function init thread 0
----------------------------------------------------
  t=0 (00000000000000000000000000000000)

State 89 file input/c/c_seq/p4.c line 890 function init thread 0
----------------------------------------------------
  id=4 (00000000000000000000000000000100)

State 90 file input/c/c_seq/p4.c line 20 function create thread 0
----------------------------------------------------
  active[4]=1 (00000000000000000000000000000001)

State 91 file input/c/c_seq/p4.c line 21 function create thread 0
----------------------------------------------------
  t=4 (00000000000000000000000000000100)

State 94 file input/c/c_seq/p4.c line 897 function main thread 0
----------------------------------------------------
  ct=1 (00000000000000000000000000000001)

State 96 file input/c/c_seq/p4.c line 899 function main thread 0
----------------------------------------------------
  cs=1 (00000000000000000000000000000001)

State 105 file input/c/c_seq/p4.c line 37 function t_one thread 0
----------------------------------------------------
  i=1 (00000000000000000000000000000001)

State 166 file input/c/c_seq/p4.c line 902 function main thread 0
----------------------------------------------------
  pc[1]=1 (00000000000000000000000000000001)

State 167 file input/c/c_seq/p4.c line 903 function main thread 0
----------------------------------------------------
  active[1]=1 (00000000000000000000000000000001)

State 168 file input/c/c_seq/p4.c line 906 function main thread 0
----------------------------------------------------
  ct=2 (00000000000000000000000000000010)

State 170 file input/c/c_seq/p4.c line 908 function main thread 0
----------------------------------------------------
  cs=59 (00000000000000000000000000111011)

State 179 file input/c/c_seq/p4.c line 252 function t_two thread 0
----------------------------------------------------
  i=1 (00000000000000000000000000000001)

State 181 file input/c/c_seq/p4.c line 254 function t_two thread 0
----------------------------------------------------
  flag[2]=1 (00000000000000000000000000000001)

State 183 file input/c/c_seq/p4.c line 256 function t_two thread 0
----------------------------------------------------
  turn[1]=2 (00000000000000000000000000000010)

State 185 file input/c/c_seq/p4.c line 260 function t_two thread 0
----------------------------------------------------
  wait=0 (00000000000000000000000000000000)

State 187 file input/c/c_seq/p4.c line 263 function t_two thread 0
----------------------------------------------------
  j=1 (00000000000000000000000000000001)

State 194 file input/c/c_seq/p4.c line 267 function t_two thread 0
----------------------------------------------------
  wait=0 (00000000000000000000000000000000)

State 197 file input/c/c_seq/p4.c line 273 function t_two thread 0
----------------------------------------------------
  j=2 (00000000000000000000000000000010)

State 202 file input/c/c_seq/p4.c line 283 function t_two thread 0
----------------------------------------------------
  j=3 (00000000000000000000000000000011)

State 209 file input/c/c_seq/p4.c line 287 function t_two thread 0
----------------------------------------------------
  wait=0 (00000000000000000000000000000000)

State 212 file input/c/c_seq/p4.c line 293 function t_two thread 0
----------------------------------------------------
  j=4 (00000000000000000000000000000100)

State 219 file input/c/c_seq/p4.c line 297 function t_two thread 0
----------------------------------------------------
  wait=0 (00000000000000000000000000000000)

State 227 file input/c/c_seq/p4.c line 310 function t_two thread 0
----------------------------------------------------
  i=2 (00000000000000000000000000000010)

State 229 file input/c/c_seq/p4.c line 312 function t_two thread 0
----------------------------------------------------
  flag[2]=2 (00000000000000000000000000000010)

State 231 file input/c/c_seq/p4.c line 314 function t_two thread 0
----------------------------------------------------
  turn[2]=2 (00000000000000000000000000000010)

State 233 file input/c/c_seq/p4.c line 318 function t_two thread 0
----------------------------------------------------
  wait=0 (00000000000000000000000000000000)

State 235 file input/c/c_seq/p4.c line 321 function t_two thread 0
----------------------------------------------------
  j=1 (00000000000000000000000000000001)

State 242 file input/c/c_seq/p4.c line 325 function t_two thread 0
----------------------------------------------------
  wait=0 (00000000000000000000000000000000)

State 245 file input/c/c_seq/p4.c line 331 function t_two thread 0
----------------------------------------------------
  j=2 (00000000000000000000000000000010)

State 250 file input/c/c_seq/p4.c line 341 function t_two thread 0
----------------------------------------------------
  j=3 (00000000000000000000000000000011)

State 257 file input/c/c_seq/p4.c line 345 function t_two thread 0
----------------------------------------------------
  wait=0 (00000000000000000000000000000000)

State 260 file input/c/c_seq/p4.c line 351 function t_two thread 0
----------------------------------------------------
  j=4 (00000000000000000000000000000100)

State 267 file input/c/c_seq/p4.c line 355 function t_two thread 0
----------------------------------------------------
  wait=0 (00000000000000000000000000000000)

State 275 file input/c/c_seq/p4.c line 368 function t_two thread 0
----------------------------------------------------
  i=3 (00000000000000000000000000000011)

State 277 file input/c/c_seq/p4.c line 370 function t_two thread 0
----------------------------------------------------
  flag[2]=3 (00000000000000000000000000000011)

State 279 file input/c/c_seq/p4.c line 372 function t_two thread 0
----------------------------------------------------
  turn[3]=2 (00000000000000000000000000000010)

State 281 file input/c/c_seq/p4.c line 376 function t_two thread 0
----------------------------------------------------
  wait=0 (00000000000000000000000000000000)

State 283 file input/c/c_seq/p4.c line 379 function t_two thread 0
----------------------------------------------------
  j=1 (00000000000000000000000000000001)

State 290 file input/c/c_seq/p4.c line 383 function t_two thread 0
----------------------------------------------------
  wait=0 (00000000000000000000000000000000)

State 293 file input/c/c_seq/p4.c line 389 function t_two thread 0
----------------------------------------------------
  j=2 (00000000000000000000000000000010)

State 298 file input/c/c_seq/p4.c line 399 function t_two thread 0
----------------------------------------------------
  j=3 (00000000000000000000000000000011)

State 305 file input/c/c_seq/p4.c line 403 function t_two thread 0
----------------------------------------------------
  wait=0 (00000000000000000000000000000000)

State 308 file input/c/c_seq/p4.c line 409 function t_two thread 0
----------------------------------------------------
  j=4 (00000000000000000000000000000100)

State 315 file input/c/c_seq/p4.c line 413 function t_two thread 0
----------------------------------------------------
  wait=0 (00000000000000000000000000000000)

State 326 file input/c/c_seq/p4.c line 439 function t_two thread 0
----------------------------------------------------
  x_tmp=0 (00000000000000000000000000000000)

State 328 file input/c/c_seq/p4.c line 441 function t_two thread 0
----------------------------------------------------
  x_tmp=-1 (11111111111111111111111111111111)

State 330 file input/c/c_seq/p4.c line 443 function t_two thread 0
----------------------------------------------------
  x=-1 (11111111111111111111111111111111)

State 333 file input/c/c_seq/p4.c line 449 function t_two thread 0
----------------------------------------------------
  flag[2]=-1 (11111111111111111111111111111111)

State 336 file input/c/c_seq/p4.c line 911 function main thread 0
----------------------------------------------------
  pc[2]=59 (00000000000000000000000000111011)

State 337 file input/c/c_seq/p4.c line 912 function main thread 0
----------------------------------------------------
  active[2]=0 (00000000000000000000000000000000)

State 338 file input/c/c_seq/p4.c line 915 function main thread 0
----------------------------------------------------
  ct=3 (00000000000000000000000000000011)

State 340 file input/c/c_seq/p4.c line 917 function main thread 0
----------------------------------------------------
  cs=54 (00000000000000000000000000110110)

State 349 file input/c/c_seq/p4.c line 461 function t_three thread 0
----------------------------------------------------
  i=1 (00000000000000000000000000000001)

State 351 file input/c/c_seq/p4.c line 463 function t_three thread 0
----------------------------------------------------
  flag[3]=1 (00000000000000000000000000000001)

State 353 file input/c/c_seq/p4.c line 465 function t_three thread 0
----------------------------------------------------
  turn[1]=3 (00000000000000000000000000000011)

State 355 file input/c/c_seq/p4.c line 469 function t_three thread 0
----------------------------------------------------
  wait=0 (00000000000000000000000000000000)

State 357 file input/c/c_seq/p4.c line 472 function t_three thread 0
----------------------------------------------------
  j=1 (00000000000000000000000000000001)

State 364 file input/c/c_seq/p4.c line 476 function t_three thread 0
----------------------------------------------------
  wait=0 (00000000000000000000000000000000)

State 367 file input/c/c_seq/p4.c line 482 function t_three thread 0
----------------------------------------------------
  j=2 (00000000000000000000000000000010)

State 374 file input/c/c_seq/p4.c line 486 function t_three thread 0
----------------------------------------------------
  wait=0 (00000000000000000000000000000000)

State 377 file input/c/c_seq/p4.c line 492 function t_three thread 0
----------------------------------------------------
  j=3 (00000000000000000000000000000011)

State 382 file input/c/c_seq/p4.c line 502 function t_three thread 0
----------------------------------------------------
  j=4 (00000000000000000000000000000100)

State 389 file input/c/c_seq/p4.c line 506 function t_three thread 0
----------------------------------------------------
  wait=0 (00000000000000000000000000000000)

State 397 file input/c/c_seq/p4.c line 518 function t_three thread 0
----------------------------------------------------
  i=2 (00000000000000000000000000000010)

State 399 file input/c/c_seq/p4.c line 520 function t_three thread 0
----------------------------------------------------
  flag[3]=2 (00000000000000000000000000000010)

State 401 file input/c/c_seq/p4.c line 522 function t_three thread 0
----------------------------------------------------
  turn[2]=3 (00000000000000000000000000000011)

State 403 file input/c/c_seq/p4.c line 526 function t_three thread 0
----------------------------------------------------
  wait=0 (00000000000000000000000000000000)

State 405 file input/c/c_seq/p4.c line 529 function t_three thread 0
----------------------------------------------------
  j=1 (00000000000000000000000000000001)

State 412 file input/c/c_seq/p4.c line 533 function t_three thread 0
----------------------------------------------------
  wait=0 (00000000000000000000000000000000)

State 415 file input/c/c_seq/p4.c line 539 function t_three thread 0
----------------------------------------------------
  j=2 (00000000000000000000000000000010)

State 422 file input/c/c_seq/p4.c line 543 function t_three thread 0
----------------------------------------------------
  wait=0 (00000000000000000000000000000000)

State 425 file input/c/c_seq/p4.c line 549 function t_three thread 0
----------------------------------------------------
  j=3 (00000000000000000000000000000011)

State 430 file input/c/c_seq/p4.c line 559 function t_three thread 0
----------------------------------------------------
  j=4 (00000000000000000000000000000100)

State 437 file input/c/c_seq/p4.c line 563 function t_three thread 0
----------------------------------------------------
  wait=0 (00000000000000000000000000000000)

State 445 file input/c/c_seq/p4.c line 576 function t_three thread 0
----------------------------------------------------
  i=3 (00000000000000000000000000000011)

State 447 file input/c/c_seq/p4.c line 578 function t_three thread 0
----------------------------------------------------
  flag[3]=3 (00000000000000000000000000000011)

State 449 file input/c/c_seq/p4.c line 580 function t_three thread 0
----------------------------------------------------
  turn[3]=3 (00000000000000000000000000000011)

State 451 file input/c/c_seq/p4.c line 584 function t_three thread 0
----------------------------------------------------
  wait=0 (00000000000000000000000000000000)

State 453 file input/c/c_seq/p4.c line 587 function t_three thread 0
----------------------------------------------------
  j=1 (00000000000000000000000000000001)

State 460 file input/c/c_seq/p4.c line 591 function t_three thread 0
----------------------------------------------------
  wait=0 (00000000000000000000000000000000)

State 463 file input/c/c_seq/p4.c line 597 function t_three thread 0
----------------------------------------------------
  j=2 (00000000000000000000000000000010)

State 470 file input/c/c_seq/p4.c line 601 function t_three thread 0
----------------------------------------------------
  wait=0 (00000000000000000000000000000000)

State 473 file input/c/c_seq/p4.c line 607 function t_three thread 0
----------------------------------------------------
  j=3 (00000000000000000000000000000011)

State 478 file input/c/c_seq/p4.c line 617 function t_three thread 0
----------------------------------------------------
  j=4 (00000000000000000000000000000100)

State 485 file input/c/c_seq/p4.c line 621 function t_three thread 0
----------------------------------------------------
  wait=0 (00000000000000000000000000000000)

State 495 file input/c/c_seq/p4.c line 638 function t_three thread 0
----------------------------------------------------
  x_tmp=-1 (11111111111111111111111111111111)

State 497 file input/c/c_seq/p4.c line 640 function t_three thread 0
----------------------------------------------------
  x_tmp=0 (00000000000000000000000000000000)

State 505 file input/c/c_seq/p4.c line 920 function main thread 0
----------------------------------------------------
  pc[3]=54 (00000000000000000000000000110110)

State 506 file input/c/c_seq/p4.c line 921 function main thread 0
----------------------------------------------------
  active[3]=1 (00000000000000000000000000000001)

State 507 file input/c/c_seq/p4.c line 924 function main thread 0
----------------------------------------------------
  ct=4 (00000000000000000000000000000100)

State 509 file input/c/c_seq/p4.c line 926 function main thread 0
----------------------------------------------------
  cs=11 (00000000000000000000000000001011)

State 518 file input/c/c_seq/p4.c line 669 function t_four thread 0
----------------------------------------------------
  i=1 (00000000000000000000000000000001)

State 520 file input/c/c_seq/p4.c line 671 function t_four thread 0
----------------------------------------------------
  flag[4]=1 (00000000000000000000000000000001)

State 522 file input/c/c_seq/p4.c line 673 function t_four thread 0
----------------------------------------------------
  turn[1]=4 (00000000000000000000000000000100)

State 524 file input/c/c_seq/p4.c line 677 function t_four thread 0
----------------------------------------------------
  wait=0 (00000000000000000000000000000000)

State 526 file input/c/c_seq/p4.c line 680 function t_four thread 0
----------------------------------------------------
  j=1 (00000000000000000000000000000001)

State 533 file input/c/c_seq/p4.c line 684 function t_four thread 0
----------------------------------------------------
  wait=0 (00000000000000000000000000000000)

State 536 file input/c/c_seq/p4.c line 690 function t_four thread 0
----------------------------------------------------
  j=2 (00000000000000000000000000000010)

State 543 file input/c/c_seq/p4.c line 694 function t_four thread 0
----------------------------------------------------
  wait=0 (00000000000000000000000000000000)

State 546 file input/c/c_seq/p4.c line 700 function t_four thread 0
----------------------------------------------------
  j=3 (00000000000000000000000000000011)

State 597 file input/c/c_seq/p4.c line 929 function main thread 0
----------------------------------------------------
  pc[4]=11 (00000000000000000000000000001011)

State 598 file input/c/c_seq/p4.c line 930 function main thread 0
----------------------------------------------------
  active[4]=1 (00000000000000000000000000000001)

State 601 file input/c/c_seq/p4.c line 897 function main thread 0
----------------------------------------------------
  ct=1 (00000000000000000000000000000001)

State 603 file input/c/c_seq/p4.c line 899 function main thread 0
----------------------------------------------------
  cs=16 (00000000000000000000000000010000)

State 613 file input/c/c_seq/p4.c line 39 function t_one thread 0
----------------------------------------------------
  flag[1]=1 (00000000000000000000000000000001)

State 615 file input/c/c_seq/p4.c line 41 function t_one thread 0
----------------------------------------------------
  turn[1]=1 (00000000000000000000000000000001)

State 617 file input/c/c_seq/p4.c line 45 function t_one thread 0
----------------------------------------------------
  wait=0 (00000000000000000000000000000000)

State 619 file input/c/c_seq/p4.c line 48 function t_one thread 0
----------------------------------------------------
  j=1 (00000000000000000000000000000001)

State 624 file input/c/c_seq/p4.c line 58 function t_one thread 0
----------------------------------------------------
  j=2 (00000000000000000000000000000010)

State 631 file input/c/c_seq/p4.c line 62 function t_one thread 0
----------------------------------------------------
  wait=0 (00000000000000000000000000000000)

State 634 file input/c/c_seq/p4.c line 68 function t_one thread 0
----------------------------------------------------
  j=3 (00000000000000000000000000000011)

State 641 file input/c/c_seq/p4.c line 72 function t_one thread 0
----------------------------------------------------
  wait=1 (00000000000000000000000000000001)

State 644 file input/c/c_seq/p4.c line 78 function t_one thread 0
----------------------------------------------------
  j=4 (00000000000000000000000000000100)

State 652 file input/c/c_seq/p4.c line 82 function t_one thread 0
----------------------------------------------------
  wait=1 (00000000000000000000000000000001)

State 699 file input/c/c_seq/p4.c line 902 function main thread 0
----------------------------------------------------
  pc[1]=16 (00000000000000000000000000010000)

State 700 file input/c/c_seq/p4.c line 903 function main thread 0
----------------------------------------------------
  active[1]=1 (00000000000000000000000000000001)

State 701 file input/c/c_seq/p4.c line 906 function main thread 0
----------------------------------------------------
  ct=2 (00000000000000000000000000000010)

State 703 file input/c/c_seq/p4.c line 915 function main thread 0
----------------------------------------------------
  ct=3 (00000000000000000000000000000011)

State 705 file input/c/c_seq/p4.c line 917 function main thread 0
----------------------------------------------------
  cs=59 (00000000000000000000000000111011)

State 768 file input/c/c_seq/p4.c line 642 function t_three thread 0
----------------------------------------------------
  x=0 (00000000000000000000000000000000)

State 772 file input/c/c_seq/p4.c line 657 function t_three thread 0
----------------------------------------------------
  flag[3]=-1 (11111111111111111111111111111111)

State 775 file input/c/c_seq/p4.c line 920 function main thread 0
----------------------------------------------------
  pc[3]=59 (00000000000000000000000000111011)

State 776 file input/c/c_seq/p4.c line 921 function main thread 0
----------------------------------------------------
  active[3]=0 (00000000000000000000000000000000)

State 777 file input/c/c_seq/p4.c line 924 function main thread 0
----------------------------------------------------
  ct=4 (00000000000000000000000000000100)

State 779 file input/c/c_seq/p4.c line 926 function main thread 0
----------------------------------------------------
  cs=34 (00000000000000000000000000100010)

State 804 file input/c/c_seq/p4.c line 704 function t_four thread 0
----------------------------------------------------
  wait=0 (00000000000000000000000000000000)

State 807 file input/c/c_seq/p4.c line 710 function t_four thread 0
----------------------------------------------------
  j=4 (00000000000000000000000000000100)

State 817 file input/c/c_seq/p4.c line 725 function t_four thread 0
----------------------------------------------------
  i=2 (00000000000000000000000000000010)

State 819 file input/c/c_seq/p4.c line 727 function t_four thread 0
----------------------------------------------------
  flag[4]=2 (00000000000000000000000000000010)

State 821 file input/c/c_seq/p4.c line 729 function t_four thread 0
----------------------------------------------------
  turn[2]=4 (00000000000000000000000000000100)

State 823 file input/c/c_seq/p4.c line 733 function t_four thread 0
----------------------------------------------------
  wait=0 (00000000000000000000000000000000)

State 825 file input/c/c_seq/p4.c line 736 function t_four thread 0
----------------------------------------------------
  j=1 (00000000000000000000000000000001)

State 832 file input/c/c_seq/p4.c line 740 function t_four thread 0
----------------------------------------------------
  wait=0 (00000000000000000000000000000000)

State 835 file input/c/c_seq/p4.c line 746 function t_four thread 0
----------------------------------------------------
  j=2 (00000000000000000000000000000010)

State 842 file input/c/c_seq/p4.c line 750 function t_four thread 0
----------------------------------------------------
  wait=0 (00000000000000000000000000000000)

State 845 file input/c/c_seq/p4.c line 756 function t_four thread 0
----------------------------------------------------
  j=3 (00000000000000000000000000000011)

State 852 file input/c/c_seq/p4.c line 760 function t_four thread 0
----------------------------------------------------
  wait=0 (00000000000000000000000000000000)

State 855 file input/c/c_seq/p4.c line 766 function t_four thread 0
----------------------------------------------------
  j=4 (00000000000000000000000000000100)

State 891 file input/c/c_seq/p4.c line 929 function main thread 0
----------------------------------------------------
  pc[4]=34 (00000000000000000000000000100010)

State 892 file input/c/c_seq/p4.c line 930 function main thread 0
----------------------------------------------------
  active[4]=1 (00000000000000000000000000000001)

State 895 file input/c/c_seq/p4.c line 897 function main thread 0
----------------------------------------------------
  ct=1 (00000000000000000000000000000001)

State 897 file input/c/c_seq/p4.c line 899 function main thread 0
----------------------------------------------------
  cs=59 (00000000000000000000000000111011)

State 924 file input/c/c_seq/p4.c line 92 function t_one thread 0
----------------------------------------------------
  cs=3 (00000000000000000000000000000011)

State 928 file input/c/c_seq/p4.c line 902 function main thread 0
----------------------------------------------------
  pc[1]=3 (00000000000000000000000000000011)

State 929 file input/c/c_seq/p4.c line 903 function main thread 0
----------------------------------------------------
  active[1]=1 (00000000000000000000000000000001)

State 930 file input/c/c_seq/p4.c line 906 function main thread 0
----------------------------------------------------
  ct=2 (00000000000000000000000000000010)

State 932 file input/c/c_seq/p4.c line 915 function main thread 0
----------------------------------------------------
  ct=3 (00000000000000000000000000000011)

State 934 file input/c/c_seq/p4.c line 924 function main thread 0
----------------------------------------------------
  ct=4 (00000000000000000000000000000100)

State 936 file input/c/c_seq/p4.c line 926 function main thread 0
----------------------------------------------------
  cs=59 (00000000000000000000000000111011)

State 979 file input/c/c_seq/p4.c line 783 function t_four thread 0
----------------------------------------------------
  i=3 (00000000000000000000000000000011)

State 981 file input/c/c_seq/p4.c line 785 function t_four thread 0
----------------------------------------------------
  flag[4]=3 (00000000000000000000000000000011)

State 983 file input/c/c_seq/p4.c line 787 function t_four thread 0
----------------------------------------------------
  turn[3]=4 (00000000000000000000000000000100)

State 985 file input/c/c_seq/p4.c line 791 function t_four thread 0
----------------------------------------------------
  wait=0 (00000000000000000000000000000000)

State 987 file input/c/c_seq/p4.c line 794 function t_four thread 0
----------------------------------------------------
  j=1 (00000000000000000000000000000001)

State 994 file input/c/c_seq/p4.c line 798 function t_four thread 0
----------------------------------------------------
  wait=0 (00000000000000000000000000000000)

State 997 file input/c/c_seq/p4.c line 804 function t_four thread 0
----------------------------------------------------
  j=2 (00000000000000000000000000000010)

State 1004 file input/c/c_seq/p4.c line 808 function t_four thread 0
----------------------------------------------------
  wait=0 (00000000000000000000000000000000)

State 1007 file input/c/c_seq/p4.c line 814 function t_four thread 0
----------------------------------------------------
  j=3 (00000000000000000000000000000011)

State 1014 file input/c/c_seq/p4.c line 818 function t_four thread 0
----------------------------------------------------
  wait=0 (00000000000000000000000000000000)

State 1017 file input/c/c_seq/p4.c line 824 function t_four thread 0
----------------------------------------------------
  j=4 (00000000000000000000000000000100)

State 1030 file input/c/c_seq/p4.c line 854 function t_four thread 0
----------------------------------------------------
  x_tmp=0 (00000000000000000000000000000000)

State 1032 file input/c/c_seq/p4.c line 856 function t_four thread 0
----------------------------------------------------
  x_tmp=-1 (11111111111111111111111111111111)

State 1034 file input/c/c_seq/p4.c line 858 function t_four thread 0
----------------------------------------------------
  x=-1 (11111111111111111111111111111111)

State 1037 file input/c/c_seq/p4.c line 864 function t_four thread 0
----------------------------------------------------
  flag[4]=-1 (11111111111111111111111111111111)

State 1040 file input/c/c_seq/p4.c line 929 function main thread 0
----------------------------------------------------
  pc[4]=59 (00000000000000000000000000111011)

State 1041 file input/c/c_seq/p4.c line 930 function main thread 0
----------------------------------------------------
  active[4]=0 (00000000000000000000000000000000)

State 1044 file input/c/c_seq/p4.c line 897 function main thread 0
----------------------------------------------------
  ct=1 (00000000000000000000000000000001)

State 1046 file input/c/c_seq/p4.c line 899 function main thread 0
----------------------------------------------------
  cs=59 (00000000000000000000000000111011)

State 1058 file input/c/c_seq/p4.c line 45 function t_one thread 0
----------------------------------------------------
  wait=0 (00000000000000000000000000000000)

State 1060 file input/c/c_seq/p4.c line 48 function t_one thread 0
----------------------------------------------------
  j=1 (00000000000000000000000000000001)

State 1065 file input/c/c_seq/p4.c line 58 function t_one thread 0
----------------------------------------------------
  j=2 (00000000000000000000000000000010)

State 1072 file input/c/c_seq/p4.c line 62 function t_one thread 0
----------------------------------------------------
  wait=0 (00000000000000000000000000000000)

State 1075 file input/c/c_seq/p4.c line 68 function t_one thread 0
----------------------------------------------------
  j=3 (00000000000000000000000000000011)

State 1082 file input/c/c_seq/p4.c line 72 function t_one thread 0
----------------------------------------------------
  wait=0 (00000000000000000000000000000000)

State 1085 file input/c/c_seq/p4.c line 78 function t_one thread 0
----------------------------------------------------
  j=4 (00000000000000000000000000000100)

State 1092 file input/c/c_seq/p4.c line 82 function t_one thread 0
----------------------------------------------------
  wait=0 (00000000000000000000000000000000)

State 1097 file input/c/c_seq/p4.c line 97 function t_one thread 0
----------------------------------------------------
  i=2 (00000000000000000000000000000010)

State 1099 file input/c/c_seq/p4.c line 99 function t_one thread 0
----------------------------------------------------
  flag[1]=2 (00000000000000000000000000000010)

State 1101 file input/c/c_seq/p4.c line 101 function t_one thread 0
----------------------------------------------------
  turn[2]=1 (00000000000000000000000000000001)

State 1103 file input/c/c_seq/p4.c line 105 function t_one thread 0
----------------------------------------------------
  wait=0 (00000000000000000000000000000000)

State 1105 file input/c/c_seq/p4.c line 108 function t_one thread 0
----------------------------------------------------
  j=1 (00000000000000000000000000000001)

State 1110 file input/c/c_seq/p4.c line 118 function t_one thread 0
----------------------------------------------------
  j=2 (00000000000000000000000000000010)

State 1117 file input/c/c_seq/p4.c line 122 function t_one thread 0
----------------------------------------------------
  wait=0 (00000000000000000000000000000000)

State 1120 file input/c/c_seq/p4.c line 128 function t_one thread 0
----------------------------------------------------
  j=3 (00000000000000000000000000000011)

State 1127 file input/c/c_seq/p4.c line 132 function t_one thread 0
----------------------------------------------------
  wait=0 (00000000000000000000000000000000)

State 1130 file input/c/c_seq/p4.c line 138 function t_one thread 0
----------------------------------------------------
  j=4 (00000000000000000000000000000100)

State 1137 file input/c/c_seq/p4.c line 142 function t_one thread 0
----------------------------------------------------
  wait=0 (00000000000000000000000000000000)

State 1142 file input/c/c_seq/p4.c line 157 function t_one thread 0
----------------------------------------------------
  i=3 (00000000000000000000000000000011)

State 1144 file input/c/c_seq/p4.c line 159 function t_one thread 0
----------------------------------------------------
  flag[1]=3 (00000000000000000000000000000011)

State 1146 file input/c/c_seq/p4.c line 161 function t_one thread 0
----------------------------------------------------
  turn[3]=1 (00000000000000000000000000000001)

State 1148 file input/c/c_seq/p4.c line 165 function t_one thread 0
----------------------------------------------------
  wait=0 (00000000000000000000000000000000)

State 1150 file input/c/c_seq/p4.c line 168 function t_one thread 0
----------------------------------------------------
  j=1 (00000000000000000000000000000001)

State 1155 file input/c/c_seq/p4.c line 178 function t_one thread 0
----------------------------------------------------
  j=2 (00000000000000000000000000000010)

State 1162 file input/c/c_seq/p4.c line 182 function t_one thread 0
----------------------------------------------------
  wait=0 (00000000000000000000000000000000)

State 1165 file input/c/c_seq/p4.c line 188 function t_one thread 0
----------------------------------------------------
  j=3 (00000000000000000000000000000011)

State 1172 file input/c/c_seq/p4.c line 192 function t_one thread 0
----------------------------------------------------
  wait=0 (00000000000000000000000000000000)

State 1175 file input/c/c_seq/p4.c line 198 function t_one thread 0
----------------------------------------------------
  j=4 (00000000000000000000000000000100)

State 1182 file input/c/c_seq/p4.c line 202 function t_one thread 0
----------------------------------------------------
  wait=0 (00000000000000000000000000000000)

State 1189 file input/c/c_seq/p4.c line 221 function t_one thread 0
----------------------------------------------------
  x_tmp=-1 (11111111111111111111111111111111)

State 1191 file input/c/c_seq/p4.c line 223 function t_one thread 0
----------------------------------------------------
  x_tmp=0 (00000000000000000000000000000000)

State 1193 file input/c/c_seq/p4.c line 225 function t_one thread 0
----------------------------------------------------
  x=0 (00000000000000000000000000000000)

State 1197 file input/c/c_seq/p4.c line 240 function t_one thread 0
----------------------------------------------------
  flag[1]=-1 (11111111111111111111111111111111)

State 1200 file input/c/c_seq/p4.c line 902 function main thread 0
----------------------------------------------------
  pc[1]=59 (00000000000000000000000000111011)

State 1201 file input/c/c_seq/p4.c line 903 function main thread 0
----------------------------------------------------
  active[1]=0 (00000000000000000000000000000000)

State 1202 file input/c/c_seq/p4.c line 906 function main thread 0
----------------------------------------------------
  ct=2 (00000000000000000000000000000010)

State 1204 file input/c/c_seq/p4.c line 915 function main thread 0
----------------------------------------------------
  ct=3 (00000000000000000000000000000011)

State 1206 file input/c/c_seq/p4.c line 924 function main thread 0
----------------------------------------------------
  ct=4 (00000000000000000000000000000100)

Violated property:
  file input/c/c_seq/p4.c line 935 function main
  OK
  0 != 0

VERIFICATION FAILED

real	0m6.091s
user	0m5.949s
sys	0m0.112s
