act_java;Glucose-Syrup;9;OK;20.147;9572;302084;1284239
act_java;Glucose-Syrup;10;OK;22.496;10519;332939;1426546
act_java;Glucose-Syrup;11;OK;34.439;11466;363802;1570872
act_java;Glucose-Syrup;12;OK;35.907;12413;394665;1717184
act_java;Glucose-Syrup;13;OK;47.248;13360;425528;1865482
act_java;Glucose-Syrup;14;OK;59.237;14307;456391;2015766
act_java;Glucose-Syrup;15;OK;70.802;15254;487254;2168036
act_java;Glucose-Syrup;16;OK;87.874;16201;518117;2322292
act_java;Glucose-Syrup;17;OK;102.149;17148;548980;2478534
act_java;Glucose-Syrup;18;OK;130.723;18095;579843;2636762
act_java;Glucose-Syrup;19;OK;139.617;19042;610706;2796976
act_java;Glucose-Syrup;20;OK;152.498;19989;641569;2959176
act_java;Glucose-Syrup;3;OK;6.678;3890;117698;474902
act_java;Glucose-Syrup;4;OK;5.215;4837;148339;604489
act_java;Glucose-Syrup;5;OK;8.227;5784;179016;736197
act_java;Glucose-Syrup;6;OK;8.083;6731;209729;870026
act_java;Glucose-Syrup;7;OK;10.269;7678;240478;1005976
act_java;Glucose-Syrup;8;OK;18.407;8625;271263;1144047
act_java;MiniSAT-2.2.1;9;OK;17.553;9572;302084;1284239
act_java;MiniSAT-2.2.1;10;OK;24.028;10519;332939;1426546
act_java;MiniSAT-2.2.1;11;OK;30.878;11466;363802;1570872
act_java;MiniSAT-2.2.1;12;OK;42.638;12413;394665;1717184
act_java;MiniSAT-2.2.1;13;OK;62.383;13360;425528;1865482
act_java;MiniSAT-2.2.1;14;OK;59.325;14307;456391;2015766
act_java;MiniSAT-2.2.1;15;OK;71.004;15254;487254;2168036
act_java;MiniSAT-2.2.1;16;OK;85.374;16201;518117;2322292
act_java;MiniSAT-2.2.1;17;OK;122.415;17148;548980;2478534
act_java;MiniSAT-2.2.1;18;OK;125.233;18095;579843;2636762
act_java;MiniSAT-2.2.1;19;OK;154.452;19042;610706;2796976
act_java;MiniSAT-2.2.1;20;OK;145.820;19989;641569;2959176
act_java;MiniSAT-2.2.1;3;OK;3.344;3890;117698;474902
act_java;MiniSAT-2.2.1;4;OK;4.228;4837;148339;604489
act_java;MiniSAT-2.2.1;5;OK;6.092;5784;179016;736197
act_java;MiniSAT-2.2.1;6;OK;9.395;6731;209729;870026
act_java;MiniSAT-2.2.1;7;OK;11.601;7678;240478;1005976
act_java;MiniSAT-2.2.1;8;OK;18.653;8625;271263;1144047
