act_ko;Glucose-Syrup;3;KO;95.668;31278;754124;3005944
act_ko;Glucose-Syrup;4;KO;273.843;39103;947546;3814334
act_ko;Glucose-Syrup;5;KO;447.553;46928;1140968;4636044
act_ko;Glucose-Syrup;6;timeOut;700.047;54753;1334390;5471074
act_ko;Glucose-Syrup;7;timeOut;700.063;62578;1527812;6319424
act_ko;Glucose-Syrup;8;timeOut;700.062;70403;1721234;7181094
act_ko;MiniSAT-2.2.1;3;OK;90.553;31278;754124;3005944
act_ko;MiniSAT-2.2.1;4;KO;136.873;39103;947546;3814334
act_ko;MiniSAT-2.2.1;5;OK;504.435;46928;1140968;4636044
act_ko;MiniSAT-2.2.1;6;timeOut;700.078;54753;1334390;5471074
act_ko;MiniSAT-2.2.1;7;timeOut;700.096;62578;1527812;6319424
act_ko;MiniSAT-2.2.1;8;timeOut;700.061;70403;1721234;7181094
act_ko;Yices;3;timeOut;700.234;31278;0;0
act_ko;Yices;4;unknown;223.505;39103;0;0
act_ko;Yices;5;unknown;266.915;46928;0;0
act_ko;Yices;6;unknown;277.979;54753;0;0
act_ko;Yices;7;unknown;318.847;62578;0;0
act_ko;Yices;8;unknown;389.822;70403;0;0
