CBMC version 5.4 64-bit x86_64 macos
Parsing input/c/c_seq/act_java.c
Converting
Type-checking act_java
file input/c/c_seq/act_java.c line 584 function main: function `nondet_uint' is not declared
Generating GOTO Program
Adding CPROVER library (x86_64)
Function Pointer Removal
Partial Inlining
Generic Property Instrumentation
Starting Bounded Model Checking
Unwinding loop main.0 iteration 1 (19 max) file input/c/c_seq/act_java.c line 581 function main thread 0
Unwinding loop main.0 iteration 2 (19 max) file input/c/c_seq/act_java.c line 581 function main thread 0
Unwinding loop main.0 iteration 3 (19 max) file input/c/c_seq/act_java.c line 581 function main thread 0
Unwinding loop main.0 iteration 4 (19 max) file input/c/c_seq/act_java.c line 581 function main thread 0
Unwinding loop main.0 iteration 5 (19 max) file input/c/c_seq/act_java.c line 581 function main thread 0
Unwinding loop main.0 iteration 6 (19 max) file input/c/c_seq/act_java.c line 581 function main thread 0
Unwinding loop main.0 iteration 7 (19 max) file input/c/c_seq/act_java.c line 581 function main thread 0
Unwinding loop main.0 iteration 8 (19 max) file input/c/c_seq/act_java.c line 581 function main thread 0
Unwinding loop main.0 iteration 9 (19 max) file input/c/c_seq/act_java.c line 581 function main thread 0
Unwinding loop main.0 iteration 10 (19 max) file input/c/c_seq/act_java.c line 581 function main thread 0
Unwinding loop main.0 iteration 11 (19 max) file input/c/c_seq/act_java.c line 581 function main thread 0
Unwinding loop main.0 iteration 12 (19 max) file input/c/c_seq/act_java.c line 581 function main thread 0
Unwinding loop main.0 iteration 13 (19 max) file input/c/c_seq/act_java.c line 581 function main thread 0
Unwinding loop main.0 iteration 14 (19 max) file input/c/c_seq/act_java.c line 581 function main thread 0
Unwinding loop main.0 iteration 15 (19 max) file input/c/c_seq/act_java.c line 581 function main thread 0
Unwinding loop main.0 iteration 16 (19 max) file input/c/c_seq/act_java.c line 581 function main thread 0
Unwinding loop main.0 iteration 17 (19 max) file input/c/c_seq/act_java.c line 581 function main thread 0
Unwinding loop main.0 iteration 18 (19 max) file input/c/c_seq/act_java.c line 581 function main thread 0
Not unwinding loop main.0 iteration 19 (19 max) file input/c/c_seq/act_java.c line 581 function main thread 0
size of program expression: 18095 steps
simple slicing removed 3 assignments
Generated 475 VCC(s), 475 remaining after simplification
Passing problem to propositional reduction
converting SSA
Running propositional reduction
Post-processing
Solving with Glucose Syrup with simplifier
579843 variables, 2636762 clauses
SAT checker: instance is SATISFIABLE
Runtime decision procedure: 111.509s
Building error trace

Counterexample:

State 41 file input/c/c_seq/act_java.c line 560 function init thread 0
----------------------------------------------------
  pc[0]=0 (00000000000000000000000000000000)

State 42 file input/c/c_seq/act_java.c line 561 function init thread 0
----------------------------------------------------
  size[0]=0 (00000000000000000000000000000000)

State 43 file input/c/c_seq/act_java.c line 563 function init thread 0
----------------------------------------------------
  pc[1]=0 (00000000000000000000000000000000)

State 44 file input/c/c_seq/act_java.c line 564 function init thread 0
----------------------------------------------------
  pc[2]=0 (00000000000000000000000000000000)

State 45 file input/c/c_seq/act_java.c line 565 function init thread 0
----------------------------------------------------
  pc[3]=0 (00000000000000000000000000000000)

State 46 file input/c/c_seq/act_java.c line 566 function init thread 0
----------------------------------------------------
  ssize=0 (00000000000000000000000000000000)

State 47 file input/c/c_seq/act_java.c line 566 function init thread 0
----------------------------------------------------
  ssize=33 (00000000000000000000000000100001)

State 48 file input/c/c_seq/act_java.c line 567 function init thread 0
----------------------------------------------------
  size[1]=33 (00000000000000000000000000100001)

State 49 file input/c/c_seq/act_java.c line 568 function init thread 0
----------------------------------------------------
  size[2]=33 (00000000000000000000000000100001)

State 50 file input/c/c_seq/act_java.c line 569 function init thread 0
----------------------------------------------------
  size[3]=33 (00000000000000000000000000100001)

State 51 file input/c/c_seq/act_java.c line 571 function init thread 0
----------------------------------------------------
  t1=0 (00000000000000000000000000000000)

State 52 file input/c/c_seq/act_java.c line 571 function init thread 0
----------------------------------------------------
  t2=0 (00000000000000000000000000000000)

State 53 file input/c/c_seq/act_java.c line 571 function init thread 0
----------------------------------------------------
  t3=0 (00000000000000000000000000000000)

State 56 file input/c/c_seq/act_java.c line 573 function init thread 0
----------------------------------------------------
  t=0 (00000000000000000000000000000000)

State 57 file input/c/c_seq/act_java.c line 573 function init thread 0
----------------------------------------------------
  id=1 (00000000000000000000000000000001)

State 58 file input/c/c_seq/act_java.c line 21 function create thread 0
----------------------------------------------------
  active[1]=1 (00000000000000000000000000000001)

State 59 file input/c/c_seq/act_java.c line 22 function create thread 0
----------------------------------------------------
  t=1 (00000000000000000000000000000001)

State 63 file input/c/c_seq/act_java.c line 574 function init thread 0
----------------------------------------------------
  t=0 (00000000000000000000000000000000)

State 64 file input/c/c_seq/act_java.c line 574 function init thread 0
----------------------------------------------------
  id=2 (00000000000000000000000000000010)

State 65 file input/c/c_seq/act_java.c line 21 function create thread 0
----------------------------------------------------
  active[2]=1 (00000000000000000000000000000001)

State 66 file input/c/c_seq/act_java.c line 22 function create thread 0
----------------------------------------------------
  t=2 (00000000000000000000000000000010)

State 70 file input/c/c_seq/act_java.c line 575 function init thread 0
----------------------------------------------------
  t=0 (00000000000000000000000000000000)

State 71 file input/c/c_seq/act_java.c line 575 function init thread 0
----------------------------------------------------
  id=3 (00000000000000000000000000000011)

State 72 file input/c/c_seq/act_java.c line 21 function create thread 0
----------------------------------------------------
  active[3]=1 (00000000000000000000000000000001)

State 73 file input/c/c_seq/act_java.c line 22 function create thread 0
----------------------------------------------------
  t=3 (00000000000000000000000000000011)

State 76 file input/c/c_seq/act_java.c line 582 function main thread 0
----------------------------------------------------
  ct=1 (00000000000000000000000000000001)

State 78 file input/c/c_seq/act_java.c line 584 function main thread 0
----------------------------------------------------
  cs=15 (00000000000000000000000000001111)

State 87 file input/c/c_seq/act_java.c line 77 function t_one thread 0
----------------------------------------------------
  i=1 (00000000000000000000000000000001)

State 89 file input/c/c_seq/act_java.c line 79 function t_one thread 0
----------------------------------------------------
  MyClaim=1 (00000000000000000000000000000001)

State 91 file input/c/c_seq/act_java.c line 82 function t_one thread 0
----------------------------------------------------
  y=1 (00000000000000000000000000000001)

State 94 file input/c/c_seq/act_java.c line 94 function t_one thread 0
----------------------------------------------------
  stock=21 (00000000000000000000000000010101)

State 98 file input/c/c_seq/act_java.c line 110 function t_one thread 0
----------------------------------------------------
  FullAllocation=1 (00000000000000000000000000000001)

State 100 file input/c/c_seq/act_java.c line 112 function t_one thread 0
----------------------------------------------------
  i=2 (00000000000000000000000000000010)

State 102 file input/c/c_seq/act_java.c line 114 function t_one thread 0
----------------------------------------------------
  MyClaim=2 (00000000000000000000000000000010)

State 104 file input/c/c_seq/act_java.c line 117 function t_one thread 0
----------------------------------------------------
  y=2 (00000000000000000000000000000010)

State 107 file input/c/c_seq/act_java.c line 129 function t_one thread 0
----------------------------------------------------
  stock=19 (00000000000000000000000000010011)

State 130 file input/c/c_seq/act_java.c line 587 function main thread 0
----------------------------------------------------
  pc[1]=15 (00000000000000000000000000001111)

State 131 file input/c/c_seq/act_java.c line 588 function main thread 0
----------------------------------------------------
  active[1]=1 (00000000000000000000000000000001)

State 132 file input/c/c_seq/act_java.c line 589 function main thread 0
----------------------------------------------------
  dead=0 (00000000000000000000000000000000)

State 133 file input/c/c_seq/act_java.c line 592 function main thread 0
----------------------------------------------------
  ct=2 (00000000000000000000000000000010)

State 135 file input/c/c_seq/act_java.c line 594 function main thread 0
----------------------------------------------------
  cs=15 (00000000000000000000000000001111)

State 144 file input/c/c_seq/act_java.c line 241 function t_two thread 0
----------------------------------------------------
  i=1 (00000000000000000000000000000001)

State 146 file input/c/c_seq/act_java.c line 243 function t_two thread 0
----------------------------------------------------
  MyClaim=1 (00000000000000000000000000000001)

State 148 file input/c/c_seq/act_java.c line 246 function t_two thread 0
----------------------------------------------------
  y=1 (00000000000000000000000000000001)

State 151 file input/c/c_seq/act_java.c line 258 function t_two thread 0
----------------------------------------------------
  stock=18 (00000000000000000000000000010010)

State 155 file input/c/c_seq/act_java.c line 274 function t_two thread 0
----------------------------------------------------
  FullAllocation=1 (00000000000000000000000000000001)

State 157 file input/c/c_seq/act_java.c line 276 function t_two thread 0
----------------------------------------------------
  i=2 (00000000000000000000000000000010)

State 159 file input/c/c_seq/act_java.c line 278 function t_two thread 0
----------------------------------------------------
  MyClaim=2 (00000000000000000000000000000010)

State 161 file input/c/c_seq/act_java.c line 281 function t_two thread 0
----------------------------------------------------
  y=2 (00000000000000000000000000000010)

State 164 file input/c/c_seq/act_java.c line 293 function t_two thread 0
----------------------------------------------------
  stock=16 (00000000000000000000000000010000)

State 187 file input/c/c_seq/act_java.c line 597 function main thread 0
----------------------------------------------------
  pc[2]=15 (00000000000000000000000000001111)

State 188 file input/c/c_seq/act_java.c line 598 function main thread 0
----------------------------------------------------
  active[2]=1 (00000000000000000000000000000001)

State 189 file input/c/c_seq/act_java.c line 599 function main thread 0
----------------------------------------------------
  dead=0 (00000000000000000000000000000000)

State 190 file input/c/c_seq/act_java.c line 602 function main thread 0
----------------------------------------------------
  ct=3 (00000000000000000000000000000011)

State 192 file input/c/c_seq/act_java.c line 604 function main thread 0
----------------------------------------------------
  cs=31 (00000000000000000000000000011111)

State 201 file input/c/c_seq/act_java.c line 404 function t_three thread 0
----------------------------------------------------
  i=1 (00000000000000000000000000000001)

State 203 file input/c/c_seq/act_java.c line 406 function t_three thread 0
----------------------------------------------------
  MyClaim=1 (00000000000000000000000000000001)

State 205 file input/c/c_seq/act_java.c line 409 function t_three thread 0
----------------------------------------------------
  y=1 (00000000000000000000000000000001)

State 208 file input/c/c_seq/act_java.c line 421 function t_three thread 0
----------------------------------------------------
  stock=15 (00000000000000000000000000001111)

State 212 file input/c/c_seq/act_java.c line 437 function t_three thread 0
----------------------------------------------------
  FullAllocation=1 (00000000000000000000000000000001)

State 214 file input/c/c_seq/act_java.c line 439 function t_three thread 0
----------------------------------------------------
  i=2 (00000000000000000000000000000010)

State 216 file input/c/c_seq/act_java.c line 441 function t_three thread 0
----------------------------------------------------
  MyClaim=2 (00000000000000000000000000000010)

State 218 file input/c/c_seq/act_java.c line 444 function t_three thread 0
----------------------------------------------------
  y=2 (00000000000000000000000000000010)

State 221 file input/c/c_seq/act_java.c line 456 function t_three thread 0
----------------------------------------------------
  stock=13 (00000000000000000000000000001101)

State 225 file input/c/c_seq/act_java.c line 472 function t_three thread 0
----------------------------------------------------
  FullAllocation=3 (00000000000000000000000000000011)

State 227 file input/c/c_seq/act_java.c line 474 function t_three thread 0
----------------------------------------------------
  i=3 (00000000000000000000000000000011)

State 229 file input/c/c_seq/act_java.c line 476 function t_three thread 0
----------------------------------------------------
  MyClaim=3 (00000000000000000000000000000011)

State 231 file input/c/c_seq/act_java.c line 479 function t_three thread 0
----------------------------------------------------
  y=3 (00000000000000000000000000000011)

State 234 file input/c/c_seq/act_java.c line 491 function t_three thread 0
----------------------------------------------------
  stock=10 (00000000000000000000000000001010)

State 238 file input/c/c_seq/act_java.c line 507 function t_three thread 0
----------------------------------------------------
  FullAllocation=6 (00000000000000000000000000000110)

State 240 file input/c/c_seq/act_java.c line 509 function t_three thread 0
----------------------------------------------------
  i=4 (00000000000000000000000000000100)

State 242 file input/c/c_seq/act_java.c line 511 function t_three thread 0
----------------------------------------------------
  MyClaim=4 (00000000000000000000000000000100)

State 244 file input/c/c_seq/act_java.c line 514 function t_three thread 0
----------------------------------------------------
  y=4 (00000000000000000000000000000100)

State 247 file input/c/c_seq/act_java.c line 526 function t_three thread 0
----------------------------------------------------
  stock=6 (00000000000000000000000000000110)

State 254 file input/c/c_seq/act_java.c line 607 function main thread 0
----------------------------------------------------
  pc[3]=31 (00000000000000000000000000011111)

State 255 file input/c/c_seq/act_java.c line 608 function main thread 0
----------------------------------------------------
  active[3]=1 (00000000000000000000000000000001)

State 256 file input/c/c_seq/act_java.c line 609 function main thread 0
----------------------------------------------------
  dead=0 (00000000000000000000000000000000)

State 259 file input/c/c_seq/act_java.c line 582 function main thread 0
----------------------------------------------------
  ct=1 (00000000000000000000000000000001)

State 261 file input/c/c_seq/act_java.c line 584 function main thread 0
----------------------------------------------------
  cs=29 (00000000000000000000000000011101)

State 285 file input/c/c_seq/act_java.c line 145 function t_one thread 0
----------------------------------------------------
  FullAllocation=3 (00000000000000000000000000000011)

State 287 file input/c/c_seq/act_java.c line 147 function t_one thread 0
----------------------------------------------------
  i=3 (00000000000000000000000000000011)

State 289 file input/c/c_seq/act_java.c line 149 function t_one thread 0
----------------------------------------------------
  MyClaim=3 (00000000000000000000000000000011)

State 291 file input/c/c_seq/act_java.c line 152 function t_one thread 0
----------------------------------------------------
  y=3 (00000000000000000000000000000011)

State 294 file input/c/c_seq/act_java.c line 164 function t_one thread 0
----------------------------------------------------
  stock=3 (00000000000000000000000000000011)

State 298 file input/c/c_seq/act_java.c line 180 function t_one thread 0
----------------------------------------------------
  FullAllocation=6 (00000000000000000000000000000110)

State 300 file input/c/c_seq/act_java.c line 182 function t_one thread 0
----------------------------------------------------
  i=4 (00000000000000000000000000000100)

State 302 file input/c/c_seq/act_java.c line 184 function t_one thread 0
----------------------------------------------------
  MyClaim=4 (00000000000000000000000000000100)

State 304 file input/c/c_seq/act_java.c line 187 function t_one thread 0
----------------------------------------------------
  y=4 (00000000000000000000000000000100)

State 307 file input/c/c_seq/act_java.c line 199 function t_one thread 0
----------------------------------------------------
  stock=-1 (11111111111111111111111111111111)

State 309 file input/c/c_seq/act_java.c line 202 function t_one thread 0
----------------------------------------------------
  assignCount=1 (00000000000000000000000000000001)

State 310 file input/c/c_seq/act_java.c line 203 function t_one thread 0
----------------------------------------------------
  taskInWait=1 (00000000000000000000000000000001)

State 318 file input/c/c_seq/act_java.c line 587 function main thread 0
----------------------------------------------------
  pc[1]=29 (00000000000000000000000000011101)

State 319 file input/c/c_seq/act_java.c line 588 function main thread 0
----------------------------------------------------
  active[1]=1 (00000000000000000000000000000001)

State 320 file input/c/c_seq/act_java.c line 589 function main thread 0
----------------------------------------------------
  dead=0 (00000000000000000000000000000000)

State 321 file input/c/c_seq/act_java.c line 592 function main thread 0
----------------------------------------------------
  ct=2 (00000000000000000000000000000010)

State 323 file input/c/c_seq/act_java.c line 594 function main thread 0
----------------------------------------------------
  cs=19 (00000000000000000000000000010011)

State 347 file input/c/c_seq/act_java.c line 309 function t_two thread 0
----------------------------------------------------
  FullAllocation=3 (00000000000000000000000000000011)

State 349 file input/c/c_seq/act_java.c line 311 function t_two thread 0
----------------------------------------------------
  i=3 (00000000000000000000000000000011)

State 351 file input/c/c_seq/act_java.c line 313 function t_two thread 0
----------------------------------------------------
  MyClaim=3 (00000000000000000000000000000011)

State 353 file input/c/c_seq/act_java.c line 316 function t_two thread 0
----------------------------------------------------
  y=3 (00000000000000000000000000000011)

State 355 file input/c/c_seq/act_java.c line 319 function t_two thread 0
----------------------------------------------------
  taskInWait=2 (00000000000000000000000000000010)

State 373 file input/c/c_seq/act_java.c line 597 function main thread 0
----------------------------------------------------
  pc[2]=19 (00000000000000000000000000010011)

State 374 file input/c/c_seq/act_java.c line 598 function main thread 0
----------------------------------------------------
  active[2]=1 (00000000000000000000000000000001)

State 375 file input/c/c_seq/act_java.c line 599 function main thread 0
----------------------------------------------------
  dead=0 (00000000000000000000000000000000)

State 376 file input/c/c_seq/act_java.c line 602 function main thread 0
----------------------------------------------------
  ct=3 (00000000000000000000000000000011)

State 378 file input/c/c_seq/act_java.c line 604 function main thread 0
----------------------------------------------------
  cs=33 (00000000000000000000000000100001)

State 418 file input/c/c_seq/act_java.c line 542 function t_three thread 0
----------------------------------------------------
  FullAllocation=10 (00000000000000000000000000001010)

State 420 file input/c/c_seq/act_java.c line 547 function t_three thread 0
----------------------------------------------------
  y=10 (00000000000000000000000000001010)

State 421 file input/c/c_seq/act_java.c line 548 function t_three thread 0
----------------------------------------------------
  stock=9 (00000000000000000000000000001001)

State 424 file input/c/c_seq/act_java.c line 607 function main thread 0
----------------------------------------------------
  pc[3]=33 (00000000000000000000000000100001)

State 425 file input/c/c_seq/act_java.c line 608 function main thread 0
----------------------------------------------------
  active[3]=0 (00000000000000000000000000000000)

State 426 file input/c/c_seq/act_java.c line 609 function main thread 0
----------------------------------------------------
  dead=1 (00000000000000000000000000000001)

State 429 file input/c/c_seq/act_java.c line 582 function main thread 0
----------------------------------------------------
  ct=1 (00000000000000000000000000000001)

State 431 file input/c/c_seq/act_java.c line 584 function main thread 0
----------------------------------------------------
  cs=33 (00000000000000000000000000100001)

State 471 file input/c/c_seq/act_java.c line 208 function t_one thread 0
----------------------------------------------------
  assignCount=0 (00000000000000000000000000000000)

State 472 file input/c/c_seq/act_java.c line 209 function t_one thread 0
----------------------------------------------------
  taskInWait=1 (00000000000000000000000000000001)

State 475 file input/c/c_seq/act_java.c line 215 function t_one thread 0
----------------------------------------------------
  FullAllocation=10 (00000000000000000000000000001010)

State 477 file input/c/c_seq/act_java.c line 220 function t_one thread 0
----------------------------------------------------
  y=10 (00000000000000000000000000001010)

State 478 file input/c/c_seq/act_java.c line 221 function t_one thread 0
----------------------------------------------------
  stock=19 (00000000000000000000000000010011)

State 481 file input/c/c_seq/act_java.c line 587 function main thread 0
----------------------------------------------------
  pc[1]=33 (00000000000000000000000000100001)

State 482 file input/c/c_seq/act_java.c line 588 function main thread 0
----------------------------------------------------
  active[1]=0 (00000000000000000000000000000000)

State 483 file input/c/c_seq/act_java.c line 589 function main thread 0
----------------------------------------------------
  dead=2 (00000000000000000000000000000010)

State 484 file input/c/c_seq/act_java.c line 592 function main thread 0
----------------------------------------------------
  ct=2 (00000000000000000000000000000010)

State 486 file input/c/c_seq/act_java.c line 594 function main thread 0
----------------------------------------------------
  cs=33 (00000000000000000000000000100001)

State 516 file input/c/c_seq/act_java.c line 324 function t_two thread 0
----------------------------------------------------
  taskInWait=0 (00000000000000000000000000000000)

State 518 file input/c/c_seq/act_java.c line 328 function t_two thread 0
----------------------------------------------------
  stock=16 (00000000000000000000000000010000)

State 522 file input/c/c_seq/act_java.c line 344 function t_two thread 0
----------------------------------------------------
  FullAllocation=6 (00000000000000000000000000000110)

State 524 file input/c/c_seq/act_java.c line 346 function t_two thread 0
----------------------------------------------------
  i=4 (00000000000000000000000000000100)

State 526 file input/c/c_seq/act_java.c line 348 function t_two thread 0
----------------------------------------------------
  MyClaim=4 (00000000000000000000000000000100)

State 528 file input/c/c_seq/act_java.c line 351 function t_two thread 0
----------------------------------------------------
  y=4 (00000000000000000000000000000100)

State 531 file input/c/c_seq/act_java.c line 363 function t_two thread 0
----------------------------------------------------
  stock=12 (00000000000000000000000000001100)

State 535 file input/c/c_seq/act_java.c line 379 function t_two thread 0
----------------------------------------------------
  FullAllocation=10 (00000000000000000000000000001010)

State 537 file input/c/c_seq/act_java.c line 384 function t_two thread 0
----------------------------------------------------
  y=10 (00000000000000000000000000001010)

State 538 file input/c/c_seq/act_java.c line 385 function t_two thread 0
----------------------------------------------------
  stock=22 (00000000000000000000000000010110)

State 541 file input/c/c_seq/act_java.c line 597 function main thread 0
----------------------------------------------------
  pc[2]=33 (00000000000000000000000000100001)

State 542 file input/c/c_seq/act_java.c line 598 function main thread 0
----------------------------------------------------
  active[2]=0 (00000000000000000000000000000000)

State 543 file input/c/c_seq/act_java.c line 599 function main thread 0
----------------------------------------------------
  dead=3 (00000000000000000000000000000011)

State 544 file input/c/c_seq/act_java.c line 602 function main thread 0
----------------------------------------------------
  ct=3 (00000000000000000000000000000011)

Violated property:
  file input/c/c_seq/act_java.c line 613 function main
  OK
  0 != 0

VERIFICATION FAILED

real	2m10.723s
user	2m10.258s
sys	0m0.443s
