act;Glucose-Syrup;3;OK;156.437;31278;742118;2949733
act;Glucose-Syrup;4;OK;157.664;39103;932336;3743123
act;Glucose-Syrup;5;OK;304.967;46928;1122554;4549833
act;Glucose-Syrup;6;timeOut;700.051;54753;1312772;5369863
act;Glucose-Syrup;7;timeOut;700.060;62578;1502990;6203213
act;Glucose-Syrup;8;timeOut;700.057;70403;1693208;7049883
act;MiniSAT-2.2.1;3;OK;180.865;31278;742118;2949733
act;MiniSAT-2.2.1;4;OK;370.243;39103;932336;3743123
act;MiniSAT-2.2.1;5;timeOut;700.057;46928;1122554;4549833
act;MiniSAT-2.2.1;6;timeOut;700.065;54753;1312772;5369863
act;MiniSAT-2.2.1;7;timeOut;700.078;62578;1502990;6203213
act;MiniSAT-2.2.1;8;timeOut;700.064;70403;1693208;7049883
act;Yices;3;timeOut;700.200;31278;0;0
act;Yices;4;unknown;180.061;39103;0;0
act;Yices;5;unknown;210.563;46928;0;0
act;Yices;6;unknown;277.320;54753;0;0
act;Yices;7;unknown;314.814;62578;0;0
act;Yices;8;unknown;381.892;70403;0;0
