p4;Glucose-Syrup;3;OK;8.058;8181;142907;594960
p4;Glucose-Syrup;4;OK;11.319;10197;181737;765067
p4;Glucose-Syrup;5;OK;14.266;12213;220567;938454
p4;Glucose-Syrup;6;OK;17.171;14229;259397;1115121
p4;Glucose-Syrup;7;OK;22.615;16245;298227;1295068
p4;Glucose-Syrup;8;OK;28.621;18261;337057;1478295
p4;MiniSAT-2.2.1;3;OK;7.947;8181;142907;594960
p4;MiniSAT-2.2.1;4;OK;11.595;10197;181737;765067
p4;MiniSAT-2.2.1;5;OK;15.170;12213;220567;938454
p4;MiniSAT-2.2.1;6;OK;17.554;14229;259397;1115121
p4;MiniSAT-2.2.1;7;OK;21.981;16245;298227;1295068
p4;MiniSAT-2.2.1;8;OK;28.874;18261;337057;1478295
p4;Yices;3;OK;82.031;8181;0;0
p4;Yices;4;OK;245.584;10197;0;0
p4;Yices;5;OK;494.683;12213;0;0
p4;Yices;6;timeOut;700.058;14229;0;0
p4;Yices;7;timeOut;700.054;16245;0;0
p4;Yices;8;timeOut;700.081;18261;0;0
