po;Glucose-Syrup;3;OK;0.686;2163;33665;119812
po;Glucose-Syrup;4;OK;0.802;2697;43639;157629
po;Glucose-Syrup;5;OK;1.083;3231;53613;195726
po;Glucose-Syrup;6;OK;1.218;3765;63587;234103
po;Glucose-Syrup;7;OK;1.528;4299;73561;272760
po;Glucose-Syrup;8;OK;1.672;4833;83535;311697
po;MiniSAT-2.2.1;3;OK;0.747;2163;33665;119812
po;MiniSAT-2.2.1;4;OK;0.779;2697;43639;157629
po;MiniSAT-2.2.1;5;OK;0.956;3231;53613;195726
po;MiniSAT-2.2.1;6;OK;1.126;3765;63587;234103
po;MiniSAT-2.2.1;7;OK;1.345;4299;73561;272760
po;MiniSAT-2.2.1;8;OK;1.598;4833;83535;311697
po;Yices;3;OK;1.094;2163;0;0
po;Yices;4;OK;2.208;2697;0;0
po;Yices;5;OK;4.120;3231;0;0
po;Yices;6;OK;7.683;3765;0;0
po;Yices;7;OK;9.114;4299;0;0
po;Yices;8;OK;17.022;4833;0;0
