CBMC version 5.4 64-bit x86_64 macos
Parsing input/c/c_seq/act_java_ko.c
Converting
Type-checking act_java_ko
file input/c/c_seq/act_java_ko.c line 584 function main: function `nondet_uint' is not declared
Generating GOTO Program
Adding CPROVER library (x86_64)
Function Pointer Removal
Partial Inlining
Generic Property Instrumentation
Starting Bounded Model Checking
Unwinding loop main.0 iteration 1 (20 max) file input/c/c_seq/act_java_ko.c line 581 function main thread 0
Unwinding loop main.0 iteration 2 (20 max) file input/c/c_seq/act_java_ko.c line 581 function main thread 0
Unwinding loop main.0 iteration 3 (20 max) file input/c/c_seq/act_java_ko.c line 581 function main thread 0
Unwinding loop main.0 iteration 4 (20 max) file input/c/c_seq/act_java_ko.c line 581 function main thread 0
Unwinding loop main.0 iteration 5 (20 max) file input/c/c_seq/act_java_ko.c line 581 function main thread 0
Unwinding loop main.0 iteration 6 (20 max) file input/c/c_seq/act_java_ko.c line 581 function main thread 0
Unwinding loop main.0 iteration 7 (20 max) file input/c/c_seq/act_java_ko.c line 581 function main thread 0
Unwinding loop main.0 iteration 8 (20 max) file input/c/c_seq/act_java_ko.c line 581 function main thread 0
Unwinding loop main.0 iteration 9 (20 max) file input/c/c_seq/act_java_ko.c line 581 function main thread 0
Unwinding loop main.0 iteration 10 (20 max) file input/c/c_seq/act_java_ko.c line 581 function main thread 0
Unwinding loop main.0 iteration 11 (20 max) file input/c/c_seq/act_java_ko.c line 581 function main thread 0
Unwinding loop main.0 iteration 12 (20 max) file input/c/c_seq/act_java_ko.c line 581 function main thread 0
Unwinding loop main.0 iteration 13 (20 max) file input/c/c_seq/act_java_ko.c line 581 function main thread 0
Unwinding loop main.0 iteration 14 (20 max) file input/c/c_seq/act_java_ko.c line 581 function main thread 0
Unwinding loop main.0 iteration 15 (20 max) file input/c/c_seq/act_java_ko.c line 581 function main thread 0
Unwinding loop main.0 iteration 16 (20 max) file input/c/c_seq/act_java_ko.c line 581 function main thread 0
Unwinding loop main.0 iteration 17 (20 max) file input/c/c_seq/act_java_ko.c line 581 function main thread 0
Unwinding loop main.0 iteration 18 (20 max) file input/c/c_seq/act_java_ko.c line 581 function main thread 0
Unwinding loop main.0 iteration 19 (20 max) file input/c/c_seq/act_java_ko.c line 581 function main thread 0
Not unwinding loop main.0 iteration 20 (20 max) file input/c/c_seq/act_java_ko.c line 581 function main thread 0
size of program expression: 19042 steps
simple slicing removed 3 assignments
Generated 500 VCC(s), 500 remaining after simplification
Passing problem to propositional reduction
converting SSA
Running propositional reduction
Post-processing
Solving with Glucose Syrup with simplifier
673976 variables, 3093187 clauses
SAT checker: instance is SATISFIABLE
Runtime decision procedure: 140.554s
Building error trace

Counterexample:

State 41 file input/c/c_seq/act_java_ko.c line 560 function init thread 0
----------------------------------------------------
  pc[0]=0 (00000000000000000000000000000000)

State 42 file input/c/c_seq/act_java_ko.c line 561 function init thread 0
----------------------------------------------------
  size[0]=0 (00000000000000000000000000000000)

State 43 file input/c/c_seq/act_java_ko.c line 563 function init thread 0
----------------------------------------------------
  pc[1]=0 (00000000000000000000000000000000)

State 44 file input/c/c_seq/act_java_ko.c line 564 function init thread 0
----------------------------------------------------
  pc[2]=0 (00000000000000000000000000000000)

State 45 file input/c/c_seq/act_java_ko.c line 565 function init thread 0
----------------------------------------------------
  pc[3]=0 (00000000000000000000000000000000)

State 46 file input/c/c_seq/act_java_ko.c line 566 function init thread 0
----------------------------------------------------
  ssize=0 (00000000000000000000000000000000)

State 47 file input/c/c_seq/act_java_ko.c line 566 function init thread 0
----------------------------------------------------
  ssize=33 (00000000000000000000000000100001)

State 48 file input/c/c_seq/act_java_ko.c line 567 function init thread 0
----------------------------------------------------
  size[1]=33 (00000000000000000000000000100001)

State 49 file input/c/c_seq/act_java_ko.c line 568 function init thread 0
----------------------------------------------------
  size[2]=33 (00000000000000000000000000100001)

State 50 file input/c/c_seq/act_java_ko.c line 569 function init thread 0
----------------------------------------------------
  size[3]=33 (00000000000000000000000000100001)

State 51 file input/c/c_seq/act_java_ko.c line 571 function init thread 0
----------------------------------------------------
  t1=0 (00000000000000000000000000000000)

State 52 file input/c/c_seq/act_java_ko.c line 571 function init thread 0
----------------------------------------------------
  t2=0 (00000000000000000000000000000000)

State 53 file input/c/c_seq/act_java_ko.c line 571 function init thread 0
----------------------------------------------------
  t3=0 (00000000000000000000000000000000)

State 56 file input/c/c_seq/act_java_ko.c line 573 function init thread 0
----------------------------------------------------
  t=0 (00000000000000000000000000000000)

State 57 file input/c/c_seq/act_java_ko.c line 573 function init thread 0
----------------------------------------------------
  id=1 (00000000000000000000000000000001)

State 58 file input/c/c_seq/act_java_ko.c line 21 function create thread 0
----------------------------------------------------
  active[1]=1 (00000000000000000000000000000001)

State 59 file input/c/c_seq/act_java_ko.c line 22 function create thread 0
----------------------------------------------------
  t=1 (00000000000000000000000000000001)

State 63 file input/c/c_seq/act_java_ko.c line 574 function init thread 0
----------------------------------------------------
  t=0 (00000000000000000000000000000000)

State 64 file input/c/c_seq/act_java_ko.c line 574 function init thread 0
----------------------------------------------------
  id=2 (00000000000000000000000000000010)

State 65 file input/c/c_seq/act_java_ko.c line 21 function create thread 0
----------------------------------------------------
  active[2]=1 (00000000000000000000000000000001)

State 66 file input/c/c_seq/act_java_ko.c line 22 function create thread 0
----------------------------------------------------
  t=2 (00000000000000000000000000000010)

State 70 file input/c/c_seq/act_java_ko.c line 575 function init thread 0
----------------------------------------------------
  t=0 (00000000000000000000000000000000)

State 71 file input/c/c_seq/act_java_ko.c line 575 function init thread 0
----------------------------------------------------
  id=3 (00000000000000000000000000000011)

State 72 file input/c/c_seq/act_java_ko.c line 21 function create thread 0
----------------------------------------------------
  active[3]=1 (00000000000000000000000000000001)

State 73 file input/c/c_seq/act_java_ko.c line 22 function create thread 0
----------------------------------------------------
  t=3 (00000000000000000000000000000011)

State 76 file input/c/c_seq/act_java_ko.c line 582 function main thread 0
----------------------------------------------------
  ct=1 (00000000000000000000000000000001)

State 78 file input/c/c_seq/act_java_ko.c line 584 function main thread 0
----------------------------------------------------
  cs=31 (00000000000000000000000000011111)

State 87 file input/c/c_seq/act_java_ko.c line 77 function t_one thread 0
----------------------------------------------------
  i=1 (00000000000000000000000000000001)

State 89 file input/c/c_seq/act_java_ko.c line 79 function t_one thread 0
----------------------------------------------------
  MyClaim=4 (00000000000000000000000000000100)

State 91 file input/c/c_seq/act_java_ko.c line 82 function t_one thread 0
----------------------------------------------------
  y=4 (00000000000000000000000000000100)

State 94 file input/c/c_seq/act_java_ko.c line 94 function t_one thread 0
----------------------------------------------------
  stock=18 (00000000000000000000000000010010)

State 98 file input/c/c_seq/act_java_ko.c line 110 function t_one thread 0
----------------------------------------------------
  FullAllocation=4 (00000000000000000000000000000100)

State 100 file input/c/c_seq/act_java_ko.c line 112 function t_one thread 0
----------------------------------------------------
  i=2 (00000000000000000000000000000010)

State 102 file input/c/c_seq/act_java_ko.c line 114 function t_one thread 0
----------------------------------------------------
  MyClaim=3 (00000000000000000000000000000011)

State 104 file input/c/c_seq/act_java_ko.c line 117 function t_one thread 0
----------------------------------------------------
  y=3 (00000000000000000000000000000011)

State 107 file input/c/c_seq/act_java_ko.c line 129 function t_one thread 0
----------------------------------------------------
  stock=15 (00000000000000000000000000001111)

State 111 file input/c/c_seq/act_java_ko.c line 145 function t_one thread 0
----------------------------------------------------
  FullAllocation=7 (00000000000000000000000000000111)

State 113 file input/c/c_seq/act_java_ko.c line 147 function t_one thread 0
----------------------------------------------------
  i=3 (00000000000000000000000000000011)

State 115 file input/c/c_seq/act_java_ko.c line 149 function t_one thread 0
----------------------------------------------------
  MyClaim=2 (00000000000000000000000000000010)

State 117 file input/c/c_seq/act_java_ko.c line 152 function t_one thread 0
----------------------------------------------------
  y=2 (00000000000000000000000000000010)

State 120 file input/c/c_seq/act_java_ko.c line 164 function t_one thread 0
----------------------------------------------------
  stock=13 (00000000000000000000000000001101)

State 124 file input/c/c_seq/act_java_ko.c line 180 function t_one thread 0
----------------------------------------------------
  FullAllocation=9 (00000000000000000000000000001001)

State 126 file input/c/c_seq/act_java_ko.c line 182 function t_one thread 0
----------------------------------------------------
  i=4 (00000000000000000000000000000100)

State 128 file input/c/c_seq/act_java_ko.c line 184 function t_one thread 0
----------------------------------------------------
  MyClaim=1 (00000000000000000000000000000001)

State 130 file input/c/c_seq/act_java_ko.c line 187 function t_one thread 0
----------------------------------------------------
  y=1 (00000000000000000000000000000001)

State 133 file input/c/c_seq/act_java_ko.c line 199 function t_one thread 0
----------------------------------------------------
  stock=12 (00000000000000000000000000001100)

State 140 file input/c/c_seq/act_java_ko.c line 587 function main thread 0
----------------------------------------------------
  pc[1]=31 (00000000000000000000000000011111)

State 141 file input/c/c_seq/act_java_ko.c line 588 function main thread 0
----------------------------------------------------
  active[1]=1 (00000000000000000000000000000001)

State 142 file input/c/c_seq/act_java_ko.c line 589 function main thread 0
----------------------------------------------------
  dead=0 (00000000000000000000000000000000)

State 143 file input/c/c_seq/act_java_ko.c line 592 function main thread 0
----------------------------------------------------
  ct=2 (00000000000000000000000000000010)

State 145 file input/c/c_seq/act_java_ko.c line 594 function main thread 0
----------------------------------------------------
  cs=33 (00000000000000000000000000100001)

State 154 file input/c/c_seq/act_java_ko.c line 241 function t_two thread 0
----------------------------------------------------
  i=1 (00000000000000000000000000000001)

State 156 file input/c/c_seq/act_java_ko.c line 243 function t_two thread 0
----------------------------------------------------
  MyClaim=4 (00000000000000000000000000000100)

State 158 file input/c/c_seq/act_java_ko.c line 246 function t_two thread 0
----------------------------------------------------
  y=4 (00000000000000000000000000000100)

State 161 file input/c/c_seq/act_java_ko.c line 258 function t_two thread 0
----------------------------------------------------
  stock=8 (00000000000000000000000000001000)

State 165 file input/c/c_seq/act_java_ko.c line 274 function t_two thread 0
----------------------------------------------------
  FullAllocation=4 (00000000000000000000000000000100)

State 167 file input/c/c_seq/act_java_ko.c line 276 function t_two thread 0
----------------------------------------------------
  i=2 (00000000000000000000000000000010)

State 169 file input/c/c_seq/act_java_ko.c line 278 function t_two thread 0
----------------------------------------------------
  MyClaim=3 (00000000000000000000000000000011)

State 171 file input/c/c_seq/act_java_ko.c line 281 function t_two thread 0
----------------------------------------------------
  y=3 (00000000000000000000000000000011)

State 174 file input/c/c_seq/act_java_ko.c line 293 function t_two thread 0
----------------------------------------------------
  stock=5 (00000000000000000000000000000101)

State 178 file input/c/c_seq/act_java_ko.c line 309 function t_two thread 0
----------------------------------------------------
  FullAllocation=7 (00000000000000000000000000000111)

State 180 file input/c/c_seq/act_java_ko.c line 311 function t_two thread 0
----------------------------------------------------
  i=3 (00000000000000000000000000000011)

State 182 file input/c/c_seq/act_java_ko.c line 313 function t_two thread 0
----------------------------------------------------
  MyClaim=2 (00000000000000000000000000000010)

State 184 file input/c/c_seq/act_java_ko.c line 316 function t_two thread 0
----------------------------------------------------
  y=2 (00000000000000000000000000000010)

State 187 file input/c/c_seq/act_java_ko.c line 328 function t_two thread 0
----------------------------------------------------
  stock=3 (00000000000000000000000000000011)

State 191 file input/c/c_seq/act_java_ko.c line 344 function t_two thread 0
----------------------------------------------------
  FullAllocation=9 (00000000000000000000000000001001)

State 193 file input/c/c_seq/act_java_ko.c line 346 function t_two thread 0
----------------------------------------------------
  i=4 (00000000000000000000000000000100)

State 195 file input/c/c_seq/act_java_ko.c line 348 function t_two thread 0
----------------------------------------------------
  MyClaim=1 (00000000000000000000000000000001)

State 197 file input/c/c_seq/act_java_ko.c line 351 function t_two thread 0
----------------------------------------------------
  y=1 (00000000000000000000000000000001)

State 200 file input/c/c_seq/act_java_ko.c line 363 function t_two thread 0
----------------------------------------------------
  stock=2 (00000000000000000000000000000010)

State 204 file input/c/c_seq/act_java_ko.c line 379 function t_two thread 0
----------------------------------------------------
  FullAllocation=10 (00000000000000000000000000001010)

State 206 file input/c/c_seq/act_java_ko.c line 384 function t_two thread 0
----------------------------------------------------
  y=10 (00000000000000000000000000001010)

State 207 file input/c/c_seq/act_java_ko.c line 385 function t_two thread 0
----------------------------------------------------
  stock=12 (00000000000000000000000000001100)

State 210 file input/c/c_seq/act_java_ko.c line 597 function main thread 0
----------------------------------------------------
  pc[2]=33 (00000000000000000000000000100001)

State 211 file input/c/c_seq/act_java_ko.c line 598 function main thread 0
----------------------------------------------------
  active[2]=0 (00000000000000000000000000000000)

State 212 file input/c/c_seq/act_java_ko.c line 599 function main thread 0
----------------------------------------------------
  dead=1 (00000000000000000000000000000001)

State 213 file input/c/c_seq/act_java_ko.c line 602 function main thread 0
----------------------------------------------------
  ct=3 (00000000000000000000000000000011)

State 215 file input/c/c_seq/act_java_ko.c line 604 function main thread 0
----------------------------------------------------
  cs=23 (00000000000000000000000000010111)

State 224 file input/c/c_seq/act_java_ko.c line 404 function t_three thread 0
----------------------------------------------------
  i=1 (00000000000000000000000000000001)

State 226 file input/c/c_seq/act_java_ko.c line 406 function t_three thread 0
----------------------------------------------------
  MyClaim=4 (00000000000000000000000000000100)

State 228 file input/c/c_seq/act_java_ko.c line 409 function t_three thread 0
----------------------------------------------------
  y=4 (00000000000000000000000000000100)

State 231 file input/c/c_seq/act_java_ko.c line 421 function t_three thread 0
----------------------------------------------------
  stock=8 (00000000000000000000000000001000)

State 235 file input/c/c_seq/act_java_ko.c line 437 function t_three thread 0
----------------------------------------------------
  FullAllocation=4 (00000000000000000000000000000100)

State 237 file input/c/c_seq/act_java_ko.c line 439 function t_three thread 0
----------------------------------------------------
  i=2 (00000000000000000000000000000010)

State 239 file input/c/c_seq/act_java_ko.c line 441 function t_three thread 0
----------------------------------------------------
  MyClaim=3 (00000000000000000000000000000011)

State 241 file input/c/c_seq/act_java_ko.c line 444 function t_three thread 0
----------------------------------------------------
  y=3 (00000000000000000000000000000011)

State 244 file input/c/c_seq/act_java_ko.c line 456 function t_three thread 0
----------------------------------------------------
  stock=5 (00000000000000000000000000000101)

State 248 file input/c/c_seq/act_java_ko.c line 472 function t_three thread 0
----------------------------------------------------
  FullAllocation=7 (00000000000000000000000000000111)

State 250 file input/c/c_seq/act_java_ko.c line 474 function t_three thread 0
----------------------------------------------------
  i=3 (00000000000000000000000000000011)

State 252 file input/c/c_seq/act_java_ko.c line 476 function t_three thread 0
----------------------------------------------------
  MyClaim=2 (00000000000000000000000000000010)

State 254 file input/c/c_seq/act_java_ko.c line 479 function t_three thread 0
----------------------------------------------------
  y=2 (00000000000000000000000000000010)

State 257 file input/c/c_seq/act_java_ko.c line 491 function t_three thread 0
----------------------------------------------------
  stock=3 (00000000000000000000000000000011)

State 272 file input/c/c_seq/act_java_ko.c line 607 function main thread 0
----------------------------------------------------
  pc[3]=23 (00000000000000000000000000010111)

State 273 file input/c/c_seq/act_java_ko.c line 608 function main thread 0
----------------------------------------------------
  active[3]=1 (00000000000000000000000000000001)

State 274 file input/c/c_seq/act_java_ko.c line 609 function main thread 0
----------------------------------------------------
  dead=1 (00000000000000000000000000000001)

State 277 file input/c/c_seq/act_java_ko.c line 582 function main thread 0
----------------------------------------------------
  ct=1 (00000000000000000000000000000001)

State 279 file input/c/c_seq/act_java_ko.c line 584 function main thread 0
----------------------------------------------------
  cs=32 (00000000000000000000000000100000)

State 319 file input/c/c_seq/act_java_ko.c line 215 function t_one thread 0
----------------------------------------------------
  FullAllocation=10 (00000000000000000000000000001010)

State 323 file input/c/c_seq/act_java_ko.c line 587 function main thread 0
----------------------------------------------------
  pc[1]=32 (00000000000000000000000000100000)

State 324 file input/c/c_seq/act_java_ko.c line 588 function main thread 0
----------------------------------------------------
  active[1]=1 (00000000000000000000000000000001)

State 325 file input/c/c_seq/act_java_ko.c line 589 function main thread 0
----------------------------------------------------
  dead=1 (00000000000000000000000000000001)

State 326 file input/c/c_seq/act_java_ko.c line 592 function main thread 0
----------------------------------------------------
  ct=2 (00000000000000000000000000000010)

State 328 file input/c/c_seq/act_java_ko.c line 602 function main thread 0
----------------------------------------------------
  ct=3 (00000000000000000000000000000011)

State 330 file input/c/c_seq/act_java_ko.c line 604 function main thread 0
----------------------------------------------------
  cs=23 (00000000000000000000000000010111)

State 373 file input/c/c_seq/act_java_ko.c line 607 function main thread 0
----------------------------------------------------
  pc[3]=23 (00000000000000000000000000010111)

State 374 file input/c/c_seq/act_java_ko.c line 608 function main thread 0
----------------------------------------------------
  active[3]=1 (00000000000000000000000000000001)

State 375 file input/c/c_seq/act_java_ko.c line 609 function main thread 0
----------------------------------------------------
  dead=1 (00000000000000000000000000000001)

State 378 file input/c/c_seq/act_java_ko.c line 582 function main thread 0
----------------------------------------------------
  ct=1 (00000000000000000000000000000001)

State 380 file input/c/c_seq/act_java_ko.c line 584 function main thread 0
----------------------------------------------------
  cs=33 (00000000000000000000000000100001)

State 421 file input/c/c_seq/act_java_ko.c line 220 function t_one thread 0
----------------------------------------------------
  y=10 (00000000000000000000000000001010)

State 422 file input/c/c_seq/act_java_ko.c line 221 function t_one thread 0
----------------------------------------------------
  stock=13 (00000000000000000000000000001101)

State 425 file input/c/c_seq/act_java_ko.c line 587 function main thread 0
----------------------------------------------------
  pc[1]=33 (00000000000000000000000000100001)

State 426 file input/c/c_seq/act_java_ko.c line 588 function main thread 0
----------------------------------------------------
  active[1]=0 (00000000000000000000000000000000)

State 427 file input/c/c_seq/act_java_ko.c line 589 function main thread 0
----------------------------------------------------
  dead=2 (00000000000000000000000000000010)

State 428 file input/c/c_seq/act_java_ko.c line 592 function main thread 0
----------------------------------------------------
  ct=2 (00000000000000000000000000000010)

State 430 file input/c/c_seq/act_java_ko.c line 602 function main thread 0
----------------------------------------------------
  ct=3 (00000000000000000000000000000011)

State 432 file input/c/c_seq/act_java_ko.c line 604 function main thread 0
----------------------------------------------------
  cs=31 (00000000000000000000000000011111)

State 464 file input/c/c_seq/act_java_ko.c line 507 function t_three thread 0
----------------------------------------------------
  FullAllocation=9 (00000000000000000000000000001001)

State 466 file input/c/c_seq/act_java_ko.c line 509 function t_three thread 0
----------------------------------------------------
  i=4 (00000000000000000000000000000100)

State 468 file input/c/c_seq/act_java_ko.c line 511 function t_three thread 0
----------------------------------------------------
  MyClaim=1 (00000000000000000000000000000001)

State 470 file input/c/c_seq/act_java_ko.c line 514 function t_three thread 0
----------------------------------------------------
  y=1 (00000000000000000000000000000001)

State 473 file input/c/c_seq/act_java_ko.c line 526 function t_three thread 0
----------------------------------------------------
  stock=12 (00000000000000000000000000001100)

State 480 file input/c/c_seq/act_java_ko.c line 607 function main thread 0
----------------------------------------------------
  pc[3]=31 (00000000000000000000000000011111)

State 481 file input/c/c_seq/act_java_ko.c line 608 function main thread 0
----------------------------------------------------
  active[3]=1 (00000000000000000000000000000001)

State 482 file input/c/c_seq/act_java_ko.c line 609 function main thread 0
----------------------------------------------------
  dead=2 (00000000000000000000000000000010)

State 487 file input/c/c_seq/act_java_ko.c line 582 function main thread 0
----------------------------------------------------
  ct=1 (00000000000000000000000000000001)

State 489 file input/c/c_seq/act_java_ko.c line 592 function main thread 0
----------------------------------------------------
  ct=2 (00000000000000000000000000000010)

State 491 file input/c/c_seq/act_java_ko.c line 602 function main thread 0
----------------------------------------------------
  ct=3 (00000000000000000000000000000011)

State 493 file input/c/c_seq/act_java_ko.c line 604 function main thread 0
----------------------------------------------------
  cs=31 (00000000000000000000000000011111)

State 536 file input/c/c_seq/act_java_ko.c line 607 function main thread 0
----------------------------------------------------
  pc[3]=31 (00000000000000000000000000011111)

State 537 file input/c/c_seq/act_java_ko.c line 608 function main thread 0
----------------------------------------------------
  active[3]=1 (00000000000000000000000000000001)

State 538 file input/c/c_seq/act_java_ko.c line 609 function main thread 0
----------------------------------------------------
  dead=2 (00000000000000000000000000000010)

State 543 file input/c/c_seq/act_java_ko.c line 582 function main thread 0
----------------------------------------------------
  ct=1 (00000000000000000000000000000001)

State 545 file input/c/c_seq/act_java_ko.c line 592 function main thread 0
----------------------------------------------------
  ct=2 (00000000000000000000000000000010)

State 547 file input/c/c_seq/act_java_ko.c line 602 function main thread 0
----------------------------------------------------
  ct=3 (00000000000000000000000000000011)

State 549 file input/c/c_seq/act_java_ko.c line 604 function main thread 0
----------------------------------------------------
  cs=31 (00000000000000000000000000011111)

State 592 file input/c/c_seq/act_java_ko.c line 607 function main thread 0
----------------------------------------------------
  pc[3]=31 (00000000000000000000000000011111)

State 593 file input/c/c_seq/act_java_ko.c line 608 function main thread 0
----------------------------------------------------
  active[3]=1 (00000000000000000000000000000001)

State 594 file input/c/c_seq/act_java_ko.c line 609 function main thread 0
----------------------------------------------------
  dead=2 (00000000000000000000000000000010)

State 599 file input/c/c_seq/act_java_ko.c line 582 function main thread 0
----------------------------------------------------
  ct=1 (00000000000000000000000000000001)

State 601 file input/c/c_seq/act_java_ko.c line 592 function main thread 0
----------------------------------------------------
  ct=2 (00000000000000000000000000000010)

State 603 file input/c/c_seq/act_java_ko.c line 602 function main thread 0
----------------------------------------------------
  ct=3 (00000000000000000000000000000011)

State 605 file input/c/c_seq/act_java_ko.c line 604 function main thread 0
----------------------------------------------------
  cs=31 (00000000000000000000000000011111)

State 648 file input/c/c_seq/act_java_ko.c line 607 function main thread 0
----------------------------------------------------
  pc[3]=31 (00000000000000000000000000011111)

State 649 file input/c/c_seq/act_java_ko.c line 608 function main thread 0
----------------------------------------------------
  active[3]=1 (00000000000000000000000000000001)

State 650 file input/c/c_seq/act_java_ko.c line 609 function main thread 0
----------------------------------------------------
  dead=2 (00000000000000000000000000000010)

State 655 file input/c/c_seq/act_java_ko.c line 582 function main thread 0
----------------------------------------------------
  ct=1 (00000000000000000000000000000001)

State 657 file input/c/c_seq/act_java_ko.c line 592 function main thread 0
----------------------------------------------------
  ct=2 (00000000000000000000000000000010)

State 659 file input/c/c_seq/act_java_ko.c line 602 function main thread 0
----------------------------------------------------
  ct=3 (00000000000000000000000000000011)

State 661 file input/c/c_seq/act_java_ko.c line 604 function main thread 0
----------------------------------------------------
  cs=31 (00000000000000000000000000011111)

State 704 file input/c/c_seq/act_java_ko.c line 607 function main thread 0
----------------------------------------------------
  pc[3]=31 (00000000000000000000000000011111)

State 705 file input/c/c_seq/act_java_ko.c line 608 function main thread 0
----------------------------------------------------
  active[3]=1 (00000000000000000000000000000001)

State 706 file input/c/c_seq/act_java_ko.c line 609 function main thread 0
----------------------------------------------------
  dead=2 (00000000000000000000000000000010)

State 711 file input/c/c_seq/act_java_ko.c line 582 function main thread 0
----------------------------------------------------
  ct=1 (00000000000000000000000000000001)

State 713 file input/c/c_seq/act_java_ko.c line 592 function main thread 0
----------------------------------------------------
  ct=2 (00000000000000000000000000000010)

State 715 file input/c/c_seq/act_java_ko.c line 602 function main thread 0
----------------------------------------------------
  ct=3 (00000000000000000000000000000011)

State 717 file input/c/c_seq/act_java_ko.c line 604 function main thread 0
----------------------------------------------------
  cs=31 (00000000000000000000000000011111)

State 760 file input/c/c_seq/act_java_ko.c line 607 function main thread 0
----------------------------------------------------
  pc[3]=31 (00000000000000000000000000011111)

State 761 file input/c/c_seq/act_java_ko.c line 608 function main thread 0
----------------------------------------------------
  active[3]=1 (00000000000000000000000000000001)

State 762 file input/c/c_seq/act_java_ko.c line 609 function main thread 0
----------------------------------------------------
  dead=2 (00000000000000000000000000000010)

State 767 file input/c/c_seq/act_java_ko.c line 582 function main thread 0
----------------------------------------------------
  ct=1 (00000000000000000000000000000001)

State 769 file input/c/c_seq/act_java_ko.c line 592 function main thread 0
----------------------------------------------------
  ct=2 (00000000000000000000000000000010)

State 771 file input/c/c_seq/act_java_ko.c line 602 function main thread 0
----------------------------------------------------
  ct=3 (00000000000000000000000000000011)

State 773 file input/c/c_seq/act_java_ko.c line 604 function main thread 0
----------------------------------------------------
  cs=33 (00000000000000000000000000100001)

State 813 file input/c/c_seq/act_java_ko.c line 542 function t_three thread 0
----------------------------------------------------
  FullAllocation=10 (00000000000000000000000000001010)

State 815 file input/c/c_seq/act_java_ko.c line 547 function t_three thread 0
----------------------------------------------------
  y=10 (00000000000000000000000000001010)

State 816 file input/c/c_seq/act_java_ko.c line 548 function t_three thread 0
----------------------------------------------------
  stock=22 (00000000000000000000000000010110)

State 819 file input/c/c_seq/act_java_ko.c line 607 function main thread 0
----------------------------------------------------
  pc[3]=33 (00000000000000000000000000100001)

State 820 file input/c/c_seq/act_java_ko.c line 608 function main thread 0
----------------------------------------------------
  active[3]=0 (00000000000000000000000000000000)

State 821 file input/c/c_seq/act_java_ko.c line 609 function main thread 0
----------------------------------------------------
  dead=3 (00000000000000000000000000000011)

Violated property:
  file input/c/c_seq/act_java_ko.c line 613 function main
  OK
  0 != 0

VERIFICATION FAILED

real	2m42.717s
user	2m42.163s
sys	0m0.524s
