CBMC version 5.4 64-bit x86_64 macos
Parsing input/c/c_seq/act_java_ko.c
Converting
Type-checking act_java_ko
file input/c/c_seq/act_java_ko.c line 584 function main: function `nondet_uint' is not declared
Generating GOTO Program
Adding CPROVER library (x86_64)
Function Pointer Removal
Partial Inlining
Generic Property Instrumentation
Starting Bounded Model Checking
Unwinding loop main.0 iteration 1 (11 max) file input/c/c_seq/act_java_ko.c line 581 function main thread 0
Unwinding loop main.0 iteration 2 (11 max) file input/c/c_seq/act_java_ko.c line 581 function main thread 0
Unwinding loop main.0 iteration 3 (11 max) file input/c/c_seq/act_java_ko.c line 581 function main thread 0
Unwinding loop main.0 iteration 4 (11 max) file input/c/c_seq/act_java_ko.c line 581 function main thread 0
Unwinding loop main.0 iteration 5 (11 max) file input/c/c_seq/act_java_ko.c line 581 function main thread 0
Unwinding loop main.0 iteration 6 (11 max) file input/c/c_seq/act_java_ko.c line 581 function main thread 0
Unwinding loop main.0 iteration 7 (11 max) file input/c/c_seq/act_java_ko.c line 581 function main thread 0
Unwinding loop main.0 iteration 8 (11 max) file input/c/c_seq/act_java_ko.c line 581 function main thread 0
Unwinding loop main.0 iteration 9 (11 max) file input/c/c_seq/act_java_ko.c line 581 function main thread 0
Unwinding loop main.0 iteration 10 (11 max) file input/c/c_seq/act_java_ko.c line 581 function main thread 0
Not unwinding loop main.0 iteration 11 (11 max) file input/c/c_seq/act_java_ko.c line 581 function main thread 0
size of program expression: 10519 steps
simple slicing removed 3 assignments
Generated 275 VCC(s), 275 remaining after simplification
Passing problem to propositional reduction
converting SSA
Running propositional reduction
Post-processing
Solving with MiniSAT 2.2.1 with simplifier
367373 variables, 1587757 clauses
SAT checker: instance is SATISFIABLE
Runtime decision procedure: 17.532s
Building error trace

Counterexample:

State 41 file input/c/c_seq/act_java_ko.c line 560 function init thread 0
----------------------------------------------------
  pc[0]=0 (00000000000000000000000000000000)

State 42 file input/c/c_seq/act_java_ko.c line 561 function init thread 0
----------------------------------------------------
  size[0]=0 (00000000000000000000000000000000)

State 43 file input/c/c_seq/act_java_ko.c line 563 function init thread 0
----------------------------------------------------
  pc[1]=0 (00000000000000000000000000000000)

State 44 file input/c/c_seq/act_java_ko.c line 564 function init thread 0
----------------------------------------------------
  pc[2]=0 (00000000000000000000000000000000)

State 45 file input/c/c_seq/act_java_ko.c line 565 function init thread 0
----------------------------------------------------
  pc[3]=0 (00000000000000000000000000000000)

State 46 file input/c/c_seq/act_java_ko.c line 566 function init thread 0
----------------------------------------------------
  ssize=0 (00000000000000000000000000000000)

State 47 file input/c/c_seq/act_java_ko.c line 566 function init thread 0
----------------------------------------------------
  ssize=33 (00000000000000000000000000100001)

State 48 file input/c/c_seq/act_java_ko.c line 567 function init thread 0
----------------------------------------------------
  size[1]=33 (00000000000000000000000000100001)

State 49 file input/c/c_seq/act_java_ko.c line 568 function init thread 0
----------------------------------------------------
  size[2]=33 (00000000000000000000000000100001)

State 50 file input/c/c_seq/act_java_ko.c line 569 function init thread 0
----------------------------------------------------
  size[3]=33 (00000000000000000000000000100001)

State 51 file input/c/c_seq/act_java_ko.c line 571 function init thread 0
----------------------------------------------------
  t1=0 (00000000000000000000000000000000)

State 52 file input/c/c_seq/act_java_ko.c line 571 function init thread 0
----------------------------------------------------
  t2=0 (00000000000000000000000000000000)

State 53 file input/c/c_seq/act_java_ko.c line 571 function init thread 0
----------------------------------------------------
  t3=0 (00000000000000000000000000000000)

State 56 file input/c/c_seq/act_java_ko.c line 573 function init thread 0
----------------------------------------------------
  t=0 (00000000000000000000000000000000)

State 57 file input/c/c_seq/act_java_ko.c line 573 function init thread 0
----------------------------------------------------
  id=1 (00000000000000000000000000000001)

State 58 file input/c/c_seq/act_java_ko.c line 21 function create thread 0
----------------------------------------------------
  active[1]=1 (00000000000000000000000000000001)

State 59 file input/c/c_seq/act_java_ko.c line 22 function create thread 0
----------------------------------------------------
  t=1 (00000000000000000000000000000001)

State 63 file input/c/c_seq/act_java_ko.c line 574 function init thread 0
----------------------------------------------------
  t=0 (00000000000000000000000000000000)

State 64 file input/c/c_seq/act_java_ko.c line 574 function init thread 0
----------------------------------------------------
  id=2 (00000000000000000000000000000010)

State 65 file input/c/c_seq/act_java_ko.c line 21 function create thread 0
----------------------------------------------------
  active[2]=1 (00000000000000000000000000000001)

State 66 file input/c/c_seq/act_java_ko.c line 22 function create thread 0
----------------------------------------------------
  t=2 (00000000000000000000000000000010)

State 70 file input/c/c_seq/act_java_ko.c line 575 function init thread 0
----------------------------------------------------
  t=0 (00000000000000000000000000000000)

State 71 file input/c/c_seq/act_java_ko.c line 575 function init thread 0
----------------------------------------------------
  id=3 (00000000000000000000000000000011)

State 72 file input/c/c_seq/act_java_ko.c line 21 function create thread 0
----------------------------------------------------
  active[3]=1 (00000000000000000000000000000001)

State 73 file input/c/c_seq/act_java_ko.c line 22 function create thread 0
----------------------------------------------------
  t=3 (00000000000000000000000000000011)

State 76 file input/c/c_seq/act_java_ko.c line 582 function main thread 0
----------------------------------------------------
  ct=1 (00000000000000000000000000000001)

State 78 file input/c/c_seq/act_java_ko.c line 584 function main thread 0
----------------------------------------------------
  cs=0 (00000000000000000000000000000000)

State 121 file input/c/c_seq/act_java_ko.c line 587 function main thread 0
----------------------------------------------------
  pc[1]=0 (00000000000000000000000000000000)

State 122 file input/c/c_seq/act_java_ko.c line 588 function main thread 0
----------------------------------------------------
  active[1]=1 (00000000000000000000000000000001)

State 123 file input/c/c_seq/act_java_ko.c line 589 function main thread 0
----------------------------------------------------
  dead=0 (00000000000000000000000000000000)

State 124 file input/c/c_seq/act_java_ko.c line 592 function main thread 0
----------------------------------------------------
  ct=2 (00000000000000000000000000000010)

State 126 file input/c/c_seq/act_java_ko.c line 594 function main thread 0
----------------------------------------------------
  cs=1 (00000000000000000000000000000001)

State 135 file input/c/c_seq/act_java_ko.c line 241 function t_two thread 0
----------------------------------------------------
  i=1 (00000000000000000000000000000001)

State 170 file input/c/c_seq/act_java_ko.c line 597 function main thread 0
----------------------------------------------------
  pc[2]=1 (00000000000000000000000000000001)

State 171 file input/c/c_seq/act_java_ko.c line 598 function main thread 0
----------------------------------------------------
  active[2]=1 (00000000000000000000000000000001)

State 172 file input/c/c_seq/act_java_ko.c line 599 function main thread 0
----------------------------------------------------
  dead=0 (00000000000000000000000000000000)

State 173 file input/c/c_seq/act_java_ko.c line 602 function main thread 0
----------------------------------------------------
  ct=3 (00000000000000000000000000000011)

State 175 file input/c/c_seq/act_java_ko.c line 604 function main thread 0
----------------------------------------------------
  cs=7 (00000000000000000000000000000111)

State 184 file input/c/c_seq/act_java_ko.c line 404 function t_three thread 0
----------------------------------------------------
  i=1 (00000000000000000000000000000001)

State 186 file input/c/c_seq/act_java_ko.c line 406 function t_three thread 0
----------------------------------------------------
  MyClaim=4 (00000000000000000000000000000100)

State 188 file input/c/c_seq/act_java_ko.c line 409 function t_three thread 0
----------------------------------------------------
  y=4 (00000000000000000000000000000100)

State 191 file input/c/c_seq/act_java_ko.c line 421 function t_three thread 0
----------------------------------------------------
  stock=18 (00000000000000000000000000010010)

State 222 file input/c/c_seq/act_java_ko.c line 607 function main thread 0
----------------------------------------------------
  pc[3]=7 (00000000000000000000000000000111)

State 223 file input/c/c_seq/act_java_ko.c line 608 function main thread 0
----------------------------------------------------
  active[3]=1 (00000000000000000000000000000001)

State 224 file input/c/c_seq/act_java_ko.c line 609 function main thread 0
----------------------------------------------------
  dead=0 (00000000000000000000000000000000)

State 227 file input/c/c_seq/act_java_ko.c line 582 function main thread 0
----------------------------------------------------
  ct=1 (00000000000000000000000000000001)

State 229 file input/c/c_seq/act_java_ko.c line 584 function main thread 0
----------------------------------------------------
  cs=15 (00000000000000000000000000001111)

State 238 file input/c/c_seq/act_java_ko.c line 77 function t_one thread 0
----------------------------------------------------
  i=1 (00000000000000000000000000000001)

State 240 file input/c/c_seq/act_java_ko.c line 79 function t_one thread 0
----------------------------------------------------
  MyClaim=4 (00000000000000000000000000000100)

State 242 file input/c/c_seq/act_java_ko.c line 82 function t_one thread 0
----------------------------------------------------
  y=4 (00000000000000000000000000000100)

State 245 file input/c/c_seq/act_java_ko.c line 94 function t_one thread 0
----------------------------------------------------
  stock=14 (00000000000000000000000000001110)

State 249 file input/c/c_seq/act_java_ko.c line 110 function t_one thread 0
----------------------------------------------------
  FullAllocation=4 (00000000000000000000000000000100)

State 251 file input/c/c_seq/act_java_ko.c line 112 function t_one thread 0
----------------------------------------------------
  i=2 (00000000000000000000000000000010)

State 253 file input/c/c_seq/act_java_ko.c line 114 function t_one thread 0
----------------------------------------------------
  MyClaim=3 (00000000000000000000000000000011)

State 255 file input/c/c_seq/act_java_ko.c line 117 function t_one thread 0
----------------------------------------------------
  y=3 (00000000000000000000000000000011)

State 258 file input/c/c_seq/act_java_ko.c line 129 function t_one thread 0
----------------------------------------------------
  stock=11 (00000000000000000000000000001011)

State 281 file input/c/c_seq/act_java_ko.c line 587 function main thread 0
----------------------------------------------------
  pc[1]=15 (00000000000000000000000000001111)

State 282 file input/c/c_seq/act_java_ko.c line 588 function main thread 0
----------------------------------------------------
  active[1]=1 (00000000000000000000000000000001)

State 283 file input/c/c_seq/act_java_ko.c line 589 function main thread 0
----------------------------------------------------
  dead=0 (00000000000000000000000000000000)

State 284 file input/c/c_seq/act_java_ko.c line 592 function main thread 0
----------------------------------------------------
  ct=2 (00000000000000000000000000000010)

State 286 file input/c/c_seq/act_java_ko.c line 594 function main thread 0
----------------------------------------------------
  cs=1 (00000000000000000000000000000001)

State 329 file input/c/c_seq/act_java_ko.c line 597 function main thread 0
----------------------------------------------------
  pc[2]=1 (00000000000000000000000000000001)

State 330 file input/c/c_seq/act_java_ko.c line 598 function main thread 0
----------------------------------------------------
  active[2]=1 (00000000000000000000000000000001)

State 331 file input/c/c_seq/act_java_ko.c line 599 function main thread 0
----------------------------------------------------
  dead=0 (00000000000000000000000000000000)

State 332 file input/c/c_seq/act_java_ko.c line 602 function main thread 0
----------------------------------------------------
  ct=3 (00000000000000000000000000000011)

State 334 file input/c/c_seq/act_java_ko.c line 604 function main thread 0
----------------------------------------------------
  cs=15 (00000000000000000000000000001111)

State 350 file input/c/c_seq/act_java_ko.c line 437 function t_three thread 0
----------------------------------------------------
  FullAllocation=4 (00000000000000000000000000000100)

State 352 file input/c/c_seq/act_java_ko.c line 439 function t_three thread 0
----------------------------------------------------
  i=2 (00000000000000000000000000000010)

State 354 file input/c/c_seq/act_java_ko.c line 441 function t_three thread 0
----------------------------------------------------
  MyClaim=3 (00000000000000000000000000000011)

State 356 file input/c/c_seq/act_java_ko.c line 444 function t_three thread 0
----------------------------------------------------
  y=3 (00000000000000000000000000000011)

State 359 file input/c/c_seq/act_java_ko.c line 456 function t_three thread 0
----------------------------------------------------
  stock=8 (00000000000000000000000000001000)

State 382 file input/c/c_seq/act_java_ko.c line 607 function main thread 0
----------------------------------------------------
  pc[3]=15 (00000000000000000000000000001111)

State 383 file input/c/c_seq/act_java_ko.c line 608 function main thread 0
----------------------------------------------------
  active[3]=1 (00000000000000000000000000000001)

State 384 file input/c/c_seq/act_java_ko.c line 609 function main thread 0
----------------------------------------------------
  dead=0 (00000000000000000000000000000000)

State 387 file input/c/c_seq/act_java_ko.c line 582 function main thread 0
----------------------------------------------------
  ct=1 (00000000000000000000000000000001)

State 389 file input/c/c_seq/act_java_ko.c line 584 function main thread 0
----------------------------------------------------
  cs=33 (00000000000000000000000000100001)

State 413 file input/c/c_seq/act_java_ko.c line 145 function t_one thread 0
----------------------------------------------------
  FullAllocation=7 (00000000000000000000000000000111)

State 415 file input/c/c_seq/act_java_ko.c line 147 function t_one thread 0
----------------------------------------------------
  i=3 (00000000000000000000000000000011)

State 417 file input/c/c_seq/act_java_ko.c line 149 function t_one thread 0
----------------------------------------------------
  MyClaim=2 (00000000000000000000000000000010)

State 419 file input/c/c_seq/act_java_ko.c line 152 function t_one thread 0
----------------------------------------------------
  y=2 (00000000000000000000000000000010)

State 422 file input/c/c_seq/act_java_ko.c line 164 function t_one thread 0
----------------------------------------------------
  stock=6 (00000000000000000000000000000110)

State 426 file input/c/c_seq/act_java_ko.c line 180 function t_one thread 0
----------------------------------------------------
  FullAllocation=9 (00000000000000000000000000001001)

State 428 file input/c/c_seq/act_java_ko.c line 182 function t_one thread 0
----------------------------------------------------
  i=4 (00000000000000000000000000000100)

State 430 file input/c/c_seq/act_java_ko.c line 184 function t_one thread 0
----------------------------------------------------
  MyClaim=1 (00000000000000000000000000000001)

State 432 file input/c/c_seq/act_java_ko.c line 187 function t_one thread 0
----------------------------------------------------
  y=1 (00000000000000000000000000000001)

State 435 file input/c/c_seq/act_java_ko.c line 199 function t_one thread 0
----------------------------------------------------
  stock=5 (00000000000000000000000000000101)

State 439 file input/c/c_seq/act_java_ko.c line 215 function t_one thread 0
----------------------------------------------------
  FullAllocation=10 (00000000000000000000000000001010)

State 441 file input/c/c_seq/act_java_ko.c line 220 function t_one thread 0
----------------------------------------------------
  y=10 (00000000000000000000000000001010)

State 442 file input/c/c_seq/act_java_ko.c line 221 function t_one thread 0
----------------------------------------------------
  stock=15 (00000000000000000000000000001111)

State 445 file input/c/c_seq/act_java_ko.c line 587 function main thread 0
----------------------------------------------------
  pc[1]=33 (00000000000000000000000000100001)

State 446 file input/c/c_seq/act_java_ko.c line 588 function main thread 0
----------------------------------------------------
  active[1]=0 (00000000000000000000000000000000)

State 447 file input/c/c_seq/act_java_ko.c line 589 function main thread 0
----------------------------------------------------
  dead=1 (00000000000000000000000000000001)

State 448 file input/c/c_seq/act_java_ko.c line 592 function main thread 0
----------------------------------------------------
  ct=2 (00000000000000000000000000000010)

State 450 file input/c/c_seq/act_java_ko.c line 594 function main thread 0
----------------------------------------------------
  cs=33 (00000000000000000000000000100001)

State 460 file input/c/c_seq/act_java_ko.c line 243 function t_two thread 0
----------------------------------------------------
  MyClaim=4 (00000000000000000000000000000100)

State 462 file input/c/c_seq/act_java_ko.c line 246 function t_two thread 0
----------------------------------------------------
  y=4 (00000000000000000000000000000100)

State 465 file input/c/c_seq/act_java_ko.c line 258 function t_two thread 0
----------------------------------------------------
  stock=11 (00000000000000000000000000001011)

State 469 file input/c/c_seq/act_java_ko.c line 274 function t_two thread 0
----------------------------------------------------
  FullAllocation=4 (00000000000000000000000000000100)

State 471 file input/c/c_seq/act_java_ko.c line 276 function t_two thread 0
----------------------------------------------------
  i=2 (00000000000000000000000000000010)

State 473 file input/c/c_seq/act_java_ko.c line 278 function t_two thread 0
----------------------------------------------------
  MyClaim=3 (00000000000000000000000000000011)

State 475 file input/c/c_seq/act_java_ko.c line 281 function t_two thread 0
----------------------------------------------------
  y=3 (00000000000000000000000000000011)

State 478 file input/c/c_seq/act_java_ko.c line 293 function t_two thread 0
----------------------------------------------------
  stock=8 (00000000000000000000000000001000)

State 482 file input/c/c_seq/act_java_ko.c line 309 function t_two thread 0
----------------------------------------------------
  FullAllocation=7 (00000000000000000000000000000111)

State 484 file input/c/c_seq/act_java_ko.c line 311 function t_two thread 0
----------------------------------------------------
  i=3 (00000000000000000000000000000011)

State 486 file input/c/c_seq/act_java_ko.c line 313 function t_two thread 0
----------------------------------------------------
  MyClaim=2 (00000000000000000000000000000010)

State 488 file input/c/c_seq/act_java_ko.c line 316 function t_two thread 0
----------------------------------------------------
  y=2 (00000000000000000000000000000010)

State 491 file input/c/c_seq/act_java_ko.c line 328 function t_two thread 0
----------------------------------------------------
  stock=6 (00000000000000000000000000000110)

State 495 file input/c/c_seq/act_java_ko.c line 344 function t_two thread 0
----------------------------------------------------
  FullAllocation=9 (00000000000000000000000000001001)

State 497 file input/c/c_seq/act_java_ko.c line 346 function t_two thread 0
----------------------------------------------------
  i=4 (00000000000000000000000000000100)

State 499 file input/c/c_seq/act_java_ko.c line 348 function t_two thread 0
----------------------------------------------------
  MyClaim=1 (00000000000000000000000000000001)

State 501 file input/c/c_seq/act_java_ko.c line 351 function t_two thread 0
----------------------------------------------------
  y=1 (00000000000000000000000000000001)

State 504 file input/c/c_seq/act_java_ko.c line 363 function t_two thread 0
----------------------------------------------------
  stock=5 (00000000000000000000000000000101)

State 508 file input/c/c_seq/act_java_ko.c line 379 function t_two thread 0
----------------------------------------------------
  FullAllocation=10 (00000000000000000000000000001010)

State 510 file input/c/c_seq/act_java_ko.c line 384 function t_two thread 0
----------------------------------------------------
  y=10 (00000000000000000000000000001010)

State 511 file input/c/c_seq/act_java_ko.c line 385 function t_two thread 0
----------------------------------------------------
  stock=15 (00000000000000000000000000001111)

State 514 file input/c/c_seq/act_java_ko.c line 597 function main thread 0
----------------------------------------------------
  pc[2]=33 (00000000000000000000000000100001)

State 515 file input/c/c_seq/act_java_ko.c line 598 function main thread 0
----------------------------------------------------
  active[2]=0 (00000000000000000000000000000000)

State 516 file input/c/c_seq/act_java_ko.c line 599 function main thread 0
----------------------------------------------------
  dead=2 (00000000000000000000000000000010)

State 517 file input/c/c_seq/act_java_ko.c line 602 function main thread 0
----------------------------------------------------
  ct=3 (00000000000000000000000000000011)

State 519 file input/c/c_seq/act_java_ko.c line 604 function main thread 0
----------------------------------------------------
  cs=33 (00000000000000000000000000100001)

State 543 file input/c/c_seq/act_java_ko.c line 472 function t_three thread 0
----------------------------------------------------
  FullAllocation=7 (00000000000000000000000000000111)

State 545 file input/c/c_seq/act_java_ko.c line 474 function t_three thread 0
----------------------------------------------------
  i=3 (00000000000000000000000000000011)

State 547 file input/c/c_seq/act_java_ko.c line 476 function t_three thread 0
----------------------------------------------------
  MyClaim=2 (00000000000000000000000000000010)

State 549 file input/c/c_seq/act_java_ko.c line 479 function t_three thread 0
----------------------------------------------------
  y=2 (00000000000000000000000000000010)

State 552 file input/c/c_seq/act_java_ko.c line 491 function t_three thread 0
----------------------------------------------------
  stock=13 (00000000000000000000000000001101)

State 556 file input/c/c_seq/act_java_ko.c line 507 function t_three thread 0
----------------------------------------------------
  FullAllocation=9 (00000000000000000000000000001001)

State 558 file input/c/c_seq/act_java_ko.c line 509 function t_three thread 0
----------------------------------------------------
  i=4 (00000000000000000000000000000100)

State 560 file input/c/c_seq/act_java_ko.c line 511 function t_three thread 0
----------------------------------------------------
  MyClaim=1 (00000000000000000000000000000001)

State 562 file input/c/c_seq/act_java_ko.c line 514 function t_three thread 0
----------------------------------------------------
  y=1 (00000000000000000000000000000001)

State 565 file input/c/c_seq/act_java_ko.c line 526 function t_three thread 0
----------------------------------------------------
  stock=12 (00000000000000000000000000001100)

State 569 file input/c/c_seq/act_java_ko.c line 542 function t_three thread 0
----------------------------------------------------
  FullAllocation=10 (00000000000000000000000000001010)

State 571 file input/c/c_seq/act_java_ko.c line 547 function t_three thread 0
----------------------------------------------------
  y=10 (00000000000000000000000000001010)

State 572 file input/c/c_seq/act_java_ko.c line 548 function t_three thread 0
----------------------------------------------------
  stock=22 (00000000000000000000000000010110)

State 575 file input/c/c_seq/act_java_ko.c line 607 function main thread 0
----------------------------------------------------
  pc[3]=33 (00000000000000000000000000100001)

State 576 file input/c/c_seq/act_java_ko.c line 608 function main thread 0
----------------------------------------------------
  active[3]=0 (00000000000000000000000000000000)

State 577 file input/c/c_seq/act_java_ko.c line 609 function main thread 0
----------------------------------------------------
  dead=3 (00000000000000000000000000000011)

Violated property:
  file input/c/c_seq/act_java_ko.c line 613 function main
  OK
  0 != 0

VERIFICATION FAILED

real	0m23.771s
user	0m23.515s
sys	0m0.237s
