CBMC version 5.4 64-bit x86_64 macos
Parsing input/c/c_seq/act_java_ko.c
Converting
Type-checking act_java_ko
file input/c/c_seq/act_java_ko.c line 584 function main: function `nondet_uint' is not declared
Generating GOTO Program
Adding CPROVER library (x86_64)
Function Pointer Removal
Partial Inlining
Generic Property Instrumentation
Starting Bounded Model Checking
Unwinding loop main.0 iteration 1 (19 max) file input/c/c_seq/act_java_ko.c line 581 function main thread 0
Unwinding loop main.0 iteration 2 (19 max) file input/c/c_seq/act_java_ko.c line 581 function main thread 0
Unwinding loop main.0 iteration 3 (19 max) file input/c/c_seq/act_java_ko.c line 581 function main thread 0
Unwinding loop main.0 iteration 4 (19 max) file input/c/c_seq/act_java_ko.c line 581 function main thread 0
Unwinding loop main.0 iteration 5 (19 max) file input/c/c_seq/act_java_ko.c line 581 function main thread 0
Unwinding loop main.0 iteration 6 (19 max) file input/c/c_seq/act_java_ko.c line 581 function main thread 0
Unwinding loop main.0 iteration 7 (19 max) file input/c/c_seq/act_java_ko.c line 581 function main thread 0
Unwinding loop main.0 iteration 8 (19 max) file input/c/c_seq/act_java_ko.c line 581 function main thread 0
Unwinding loop main.0 iteration 9 (19 max) file input/c/c_seq/act_java_ko.c line 581 function main thread 0
Unwinding loop main.0 iteration 10 (19 max) file input/c/c_seq/act_java_ko.c line 581 function main thread 0
Unwinding loop main.0 iteration 11 (19 max) file input/c/c_seq/act_java_ko.c line 581 function main thread 0
Unwinding loop main.0 iteration 12 (19 max) file input/c/c_seq/act_java_ko.c line 581 function main thread 0
Unwinding loop main.0 iteration 13 (19 max) file input/c/c_seq/act_java_ko.c line 581 function main thread 0
Unwinding loop main.0 iteration 14 (19 max) file input/c/c_seq/act_java_ko.c line 581 function main thread 0
Unwinding loop main.0 iteration 15 (19 max) file input/c/c_seq/act_java_ko.c line 581 function main thread 0
Unwinding loop main.0 iteration 16 (19 max) file input/c/c_seq/act_java_ko.c line 581 function main thread 0
Unwinding loop main.0 iteration 17 (19 max) file input/c/c_seq/act_java_ko.c line 581 function main thread 0
Unwinding loop main.0 iteration 18 (19 max) file input/c/c_seq/act_java_ko.c line 581 function main thread 0
Not unwinding loop main.0 iteration 19 (19 max) file input/c/c_seq/act_java_ko.c line 581 function main thread 0
size of program expression: 18095 steps
simple slicing removed 3 assignments
Generated 475 VCC(s), 475 remaining after simplification
Passing problem to propositional reduction
converting SSA
Running propositional reduction
Post-processing
Solving with MiniSAT 2.2.1 with simplifier
639909 variables, 2917973 clauses
SAT checker: instance is SATISFIABLE
Runtime decision procedure: 123.701s
Building error trace

Counterexample:

State 41 file input/c/c_seq/act_java_ko.c line 560 function init thread 0
----------------------------------------------------
  pc[0]=0 (00000000000000000000000000000000)

State 42 file input/c/c_seq/act_java_ko.c line 561 function init thread 0
----------------------------------------------------
  size[0]=0 (00000000000000000000000000000000)

State 43 file input/c/c_seq/act_java_ko.c line 563 function init thread 0
----------------------------------------------------
  pc[1]=0 (00000000000000000000000000000000)

State 44 file input/c/c_seq/act_java_ko.c line 564 function init thread 0
----------------------------------------------------
  pc[2]=0 (00000000000000000000000000000000)

State 45 file input/c/c_seq/act_java_ko.c line 565 function init thread 0
----------------------------------------------------
  pc[3]=0 (00000000000000000000000000000000)

State 46 file input/c/c_seq/act_java_ko.c line 566 function init thread 0
----------------------------------------------------
  ssize=0 (00000000000000000000000000000000)

State 47 file input/c/c_seq/act_java_ko.c line 566 function init thread 0
----------------------------------------------------
  ssize=33 (00000000000000000000000000100001)

State 48 file input/c/c_seq/act_java_ko.c line 567 function init thread 0
----------------------------------------------------
  size[1]=33 (00000000000000000000000000100001)

State 49 file input/c/c_seq/act_java_ko.c line 568 function init thread 0
----------------------------------------------------
  size[2]=33 (00000000000000000000000000100001)

State 50 file input/c/c_seq/act_java_ko.c line 569 function init thread 0
----------------------------------------------------
  size[3]=33 (00000000000000000000000000100001)

State 51 file input/c/c_seq/act_java_ko.c line 571 function init thread 0
----------------------------------------------------
  t1=0 (00000000000000000000000000000000)

State 52 file input/c/c_seq/act_java_ko.c line 571 function init thread 0
----------------------------------------------------
  t2=0 (00000000000000000000000000000000)

State 53 file input/c/c_seq/act_java_ko.c line 571 function init thread 0
----------------------------------------------------
  t3=0 (00000000000000000000000000000000)

State 56 file input/c/c_seq/act_java_ko.c line 573 function init thread 0
----------------------------------------------------
  t=0 (00000000000000000000000000000000)

State 57 file input/c/c_seq/act_java_ko.c line 573 function init thread 0
----------------------------------------------------
  id=1 (00000000000000000000000000000001)

State 58 file input/c/c_seq/act_java_ko.c line 21 function create thread 0
----------------------------------------------------
  active[1]=1 (00000000000000000000000000000001)

State 59 file input/c/c_seq/act_java_ko.c line 22 function create thread 0
----------------------------------------------------
  t=1 (00000000000000000000000000000001)

State 63 file input/c/c_seq/act_java_ko.c line 574 function init thread 0
----------------------------------------------------
  t=0 (00000000000000000000000000000000)

State 64 file input/c/c_seq/act_java_ko.c line 574 function init thread 0
----------------------------------------------------
  id=2 (00000000000000000000000000000010)

State 65 file input/c/c_seq/act_java_ko.c line 21 function create thread 0
----------------------------------------------------
  active[2]=1 (00000000000000000000000000000001)

State 66 file input/c/c_seq/act_java_ko.c line 22 function create thread 0
----------------------------------------------------
  t=2 (00000000000000000000000000000010)

State 70 file input/c/c_seq/act_java_ko.c line 575 function init thread 0
----------------------------------------------------
  t=0 (00000000000000000000000000000000)

State 71 file input/c/c_seq/act_java_ko.c line 575 function init thread 0
----------------------------------------------------
  id=3 (00000000000000000000000000000011)

State 72 file input/c/c_seq/act_java_ko.c line 21 function create thread 0
----------------------------------------------------
  active[3]=1 (00000000000000000000000000000001)

State 73 file input/c/c_seq/act_java_ko.c line 22 function create thread 0
----------------------------------------------------
  t=3 (00000000000000000000000000000011)

State 76 file input/c/c_seq/act_java_ko.c line 582 function main thread 0
----------------------------------------------------
  ct=1 (00000000000000000000000000000001)

State 78 file input/c/c_seq/act_java_ko.c line 584 function main thread 0
----------------------------------------------------
  cs=32 (00000000000000000000000000100000)

State 87 file input/c/c_seq/act_java_ko.c line 77 function t_one thread 0
----------------------------------------------------
  i=1 (00000000000000000000000000000001)

State 89 file input/c/c_seq/act_java_ko.c line 79 function t_one thread 0
----------------------------------------------------
  MyClaim=4 (00000000000000000000000000000100)

State 91 file input/c/c_seq/act_java_ko.c line 82 function t_one thread 0
----------------------------------------------------
  y=4 (00000000000000000000000000000100)

State 94 file input/c/c_seq/act_java_ko.c line 94 function t_one thread 0
----------------------------------------------------
  stock=18 (00000000000000000000000000010010)

State 98 file input/c/c_seq/act_java_ko.c line 110 function t_one thread 0
----------------------------------------------------
  FullAllocation=4 (00000000000000000000000000000100)

State 100 file input/c/c_seq/act_java_ko.c line 112 function t_one thread 0
----------------------------------------------------
  i=2 (00000000000000000000000000000010)

State 102 file input/c/c_seq/act_java_ko.c line 114 function t_one thread 0
----------------------------------------------------
  MyClaim=3 (00000000000000000000000000000011)

State 104 file input/c/c_seq/act_java_ko.c line 117 function t_one thread 0
----------------------------------------------------
  y=3 (00000000000000000000000000000011)

State 107 file input/c/c_seq/act_java_ko.c line 129 function t_one thread 0
----------------------------------------------------
  stock=15 (00000000000000000000000000001111)

State 111 file input/c/c_seq/act_java_ko.c line 145 function t_one thread 0
----------------------------------------------------
  FullAllocation=7 (00000000000000000000000000000111)

State 113 file input/c/c_seq/act_java_ko.c line 147 function t_one thread 0
----------------------------------------------------
  i=3 (00000000000000000000000000000011)

State 115 file input/c/c_seq/act_java_ko.c line 149 function t_one thread 0
----------------------------------------------------
  MyClaim=2 (00000000000000000000000000000010)

State 117 file input/c/c_seq/act_java_ko.c line 152 function t_one thread 0
----------------------------------------------------
  y=2 (00000000000000000000000000000010)

State 120 file input/c/c_seq/act_java_ko.c line 164 function t_one thread 0
----------------------------------------------------
  stock=13 (00000000000000000000000000001101)

State 124 file input/c/c_seq/act_java_ko.c line 180 function t_one thread 0
----------------------------------------------------
  FullAllocation=9 (00000000000000000000000000001001)

State 126 file input/c/c_seq/act_java_ko.c line 182 function t_one thread 0
----------------------------------------------------
  i=4 (00000000000000000000000000000100)

State 128 file input/c/c_seq/act_java_ko.c line 184 function t_one thread 0
----------------------------------------------------
  MyClaim=1 (00000000000000000000000000000001)

State 130 file input/c/c_seq/act_java_ko.c line 187 function t_one thread 0
----------------------------------------------------
  y=1 (00000000000000000000000000000001)

State 133 file input/c/c_seq/act_java_ko.c line 199 function t_one thread 0
----------------------------------------------------
  stock=12 (00000000000000000000000000001100)

State 137 file input/c/c_seq/act_java_ko.c line 215 function t_one thread 0
----------------------------------------------------
  FullAllocation=10 (00000000000000000000000000001010)

State 141 file input/c/c_seq/act_java_ko.c line 587 function main thread 0
----------------------------------------------------
  pc[1]=32 (00000000000000000000000000100000)

State 142 file input/c/c_seq/act_java_ko.c line 588 function main thread 0
----------------------------------------------------
  active[1]=1 (00000000000000000000000000000001)

State 143 file input/c/c_seq/act_java_ko.c line 589 function main thread 0
----------------------------------------------------
  dead=0 (00000000000000000000000000000000)

State 144 file input/c/c_seq/act_java_ko.c line 592 function main thread 0
----------------------------------------------------
  ct=2 (00000000000000000000000000000010)

State 146 file input/c/c_seq/act_java_ko.c line 594 function main thread 0
----------------------------------------------------
  cs=10 (00000000000000000000000000001010)

State 155 file input/c/c_seq/act_java_ko.c line 241 function t_two thread 0
----------------------------------------------------
  i=1 (00000000000000000000000000000001)

State 157 file input/c/c_seq/act_java_ko.c line 243 function t_two thread 0
----------------------------------------------------
  MyClaim=4 (00000000000000000000000000000100)

State 159 file input/c/c_seq/act_java_ko.c line 246 function t_two thread 0
----------------------------------------------------
  y=4 (00000000000000000000000000000100)

State 162 file input/c/c_seq/act_java_ko.c line 258 function t_two thread 0
----------------------------------------------------
  stock=8 (00000000000000000000000000001000)

State 166 file input/c/c_seq/act_java_ko.c line 274 function t_two thread 0
----------------------------------------------------
  FullAllocation=4 (00000000000000000000000000000100)

State 168 file input/c/c_seq/act_java_ko.c line 276 function t_two thread 0
----------------------------------------------------
  i=2 (00000000000000000000000000000010)

State 170 file input/c/c_seq/act_java_ko.c line 278 function t_two thread 0
----------------------------------------------------
  MyClaim=3 (00000000000000000000000000000011)

State 196 file input/c/c_seq/act_java_ko.c line 597 function main thread 0
----------------------------------------------------
  pc[2]=10 (00000000000000000000000000001010)

State 197 file input/c/c_seq/act_java_ko.c line 598 function main thread 0
----------------------------------------------------
  active[2]=1 (00000000000000000000000000000001)

State 198 file input/c/c_seq/act_java_ko.c line 599 function main thread 0
----------------------------------------------------
  dead=0 (00000000000000000000000000000000)

State 199 file input/c/c_seq/act_java_ko.c line 602 function main thread 0
----------------------------------------------------
  ct=3 (00000000000000000000000000000011)

State 201 file input/c/c_seq/act_java_ko.c line 604 function main thread 0
----------------------------------------------------
  cs=18 (00000000000000000000000000010010)

State 210 file input/c/c_seq/act_java_ko.c line 404 function t_three thread 0
----------------------------------------------------
  i=1 (00000000000000000000000000000001)

State 212 file input/c/c_seq/act_java_ko.c line 406 function t_three thread 0
----------------------------------------------------
  MyClaim=4 (00000000000000000000000000000100)

State 214 file input/c/c_seq/act_java_ko.c line 409 function t_three thread 0
----------------------------------------------------
  y=4 (00000000000000000000000000000100)

State 217 file input/c/c_seq/act_java_ko.c line 421 function t_three thread 0
----------------------------------------------------
  stock=4 (00000000000000000000000000000100)

State 221 file input/c/c_seq/act_java_ko.c line 437 function t_three thread 0
----------------------------------------------------
  FullAllocation=4 (00000000000000000000000000000100)

State 223 file input/c/c_seq/act_java_ko.c line 439 function t_three thread 0
----------------------------------------------------
  i=2 (00000000000000000000000000000010)

State 225 file input/c/c_seq/act_java_ko.c line 441 function t_three thread 0
----------------------------------------------------
  MyClaim=3 (00000000000000000000000000000011)

State 227 file input/c/c_seq/act_java_ko.c line 444 function t_three thread 0
----------------------------------------------------
  y=3 (00000000000000000000000000000011)

State 230 file input/c/c_seq/act_java_ko.c line 456 function t_three thread 0
----------------------------------------------------
  stock=1 (00000000000000000000000000000001)

State 234 file input/c/c_seq/act_java_ko.c line 472 function t_three thread 0
----------------------------------------------------
  FullAllocation=7 (00000000000000000000000000000111)

State 236 file input/c/c_seq/act_java_ko.c line 474 function t_three thread 0
----------------------------------------------------
  i=3 (00000000000000000000000000000011)

State 238 file input/c/c_seq/act_java_ko.c line 476 function t_three thread 0
----------------------------------------------------
  MyClaim=2 (00000000000000000000000000000010)

State 256 file input/c/c_seq/act_java_ko.c line 607 function main thread 0
----------------------------------------------------
  pc[3]=18 (00000000000000000000000000010010)

State 257 file input/c/c_seq/act_java_ko.c line 608 function main thread 0
----------------------------------------------------
  active[3]=1 (00000000000000000000000000000001)

State 258 file input/c/c_seq/act_java_ko.c line 609 function main thread 0
----------------------------------------------------
  dead=0 (00000000000000000000000000000000)

State 261 file input/c/c_seq/act_java_ko.c line 582 function main thread 0
----------------------------------------------------
  ct=1 (00000000000000000000000000000001)

State 263 file input/c/c_seq/act_java_ko.c line 584 function main thread 0
----------------------------------------------------
  cs=33 (00000000000000000000000000100001)

State 304 file input/c/c_seq/act_java_ko.c line 220 function t_one thread 0
----------------------------------------------------
  y=10 (00000000000000000000000000001010)

State 305 file input/c/c_seq/act_java_ko.c line 221 function t_one thread 0
----------------------------------------------------
  stock=11 (00000000000000000000000000001011)

State 308 file input/c/c_seq/act_java_ko.c line 587 function main thread 0
----------------------------------------------------
  pc[1]=33 (00000000000000000000000000100001)

State 309 file input/c/c_seq/act_java_ko.c line 588 function main thread 0
----------------------------------------------------
  active[1]=0 (00000000000000000000000000000000)

State 310 file input/c/c_seq/act_java_ko.c line 589 function main thread 0
----------------------------------------------------
  dead=1 (00000000000000000000000000000001)

State 311 file input/c/c_seq/act_java_ko.c line 592 function main thread 0
----------------------------------------------------
  ct=2 (00000000000000000000000000000010)

State 313 file input/c/c_seq/act_java_ko.c line 594 function main thread 0
----------------------------------------------------
  cs=31 (00000000000000000000000000011111)

State 332 file input/c/c_seq/act_java_ko.c line 281 function t_two thread 0
----------------------------------------------------
  y=3 (00000000000000000000000000000011)

State 335 file input/c/c_seq/act_java_ko.c line 293 function t_two thread 0
----------------------------------------------------
  stock=8 (00000000000000000000000000001000)

State 339 file input/c/c_seq/act_java_ko.c line 309 function t_two thread 0
----------------------------------------------------
  FullAllocation=7 (00000000000000000000000000000111)

State 341 file input/c/c_seq/act_java_ko.c line 311 function t_two thread 0
----------------------------------------------------
  i=3 (00000000000000000000000000000011)

State 343 file input/c/c_seq/act_java_ko.c line 313 function t_two thread 0
----------------------------------------------------
  MyClaim=2 (00000000000000000000000000000010)

State 345 file input/c/c_seq/act_java_ko.c line 316 function t_two thread 0
----------------------------------------------------
  y=2 (00000000000000000000000000000010)

State 348 file input/c/c_seq/act_java_ko.c line 328 function t_two thread 0
----------------------------------------------------
  stock=6 (00000000000000000000000000000110)

State 352 file input/c/c_seq/act_java_ko.c line 344 function t_two thread 0
----------------------------------------------------
  FullAllocation=9 (00000000000000000000000000001001)

State 354 file input/c/c_seq/act_java_ko.c line 346 function t_two thread 0
----------------------------------------------------
  i=4 (00000000000000000000000000000100)

State 356 file input/c/c_seq/act_java_ko.c line 348 function t_two thread 0
----------------------------------------------------
  MyClaim=1 (00000000000000000000000000000001)

State 358 file input/c/c_seq/act_java_ko.c line 351 function t_two thread 0
----------------------------------------------------
  y=1 (00000000000000000000000000000001)

State 361 file input/c/c_seq/act_java_ko.c line 363 function t_two thread 0
----------------------------------------------------
  stock=5 (00000000000000000000000000000101)

State 368 file input/c/c_seq/act_java_ko.c line 597 function main thread 0
----------------------------------------------------
  pc[2]=31 (00000000000000000000000000011111)

State 369 file input/c/c_seq/act_java_ko.c line 598 function main thread 0
----------------------------------------------------
  active[2]=1 (00000000000000000000000000000001)

State 370 file input/c/c_seq/act_java_ko.c line 599 function main thread 0
----------------------------------------------------
  dead=1 (00000000000000000000000000000001)

State 371 file input/c/c_seq/act_java_ko.c line 602 function main thread 0
----------------------------------------------------
  ct=3 (00000000000000000000000000000011)

State 373 file input/c/c_seq/act_java_ko.c line 604 function main thread 0
----------------------------------------------------
  cs=32 (00000000000000000000000000100000)

State 400 file input/c/c_seq/act_java_ko.c line 479 function t_three thread 0
----------------------------------------------------
  y=2 (00000000000000000000000000000010)

State 403 file input/c/c_seq/act_java_ko.c line 491 function t_three thread 0
----------------------------------------------------
  stock=3 (00000000000000000000000000000011)

State 407 file input/c/c_seq/act_java_ko.c line 507 function t_three thread 0
----------------------------------------------------
  FullAllocation=9 (00000000000000000000000000001001)

State 409 file input/c/c_seq/act_java_ko.c line 509 function t_three thread 0
----------------------------------------------------
  i=4 (00000000000000000000000000000100)

State 411 file input/c/c_seq/act_java_ko.c line 511 function t_three thread 0
----------------------------------------------------
  MyClaim=1 (00000000000000000000000000000001)

State 413 file input/c/c_seq/act_java_ko.c line 514 function t_three thread 0
----------------------------------------------------
  y=1 (00000000000000000000000000000001)

State 416 file input/c/c_seq/act_java_ko.c line 526 function t_three thread 0
----------------------------------------------------
  stock=2 (00000000000000000000000000000010)

State 420 file input/c/c_seq/act_java_ko.c line 542 function t_three thread 0
----------------------------------------------------
  FullAllocation=10 (00000000000000000000000000001010)

State 424 file input/c/c_seq/act_java_ko.c line 607 function main thread 0
----------------------------------------------------
  pc[3]=32 (00000000000000000000000000100000)

State 425 file input/c/c_seq/act_java_ko.c line 608 function main thread 0
----------------------------------------------------
  active[3]=1 (00000000000000000000000000000001)

State 426 file input/c/c_seq/act_java_ko.c line 609 function main thread 0
----------------------------------------------------
  dead=1 (00000000000000000000000000000001)

State 430 file input/c/c_seq/act_java_ko.c line 582 function main thread 0
----------------------------------------------------
  ct=1 (00000000000000000000000000000001)

State 432 file input/c/c_seq/act_java_ko.c line 592 function main thread 0
----------------------------------------------------
  ct=2 (00000000000000000000000000000010)

State 434 file input/c/c_seq/act_java_ko.c line 594 function main thread 0
----------------------------------------------------
  cs=32 (00000000000000000000000000100000)

State 474 file input/c/c_seq/act_java_ko.c line 379 function t_two thread 0
----------------------------------------------------
  FullAllocation=10 (00000000000000000000000000001010)

State 478 file input/c/c_seq/act_java_ko.c line 597 function main thread 0
----------------------------------------------------
  pc[2]=32 (00000000000000000000000000100000)

State 479 file input/c/c_seq/act_java_ko.c line 598 function main thread 0
----------------------------------------------------
  active[2]=1 (00000000000000000000000000000001)

State 480 file input/c/c_seq/act_java_ko.c line 599 function main thread 0
----------------------------------------------------
  dead=1 (00000000000000000000000000000001)

State 481 file input/c/c_seq/act_java_ko.c line 602 function main thread 0
----------------------------------------------------
  ct=3 (00000000000000000000000000000011)

State 483 file input/c/c_seq/act_java_ko.c line 604 function main thread 0
----------------------------------------------------
  cs=32 (00000000000000000000000000100000)

State 526 file input/c/c_seq/act_java_ko.c line 607 function main thread 0
----------------------------------------------------
  pc[3]=32 (00000000000000000000000000100000)

State 527 file input/c/c_seq/act_java_ko.c line 608 function main thread 0
----------------------------------------------------
  active[3]=1 (00000000000000000000000000000001)

State 528 file input/c/c_seq/act_java_ko.c line 609 function main thread 0
----------------------------------------------------
  dead=1 (00000000000000000000000000000001)

State 532 file input/c/c_seq/act_java_ko.c line 582 function main thread 0
----------------------------------------------------
  ct=1 (00000000000000000000000000000001)

State 534 file input/c/c_seq/act_java_ko.c line 592 function main thread 0
----------------------------------------------------
  ct=2 (00000000000000000000000000000010)

State 536 file input/c/c_seq/act_java_ko.c line 594 function main thread 0
----------------------------------------------------
  cs=32 (00000000000000000000000000100000)

State 579 file input/c/c_seq/act_java_ko.c line 597 function main thread 0
----------------------------------------------------
  pc[2]=32 (00000000000000000000000000100000)

State 580 file input/c/c_seq/act_java_ko.c line 598 function main thread 0
----------------------------------------------------
  active[2]=1 (00000000000000000000000000000001)

State 581 file input/c/c_seq/act_java_ko.c line 599 function main thread 0
----------------------------------------------------
  dead=1 (00000000000000000000000000000001)

State 582 file input/c/c_seq/act_java_ko.c line 602 function main thread 0
----------------------------------------------------
  ct=3 (00000000000000000000000000000011)

State 584 file input/c/c_seq/act_java_ko.c line 604 function main thread 0
----------------------------------------------------
  cs=32 (00000000000000000000000000100000)

State 627 file input/c/c_seq/act_java_ko.c line 607 function main thread 0
----------------------------------------------------
  pc[3]=32 (00000000000000000000000000100000)

State 628 file input/c/c_seq/act_java_ko.c line 608 function main thread 0
----------------------------------------------------
  active[3]=1 (00000000000000000000000000000001)

State 629 file input/c/c_seq/act_java_ko.c line 609 function main thread 0
----------------------------------------------------
  dead=1 (00000000000000000000000000000001)

State 633 file input/c/c_seq/act_java_ko.c line 582 function main thread 0
----------------------------------------------------
  ct=1 (00000000000000000000000000000001)

State 635 file input/c/c_seq/act_java_ko.c line 592 function main thread 0
----------------------------------------------------
  ct=2 (00000000000000000000000000000010)

State 637 file input/c/c_seq/act_java_ko.c line 594 function main thread 0
----------------------------------------------------
  cs=32 (00000000000000000000000000100000)

State 680 file input/c/c_seq/act_java_ko.c line 597 function main thread 0
----------------------------------------------------
  pc[2]=32 (00000000000000000000000000100000)

State 681 file input/c/c_seq/act_java_ko.c line 598 function main thread 0
----------------------------------------------------
  active[2]=1 (00000000000000000000000000000001)

State 682 file input/c/c_seq/act_java_ko.c line 599 function main thread 0
----------------------------------------------------
  dead=1 (00000000000000000000000000000001)

State 683 file input/c/c_seq/act_java_ko.c line 602 function main thread 0
----------------------------------------------------
  ct=3 (00000000000000000000000000000011)

State 685 file input/c/c_seq/act_java_ko.c line 604 function main thread 0
----------------------------------------------------
  cs=32 (00000000000000000000000000100000)

State 728 file input/c/c_seq/act_java_ko.c line 607 function main thread 0
----------------------------------------------------
  pc[3]=32 (00000000000000000000000000100000)

State 729 file input/c/c_seq/act_java_ko.c line 608 function main thread 0
----------------------------------------------------
  active[3]=1 (00000000000000000000000000000001)

State 730 file input/c/c_seq/act_java_ko.c line 609 function main thread 0
----------------------------------------------------
  dead=1 (00000000000000000000000000000001)

State 734 file input/c/c_seq/act_java_ko.c line 582 function main thread 0
----------------------------------------------------
  ct=1 (00000000000000000000000000000001)

State 736 file input/c/c_seq/act_java_ko.c line 592 function main thread 0
----------------------------------------------------
  ct=2 (00000000000000000000000000000010)

State 738 file input/c/c_seq/act_java_ko.c line 594 function main thread 0
----------------------------------------------------
  cs=32 (00000000000000000000000000100000)

State 781 file input/c/c_seq/act_java_ko.c line 597 function main thread 0
----------------------------------------------------
  pc[2]=32 (00000000000000000000000000100000)

State 782 file input/c/c_seq/act_java_ko.c line 598 function main thread 0
----------------------------------------------------
  active[2]=1 (00000000000000000000000000000001)

State 783 file input/c/c_seq/act_java_ko.c line 599 function main thread 0
----------------------------------------------------
  dead=1 (00000000000000000000000000000001)

State 784 file input/c/c_seq/act_java_ko.c line 602 function main thread 0
----------------------------------------------------
  ct=3 (00000000000000000000000000000011)

State 786 file input/c/c_seq/act_java_ko.c line 604 function main thread 0
----------------------------------------------------
  cs=32 (00000000000000000000000000100000)

State 829 file input/c/c_seq/act_java_ko.c line 607 function main thread 0
----------------------------------------------------
  pc[3]=32 (00000000000000000000000000100000)

State 830 file input/c/c_seq/act_java_ko.c line 608 function main thread 0
----------------------------------------------------
  active[3]=1 (00000000000000000000000000000001)

State 831 file input/c/c_seq/act_java_ko.c line 609 function main thread 0
----------------------------------------------------
  dead=1 (00000000000000000000000000000001)

State 835 file input/c/c_seq/act_java_ko.c line 582 function main thread 0
----------------------------------------------------
  ct=1 (00000000000000000000000000000001)

State 837 file input/c/c_seq/act_java_ko.c line 592 function main thread 0
----------------------------------------------------
  ct=2 (00000000000000000000000000000010)

State 839 file input/c/c_seq/act_java_ko.c line 594 function main thread 0
----------------------------------------------------
  cs=33 (00000000000000000000000000100001)

State 880 file input/c/c_seq/act_java_ko.c line 384 function t_two thread 0
----------------------------------------------------
  y=10 (00000000000000000000000000001010)

State 881 file input/c/c_seq/act_java_ko.c line 385 function t_two thread 0
----------------------------------------------------
  stock=12 (00000000000000000000000000001100)

State 884 file input/c/c_seq/act_java_ko.c line 597 function main thread 0
----------------------------------------------------
  pc[2]=33 (00000000000000000000000000100001)

State 885 file input/c/c_seq/act_java_ko.c line 598 function main thread 0
----------------------------------------------------
  active[2]=0 (00000000000000000000000000000000)

State 886 file input/c/c_seq/act_java_ko.c line 599 function main thread 0
----------------------------------------------------
  dead=2 (00000000000000000000000000000010)

State 887 file input/c/c_seq/act_java_ko.c line 602 function main thread 0
----------------------------------------------------
  ct=3 (00000000000000000000000000000011)

State 889 file input/c/c_seq/act_java_ko.c line 604 function main thread 0
----------------------------------------------------
  cs=33 (00000000000000000000000000100001)

State 930 file input/c/c_seq/act_java_ko.c line 547 function t_three thread 0
----------------------------------------------------
  y=10 (00000000000000000000000000001010)

State 931 file input/c/c_seq/act_java_ko.c line 548 function t_three thread 0
----------------------------------------------------
  stock=22 (00000000000000000000000000010110)

State 934 file input/c/c_seq/act_java_ko.c line 607 function main thread 0
----------------------------------------------------
  pc[3]=33 (00000000000000000000000000100001)

State 935 file input/c/c_seq/act_java_ko.c line 608 function main thread 0
----------------------------------------------------
  active[3]=0 (00000000000000000000000000000000)

State 936 file input/c/c_seq/act_java_ko.c line 609 function main thread 0
----------------------------------------------------
  dead=3 (00000000000000000000000000000011)

Violated property:
  file input/c/c_seq/act_java_ko.c line 613 function main
  OK
  0 != 0

VERIFICATION FAILED

real	2m22.832s
user	2m22.384s
sys	0m0.424s
