CBMC version 5.4 64-bit x86_64 macos
Parsing input/c/c_seq/act_java_ko.c
Converting
Type-checking act_java_ko
file input/c/c_seq/act_java_ko.c line 584 function main: function `nondet_uint' is not declared
Generating GOTO Program
Adding CPROVER library (x86_64)
Function Pointer Removal
Partial Inlining
Generic Property Instrumentation
Starting Bounded Model Checking
Unwinding loop main.0 iteration 1 (8 max) file input/c/c_seq/act_java_ko.c line 581 function main thread 0
Unwinding loop main.0 iteration 2 (8 max) file input/c/c_seq/act_java_ko.c line 581 function main thread 0
Unwinding loop main.0 iteration 3 (8 max) file input/c/c_seq/act_java_ko.c line 581 function main thread 0
Unwinding loop main.0 iteration 4 (8 max) file input/c/c_seq/act_java_ko.c line 581 function main thread 0
Unwinding loop main.0 iteration 5 (8 max) file input/c/c_seq/act_java_ko.c line 581 function main thread 0
Unwinding loop main.0 iteration 6 (8 max) file input/c/c_seq/act_java_ko.c line 581 function main thread 0
Unwinding loop main.0 iteration 7 (8 max) file input/c/c_seq/act_java_ko.c line 581 function main thread 0
Not unwinding loop main.0 iteration 8 (8 max) file input/c/c_seq/act_java_ko.c line 581 function main thread 0
size of program expression: 7678 steps
simple slicing removed 3 assignments
Generated 200 VCC(s), 200 remaining after simplification
Passing problem to propositional reduction
converting SSA
Running propositional reduction
Post-processing
Solving with MiniSAT 2.2.1 with simplifier
265300 variables, 1122187 clauses
SAT checker: instance is SATISFIABLE
Runtime decision procedure: 7.76s
Building error trace

Counterexample:

State 41 file input/c/c_seq/act_java_ko.c line 560 function init thread 0
----------------------------------------------------
  pc[0]=0 (00000000000000000000000000000000)

State 42 file input/c/c_seq/act_java_ko.c line 561 function init thread 0
----------------------------------------------------
  size[0]=0 (00000000000000000000000000000000)

State 43 file input/c/c_seq/act_java_ko.c line 563 function init thread 0
----------------------------------------------------
  pc[1]=0 (00000000000000000000000000000000)

State 44 file input/c/c_seq/act_java_ko.c line 564 function init thread 0
----------------------------------------------------
  pc[2]=0 (00000000000000000000000000000000)

State 45 file input/c/c_seq/act_java_ko.c line 565 function init thread 0
----------------------------------------------------
  pc[3]=0 (00000000000000000000000000000000)

State 46 file input/c/c_seq/act_java_ko.c line 566 function init thread 0
----------------------------------------------------
  ssize=0 (00000000000000000000000000000000)

State 47 file input/c/c_seq/act_java_ko.c line 566 function init thread 0
----------------------------------------------------
  ssize=33 (00000000000000000000000000100001)

State 48 file input/c/c_seq/act_java_ko.c line 567 function init thread 0
----------------------------------------------------
  size[1]=33 (00000000000000000000000000100001)

State 49 file input/c/c_seq/act_java_ko.c line 568 function init thread 0
----------------------------------------------------
  size[2]=33 (00000000000000000000000000100001)

State 50 file input/c/c_seq/act_java_ko.c line 569 function init thread 0
----------------------------------------------------
  size[3]=33 (00000000000000000000000000100001)

State 51 file input/c/c_seq/act_java_ko.c line 571 function init thread 0
----------------------------------------------------
  t1=0 (00000000000000000000000000000000)

State 52 file input/c/c_seq/act_java_ko.c line 571 function init thread 0
----------------------------------------------------
  t2=0 (00000000000000000000000000000000)

State 53 file input/c/c_seq/act_java_ko.c line 571 function init thread 0
----------------------------------------------------
  t3=0 (00000000000000000000000000000000)

State 56 file input/c/c_seq/act_java_ko.c line 573 function init thread 0
----------------------------------------------------
  t=0 (00000000000000000000000000000000)

State 57 file input/c/c_seq/act_java_ko.c line 573 function init thread 0
----------------------------------------------------
  id=1 (00000000000000000000000000000001)

State 58 file input/c/c_seq/act_java_ko.c line 21 function create thread 0
----------------------------------------------------
  active[1]=1 (00000000000000000000000000000001)

State 59 file input/c/c_seq/act_java_ko.c line 22 function create thread 0
----------------------------------------------------
  t=1 (00000000000000000000000000000001)

State 63 file input/c/c_seq/act_java_ko.c line 574 function init thread 0
----------------------------------------------------
  t=0 (00000000000000000000000000000000)

State 64 file input/c/c_seq/act_java_ko.c line 574 function init thread 0
----------------------------------------------------
  id=2 (00000000000000000000000000000010)

State 65 file input/c/c_seq/act_java_ko.c line 21 function create thread 0
----------------------------------------------------
  active[2]=1 (00000000000000000000000000000001)

State 66 file input/c/c_seq/act_java_ko.c line 22 function create thread 0
----------------------------------------------------
  t=2 (00000000000000000000000000000010)

State 70 file input/c/c_seq/act_java_ko.c line 575 function init thread 0
----------------------------------------------------
  t=0 (00000000000000000000000000000000)

State 71 file input/c/c_seq/act_java_ko.c line 575 function init thread 0
----------------------------------------------------
  id=3 (00000000000000000000000000000011)

State 72 file input/c/c_seq/act_java_ko.c line 21 function create thread 0
----------------------------------------------------
  active[3]=1 (00000000000000000000000000000001)

State 73 file input/c/c_seq/act_java_ko.c line 22 function create thread 0
----------------------------------------------------
  t=3 (00000000000000000000000000000011)

State 76 file input/c/c_seq/act_java_ko.c line 582 function main thread 0
----------------------------------------------------
  ct=1 (00000000000000000000000000000001)

State 78 file input/c/c_seq/act_java_ko.c line 584 function main thread 0
----------------------------------------------------
  cs=0 (00000000000000000000000000000000)

State 121 file input/c/c_seq/act_java_ko.c line 587 function main thread 0
----------------------------------------------------
  pc[1]=0 (00000000000000000000000000000000)

State 122 file input/c/c_seq/act_java_ko.c line 588 function main thread 0
----------------------------------------------------
  active[1]=1 (00000000000000000000000000000001)

State 123 file input/c/c_seq/act_java_ko.c line 589 function main thread 0
----------------------------------------------------
  dead=0 (00000000000000000000000000000000)

State 124 file input/c/c_seq/act_java_ko.c line 592 function main thread 0
----------------------------------------------------
  ct=2 (00000000000000000000000000000010)

State 126 file input/c/c_seq/act_java_ko.c line 594 function main thread 0
----------------------------------------------------
  cs=31 (00000000000000000000000000011111)

State 135 file input/c/c_seq/act_java_ko.c line 241 function t_two thread 0
----------------------------------------------------
  i=1 (00000000000000000000000000000001)

State 137 file input/c/c_seq/act_java_ko.c line 243 function t_two thread 0
----------------------------------------------------
  MyClaim=4 (00000000000000000000000000000100)

State 139 file input/c/c_seq/act_java_ko.c line 246 function t_two thread 0
----------------------------------------------------
  y=4 (00000000000000000000000000000100)

State 142 file input/c/c_seq/act_java_ko.c line 258 function t_two thread 0
----------------------------------------------------
  stock=18 (00000000000000000000000000010010)

State 146 file input/c/c_seq/act_java_ko.c line 274 function t_two thread 0
----------------------------------------------------
  FullAllocation=4 (00000000000000000000000000000100)

State 148 file input/c/c_seq/act_java_ko.c line 276 function t_two thread 0
----------------------------------------------------
  i=2 (00000000000000000000000000000010)

State 150 file input/c/c_seq/act_java_ko.c line 278 function t_two thread 0
----------------------------------------------------
  MyClaim=3 (00000000000000000000000000000011)

State 152 file input/c/c_seq/act_java_ko.c line 281 function t_two thread 0
----------------------------------------------------
  y=3 (00000000000000000000000000000011)

State 155 file input/c/c_seq/act_java_ko.c line 293 function t_two thread 0
----------------------------------------------------
  stock=15 (00000000000000000000000000001111)

State 159 file input/c/c_seq/act_java_ko.c line 309 function t_two thread 0
----------------------------------------------------
  FullAllocation=7 (00000000000000000000000000000111)

State 161 file input/c/c_seq/act_java_ko.c line 311 function t_two thread 0
----------------------------------------------------
  i=3 (00000000000000000000000000000011)

State 163 file input/c/c_seq/act_java_ko.c line 313 function t_two thread 0
----------------------------------------------------
  MyClaim=2 (00000000000000000000000000000010)

State 165 file input/c/c_seq/act_java_ko.c line 316 function t_two thread 0
----------------------------------------------------
  y=2 (00000000000000000000000000000010)

State 168 file input/c/c_seq/act_java_ko.c line 328 function t_two thread 0
----------------------------------------------------
  stock=13 (00000000000000000000000000001101)

State 172 file input/c/c_seq/act_java_ko.c line 344 function t_two thread 0
----------------------------------------------------
  FullAllocation=9 (00000000000000000000000000001001)

State 174 file input/c/c_seq/act_java_ko.c line 346 function t_two thread 0
----------------------------------------------------
  i=4 (00000000000000000000000000000100)

State 176 file input/c/c_seq/act_java_ko.c line 348 function t_two thread 0
----------------------------------------------------
  MyClaim=1 (00000000000000000000000000000001)

State 178 file input/c/c_seq/act_java_ko.c line 351 function t_two thread 0
----------------------------------------------------
  y=1 (00000000000000000000000000000001)

State 181 file input/c/c_seq/act_java_ko.c line 363 function t_two thread 0
----------------------------------------------------
  stock=12 (00000000000000000000000000001100)

State 188 file input/c/c_seq/act_java_ko.c line 597 function main thread 0
----------------------------------------------------
  pc[2]=31 (00000000000000000000000000011111)

State 189 file input/c/c_seq/act_java_ko.c line 598 function main thread 0
----------------------------------------------------
  active[2]=1 (00000000000000000000000000000001)

State 190 file input/c/c_seq/act_java_ko.c line 599 function main thread 0
----------------------------------------------------
  dead=0 (00000000000000000000000000000000)

State 191 file input/c/c_seq/act_java_ko.c line 602 function main thread 0
----------------------------------------------------
  ct=3 (00000000000000000000000000000011)

State 193 file input/c/c_seq/act_java_ko.c line 604 function main thread 0
----------------------------------------------------
  cs=33 (00000000000000000000000000100001)

State 202 file input/c/c_seq/act_java_ko.c line 404 function t_three thread 0
----------------------------------------------------
  i=1 (00000000000000000000000000000001)

State 204 file input/c/c_seq/act_java_ko.c line 406 function t_three thread 0
----------------------------------------------------
  MyClaim=4 (00000000000000000000000000000100)

State 206 file input/c/c_seq/act_java_ko.c line 409 function t_three thread 0
----------------------------------------------------
  y=4 (00000000000000000000000000000100)

State 209 file input/c/c_seq/act_java_ko.c line 421 function t_three thread 0
----------------------------------------------------
  stock=8 (00000000000000000000000000001000)

State 213 file input/c/c_seq/act_java_ko.c line 437 function t_three thread 0
----------------------------------------------------
  FullAllocation=4 (00000000000000000000000000000100)

State 215 file input/c/c_seq/act_java_ko.c line 439 function t_three thread 0
----------------------------------------------------
  i=2 (00000000000000000000000000000010)

State 217 file input/c/c_seq/act_java_ko.c line 441 function t_three thread 0
----------------------------------------------------
  MyClaim=3 (00000000000000000000000000000011)

State 219 file input/c/c_seq/act_java_ko.c line 444 function t_three thread 0
----------------------------------------------------
  y=3 (00000000000000000000000000000011)

State 222 file input/c/c_seq/act_java_ko.c line 456 function t_three thread 0
----------------------------------------------------
  stock=5 (00000000000000000000000000000101)

State 226 file input/c/c_seq/act_java_ko.c line 472 function t_three thread 0
----------------------------------------------------
  FullAllocation=7 (00000000000000000000000000000111)

State 228 file input/c/c_seq/act_java_ko.c line 474 function t_three thread 0
----------------------------------------------------
  i=3 (00000000000000000000000000000011)

State 230 file input/c/c_seq/act_java_ko.c line 476 function t_three thread 0
----------------------------------------------------
  MyClaim=2 (00000000000000000000000000000010)

State 232 file input/c/c_seq/act_java_ko.c line 479 function t_three thread 0
----------------------------------------------------
  y=2 (00000000000000000000000000000010)

State 235 file input/c/c_seq/act_java_ko.c line 491 function t_three thread 0
----------------------------------------------------
  stock=3 (00000000000000000000000000000011)

State 239 file input/c/c_seq/act_java_ko.c line 507 function t_three thread 0
----------------------------------------------------
  FullAllocation=9 (00000000000000000000000000001001)

State 241 file input/c/c_seq/act_java_ko.c line 509 function t_three thread 0
----------------------------------------------------
  i=4 (00000000000000000000000000000100)

State 243 file input/c/c_seq/act_java_ko.c line 511 function t_three thread 0
----------------------------------------------------
  MyClaim=1 (00000000000000000000000000000001)

State 245 file input/c/c_seq/act_java_ko.c line 514 function t_three thread 0
----------------------------------------------------
  y=1 (00000000000000000000000000000001)

State 248 file input/c/c_seq/act_java_ko.c line 526 function t_three thread 0
----------------------------------------------------
  stock=2 (00000000000000000000000000000010)

State 252 file input/c/c_seq/act_java_ko.c line 542 function t_three thread 0
----------------------------------------------------
  FullAllocation=10 (00000000000000000000000000001010)

State 254 file input/c/c_seq/act_java_ko.c line 547 function t_three thread 0
----------------------------------------------------
  y=10 (00000000000000000000000000001010)

State 255 file input/c/c_seq/act_java_ko.c line 548 function t_three thread 0
----------------------------------------------------
  stock=12 (00000000000000000000000000001100)

State 258 file input/c/c_seq/act_java_ko.c line 607 function main thread 0
----------------------------------------------------
  pc[3]=33 (00000000000000000000000000100001)

State 259 file input/c/c_seq/act_java_ko.c line 608 function main thread 0
----------------------------------------------------
  active[3]=0 (00000000000000000000000000000000)

State 260 file input/c/c_seq/act_java_ko.c line 609 function main thread 0
----------------------------------------------------
  dead=1 (00000000000000000000000000000001)

State 263 file input/c/c_seq/act_java_ko.c line 582 function main thread 0
----------------------------------------------------
  ct=1 (00000000000000000000000000000001)

State 265 file input/c/c_seq/act_java_ko.c line 584 function main thread 0
----------------------------------------------------
  cs=31 (00000000000000000000000000011111)

State 274 file input/c/c_seq/act_java_ko.c line 77 function t_one thread 0
----------------------------------------------------
  i=1 (00000000000000000000000000000001)

State 276 file input/c/c_seq/act_java_ko.c line 79 function t_one thread 0
----------------------------------------------------
  MyClaim=4 (00000000000000000000000000000100)

State 278 file input/c/c_seq/act_java_ko.c line 82 function t_one thread 0
----------------------------------------------------
  y=4 (00000000000000000000000000000100)

State 281 file input/c/c_seq/act_java_ko.c line 94 function t_one thread 0
----------------------------------------------------
  stock=8 (00000000000000000000000000001000)

State 285 file input/c/c_seq/act_java_ko.c line 110 function t_one thread 0
----------------------------------------------------
  FullAllocation=4 (00000000000000000000000000000100)

State 287 file input/c/c_seq/act_java_ko.c line 112 function t_one thread 0
----------------------------------------------------
  i=2 (00000000000000000000000000000010)

State 289 file input/c/c_seq/act_java_ko.c line 114 function t_one thread 0
----------------------------------------------------
  MyClaim=3 (00000000000000000000000000000011)

State 291 file input/c/c_seq/act_java_ko.c line 117 function t_one thread 0
----------------------------------------------------
  y=3 (00000000000000000000000000000011)

State 294 file input/c/c_seq/act_java_ko.c line 129 function t_one thread 0
----------------------------------------------------
  stock=5 (00000000000000000000000000000101)

State 298 file input/c/c_seq/act_java_ko.c line 145 function t_one thread 0
----------------------------------------------------
  FullAllocation=7 (00000000000000000000000000000111)

State 300 file input/c/c_seq/act_java_ko.c line 147 function t_one thread 0
----------------------------------------------------
  i=3 (00000000000000000000000000000011)

State 302 file input/c/c_seq/act_java_ko.c line 149 function t_one thread 0
----------------------------------------------------
  MyClaim=2 (00000000000000000000000000000010)

State 304 file input/c/c_seq/act_java_ko.c line 152 function t_one thread 0
----------------------------------------------------
  y=2 (00000000000000000000000000000010)

State 307 file input/c/c_seq/act_java_ko.c line 164 function t_one thread 0
----------------------------------------------------
  stock=3 (00000000000000000000000000000011)

State 311 file input/c/c_seq/act_java_ko.c line 180 function t_one thread 0
----------------------------------------------------
  FullAllocation=9 (00000000000000000000000000001001)

State 313 file input/c/c_seq/act_java_ko.c line 182 function t_one thread 0
----------------------------------------------------
  i=4 (00000000000000000000000000000100)

State 315 file input/c/c_seq/act_java_ko.c line 184 function t_one thread 0
----------------------------------------------------
  MyClaim=1 (00000000000000000000000000000001)

State 317 file input/c/c_seq/act_java_ko.c line 187 function t_one thread 0
----------------------------------------------------
  y=1 (00000000000000000000000000000001)

State 320 file input/c/c_seq/act_java_ko.c line 199 function t_one thread 0
----------------------------------------------------
  stock=2 (00000000000000000000000000000010)

State 327 file input/c/c_seq/act_java_ko.c line 587 function main thread 0
----------------------------------------------------
  pc[1]=31 (00000000000000000000000000011111)

State 328 file input/c/c_seq/act_java_ko.c line 588 function main thread 0
----------------------------------------------------
  active[1]=1 (00000000000000000000000000000001)

State 329 file input/c/c_seq/act_java_ko.c line 589 function main thread 0
----------------------------------------------------
  dead=1 (00000000000000000000000000000001)

State 330 file input/c/c_seq/act_java_ko.c line 592 function main thread 0
----------------------------------------------------
  ct=2 (00000000000000000000000000000010)

State 332 file input/c/c_seq/act_java_ko.c line 594 function main thread 0
----------------------------------------------------
  cs=33 (00000000000000000000000000100001)

State 372 file input/c/c_seq/act_java_ko.c line 379 function t_two thread 0
----------------------------------------------------
  FullAllocation=10 (00000000000000000000000000001010)

State 374 file input/c/c_seq/act_java_ko.c line 384 function t_two thread 0
----------------------------------------------------
  y=10 (00000000000000000000000000001010)

State 375 file input/c/c_seq/act_java_ko.c line 385 function t_two thread 0
----------------------------------------------------
  stock=12 (00000000000000000000000000001100)

State 378 file input/c/c_seq/act_java_ko.c line 597 function main thread 0
----------------------------------------------------
  pc[2]=33 (00000000000000000000000000100001)

State 379 file input/c/c_seq/act_java_ko.c line 598 function main thread 0
----------------------------------------------------
  active[2]=0 (00000000000000000000000000000000)

State 380 file input/c/c_seq/act_java_ko.c line 599 function main thread 0
----------------------------------------------------
  dead=2 (00000000000000000000000000000010)

State 381 file input/c/c_seq/act_java_ko.c line 602 function main thread 0
----------------------------------------------------
  ct=3 (00000000000000000000000000000011)

State 385 file input/c/c_seq/act_java_ko.c line 582 function main thread 0
----------------------------------------------------
  ct=1 (00000000000000000000000000000001)

State 387 file input/c/c_seq/act_java_ko.c line 584 function main thread 0
----------------------------------------------------
  cs=31 (00000000000000000000000000011111)

State 430 file input/c/c_seq/act_java_ko.c line 587 function main thread 0
----------------------------------------------------
  pc[1]=31 (00000000000000000000000000011111)

State 431 file input/c/c_seq/act_java_ko.c line 588 function main thread 0
----------------------------------------------------
  active[1]=1 (00000000000000000000000000000001)

State 432 file input/c/c_seq/act_java_ko.c line 589 function main thread 0
----------------------------------------------------
  dead=2 (00000000000000000000000000000010)

State 433 file input/c/c_seq/act_java_ko.c line 592 function main thread 0
----------------------------------------------------
  ct=2 (00000000000000000000000000000010)

State 435 file input/c/c_seq/act_java_ko.c line 602 function main thread 0
----------------------------------------------------
  ct=3 (00000000000000000000000000000011)

State 439 file input/c/c_seq/act_java_ko.c line 582 function main thread 0
----------------------------------------------------
  ct=1 (00000000000000000000000000000001)

State 441 file input/c/c_seq/act_java_ko.c line 584 function main thread 0
----------------------------------------------------
  cs=32 (00000000000000000000000000100000)

State 481 file input/c/c_seq/act_java_ko.c line 215 function t_one thread 0
----------------------------------------------------
  FullAllocation=10 (00000000000000000000000000001010)

State 485 file input/c/c_seq/act_java_ko.c line 587 function main thread 0
----------------------------------------------------
  pc[1]=32 (00000000000000000000000000100000)

State 486 file input/c/c_seq/act_java_ko.c line 588 function main thread 0
----------------------------------------------------
  active[1]=1 (00000000000000000000000000000001)

State 487 file input/c/c_seq/act_java_ko.c line 589 function main thread 0
----------------------------------------------------
  dead=2 (00000000000000000000000000000010)

State 488 file input/c/c_seq/act_java_ko.c line 592 function main thread 0
----------------------------------------------------
  ct=2 (00000000000000000000000000000010)

State 490 file input/c/c_seq/act_java_ko.c line 602 function main thread 0
----------------------------------------------------
  ct=3 (00000000000000000000000000000011)

State 494 file input/c/c_seq/act_java_ko.c line 582 function main thread 0
----------------------------------------------------
  ct=1 (00000000000000000000000000000001)

State 496 file input/c/c_seq/act_java_ko.c line 584 function main thread 0
----------------------------------------------------
  cs=32 (00000000000000000000000000100000)

State 539 file input/c/c_seq/act_java_ko.c line 587 function main thread 0
----------------------------------------------------
  pc[1]=32 (00000000000000000000000000100000)

State 540 file input/c/c_seq/act_java_ko.c line 588 function main thread 0
----------------------------------------------------
  active[1]=1 (00000000000000000000000000000001)

State 541 file input/c/c_seq/act_java_ko.c line 589 function main thread 0
----------------------------------------------------
  dead=2 (00000000000000000000000000000010)

State 542 file input/c/c_seq/act_java_ko.c line 592 function main thread 0
----------------------------------------------------
  ct=2 (00000000000000000000000000000010)

State 544 file input/c/c_seq/act_java_ko.c line 602 function main thread 0
----------------------------------------------------
  ct=3 (00000000000000000000000000000011)

State 548 file input/c/c_seq/act_java_ko.c line 582 function main thread 0
----------------------------------------------------
  ct=1 (00000000000000000000000000000001)

State 550 file input/c/c_seq/act_java_ko.c line 584 function main thread 0
----------------------------------------------------
  cs=32 (00000000000000000000000000100000)

State 593 file input/c/c_seq/act_java_ko.c line 587 function main thread 0
----------------------------------------------------
  pc[1]=32 (00000000000000000000000000100000)

State 594 file input/c/c_seq/act_java_ko.c line 588 function main thread 0
----------------------------------------------------
  active[1]=1 (00000000000000000000000000000001)

State 595 file input/c/c_seq/act_java_ko.c line 589 function main thread 0
----------------------------------------------------
  dead=2 (00000000000000000000000000000010)

State 596 file input/c/c_seq/act_java_ko.c line 592 function main thread 0
----------------------------------------------------
  ct=2 (00000000000000000000000000000010)

State 598 file input/c/c_seq/act_java_ko.c line 602 function main thread 0
----------------------------------------------------
  ct=3 (00000000000000000000000000000011)

State 602 file input/c/c_seq/act_java_ko.c line 582 function main thread 0
----------------------------------------------------
  ct=1 (00000000000000000000000000000001)

State 604 file input/c/c_seq/act_java_ko.c line 584 function main thread 0
----------------------------------------------------
  cs=33 (00000000000000000000000000100001)

State 645 file input/c/c_seq/act_java_ko.c line 220 function t_one thread 0
----------------------------------------------------
  y=10 (00000000000000000000000000001010)

State 646 file input/c/c_seq/act_java_ko.c line 221 function t_one thread 0
----------------------------------------------------
  stock=22 (00000000000000000000000000010110)

State 649 file input/c/c_seq/act_java_ko.c line 587 function main thread 0
----------------------------------------------------
  pc[1]=33 (00000000000000000000000000100001)

State 650 file input/c/c_seq/act_java_ko.c line 588 function main thread 0
----------------------------------------------------
  active[1]=0 (00000000000000000000000000000000)

State 651 file input/c/c_seq/act_java_ko.c line 589 function main thread 0
----------------------------------------------------
  dead=3 (00000000000000000000000000000011)

State 652 file input/c/c_seq/act_java_ko.c line 592 function main thread 0
----------------------------------------------------
  ct=2 (00000000000000000000000000000010)

State 654 file input/c/c_seq/act_java_ko.c line 602 function main thread 0
----------------------------------------------------
  ct=3 (00000000000000000000000000000011)

Violated property:
  file input/c/c_seq/act_java_ko.c line 613 function main
  OK
  0 != 0

VERIFICATION FAILED

real	0m11.306s
user	0m11.114s
sys	0m0.173s
