CBMC version 5.4 64-bit x86_64 macos
Parsing input/c/c_seq/p4.c
Converting
Type-checking p4
file input/c/c_seq/p4.c line 899 function main: function `nondet_uint' is not declared
Generating GOTO Program
Adding CPROVER library (x86_64)
Function Pointer Removal
Partial Inlining
Generic Property Instrumentation
Starting Bounded Model Checking
Unwinding loop main.0 iteration 1 (9 max) file input/c/c_seq/p4.c line 896 function main thread 0
Unwinding loop main.0 iteration 2 (9 max) file input/c/c_seq/p4.c line 896 function main thread 0
Unwinding loop main.0 iteration 3 (9 max) file input/c/c_seq/p4.c line 896 function main thread 0
Unwinding loop main.0 iteration 4 (9 max) file input/c/c_seq/p4.c line 896 function main thread 0
Unwinding loop main.0 iteration 5 (9 max) file input/c/c_seq/p4.c line 896 function main thread 0
Unwinding loop main.0 iteration 6 (9 max) file input/c/c_seq/p4.c line 896 function main thread 0
Unwinding loop main.0 iteration 7 (9 max) file input/c/c_seq/p4.c line 896 function main thread 0
Unwinding loop main.0 iteration 8 (9 max) file input/c/c_seq/p4.c line 896 function main thread 0
Not unwinding loop main.0 iteration 9 (9 max) file input/c/c_seq/p4.c line 896 function main thread 0
size of program expression: 18037 steps
simple slicing removed 3 assignments
Generated 19 VCC(s), 19 remaining after simplification
Passing problem to propositional reduction
converting SSA
Running propositional reduction
Post-processing
Solving with Glucose Syrup with simplifier
332127 variables, 1438088 clauses
SAT checker: instance is SATISFIABLE
Runtime decision procedure: 11.054s
Building error trace

Counterexample:

State 48 file input/c/c_seq/p4.c line 871 function init thread 0
----------------------------------------------------
  pc[0]=0 (00000000000000000000000000000000)

State 49 file input/c/c_seq/p4.c line 872 function init thread 0
----------------------------------------------------
  size[0]=0 (00000000000000000000000000000000)

State 50 file input/c/c_seq/p4.c line 874 function init thread 0
----------------------------------------------------
  pc[1]=0 (00000000000000000000000000000000)

State 51 file input/c/c_seq/p4.c line 875 function init thread 0
----------------------------------------------------
  pc[2]=0 (00000000000000000000000000000000)

State 52 file input/c/c_seq/p4.c line 876 function init thread 0
----------------------------------------------------
  pc[3]=0 (00000000000000000000000000000000)

State 53 file input/c/c_seq/p4.c line 877 function init thread 0
----------------------------------------------------
  pc[4]=0 (00000000000000000000000000000000)

State 54 file input/c/c_seq/p4.c line 879 function init thread 0
----------------------------------------------------
  size[0]=4 (00000000000000000000000000000100)

State 55 file input/c/c_seq/p4.c line 880 function init thread 0
----------------------------------------------------
  size[1]=59 (00000000000000000000000000111011)

State 56 file input/c/c_seq/p4.c line 881 function init thread 0
----------------------------------------------------
  size[2]=59 (00000000000000000000000000111011)

State 57 file input/c/c_seq/p4.c line 882 function init thread 0
----------------------------------------------------
  size[3]=59 (00000000000000000000000000111011)

State 58 file input/c/c_seq/p4.c line 883 function init thread 0
----------------------------------------------------
  size[4]=59 (00000000000000000000000000111011)

State 59 file input/c/c_seq/p4.c line 885 function init thread 0
----------------------------------------------------
  t1=0 (00000000000000000000000000000000)

State 60 file input/c/c_seq/p4.c line 885 function init thread 0
----------------------------------------------------
  t2=0 (00000000000000000000000000000000)

State 61 file input/c/c_seq/p4.c line 885 function init thread 0
----------------------------------------------------
  t3=0 (00000000000000000000000000000000)

State 62 file input/c/c_seq/p4.c line 885 function init thread 0
----------------------------------------------------
  t4=0 (00000000000000000000000000000000)

State 63 file input/c/c_seq/p4.c line 885 function init thread 0
----------------------------------------------------
  t5=0 (00000000000000000000000000000000)

State 64 file input/c/c_seq/p4.c line 885 function init thread 0
----------------------------------------------------
  t6=0 (00000000000000000000000000000000)

State 67 file input/c/c_seq/p4.c line 887 function init thread 0
----------------------------------------------------
  t=0 (00000000000000000000000000000000)

State 68 file input/c/c_seq/p4.c line 887 function init thread 0
----------------------------------------------------
  id=1 (00000000000000000000000000000001)

State 69 file input/c/c_seq/p4.c line 20 function create thread 0
----------------------------------------------------
  active[1]=1 (00000000000000000000000000000001)

State 70 file input/c/c_seq/p4.c line 21 function create thread 0
----------------------------------------------------
  t=1 (00000000000000000000000000000001)

State 74 file input/c/c_seq/p4.c line 888 function init thread 0
----------------------------------------------------
  t=0 (00000000000000000000000000000000)

State 75 file input/c/c_seq/p4.c line 888 function init thread 0
----------------------------------------------------
  id=2 (00000000000000000000000000000010)

State 76 file input/c/c_seq/p4.c line 20 function create thread 0
----------------------------------------------------
  active[2]=1 (00000000000000000000000000000001)

State 77 file input/c/c_seq/p4.c line 21 function create thread 0
----------------------------------------------------
  t=2 (00000000000000000000000000000010)

State 81 file input/c/c_seq/p4.c line 889 function init thread 0
----------------------------------------------------
  t=0 (00000000000000000000000000000000)

State 82 file input/c/c_seq/p4.c line 889 function init thread 0
----------------------------------------------------
  id=3 (00000000000000000000000000000011)

State 83 file input/c/c_seq/p4.c line 20 function create thread 0
----------------------------------------------------
  active[3]=1 (00000000000000000000000000000001)

State 84 file input/c/c_seq/p4.c line 21 function create thread 0
----------------------------------------------------
  t=3 (00000000000000000000000000000011)

State 88 file input/c/c_seq/p4.c line 890 function init thread 0
----------------------------------------------------
  t=0 (00000000000000000000000000000000)

State 89 file input/c/c_seq/p4.c line 890 function init thread 0
----------------------------------------------------
  id=4 (00000000000000000000000000000100)

State 90 file input/c/c_seq/p4.c line 20 function create thread 0
----------------------------------------------------
  active[4]=1 (00000000000000000000000000000001)

State 91 file input/c/c_seq/p4.c line 21 function create thread 0
----------------------------------------------------
  t=4 (00000000000000000000000000000100)

State 94 file input/c/c_seq/p4.c line 897 function main thread 0
----------------------------------------------------
  ct=1 (00000000000000000000000000000001)

State 96 file input/c/c_seq/p4.c line 899 function main thread 0
----------------------------------------------------
  cs=59 (00000000000000000000000000111011)

State 105 file input/c/c_seq/p4.c line 37 function t_one thread 0
----------------------------------------------------
  i=1 (00000000000000000000000000000001)

State 107 file input/c/c_seq/p4.c line 39 function t_one thread 0
----------------------------------------------------
  flag[1]=1 (00000000000000000000000000000001)

State 109 file input/c/c_seq/p4.c line 41 function t_one thread 0
----------------------------------------------------
  turn[1]=1 (00000000000000000000000000000001)

State 111 file input/c/c_seq/p4.c line 45 function t_one thread 0
----------------------------------------------------
  wait=0 (00000000000000000000000000000000)

State 113 file input/c/c_seq/p4.c line 48 function t_one thread 0
----------------------------------------------------
  j=1 (00000000000000000000000000000001)

State 118 file input/c/c_seq/p4.c line 58 function t_one thread 0
----------------------------------------------------
  j=2 (00000000000000000000000000000010)

State 125 file input/c/c_seq/p4.c line 62 function t_one thread 0
----------------------------------------------------
  wait=0 (00000000000000000000000000000000)

State 128 file input/c/c_seq/p4.c line 68 function t_one thread 0
----------------------------------------------------
  j=3 (00000000000000000000000000000011)

State 135 file input/c/c_seq/p4.c line 72 function t_one thread 0
----------------------------------------------------
  wait=0 (00000000000000000000000000000000)

State 138 file input/c/c_seq/p4.c line 78 function t_one thread 0
----------------------------------------------------
  j=4 (00000000000000000000000000000100)

State 145 file input/c/c_seq/p4.c line 82 function t_one thread 0
----------------------------------------------------
  wait=0 (00000000000000000000000000000000)

State 150 file input/c/c_seq/p4.c line 97 function t_one thread 0
----------------------------------------------------
  i=2 (00000000000000000000000000000010)

State 152 file input/c/c_seq/p4.c line 99 function t_one thread 0
----------------------------------------------------
  flag[1]=2 (00000000000000000000000000000010)

State 154 file input/c/c_seq/p4.c line 101 function t_one thread 0
----------------------------------------------------
  turn[2]=1 (00000000000000000000000000000001)

State 156 file input/c/c_seq/p4.c line 105 function t_one thread 0
----------------------------------------------------
  wait=0 (00000000000000000000000000000000)

State 158 file input/c/c_seq/p4.c line 108 function t_one thread 0
----------------------------------------------------
  j=1 (00000000000000000000000000000001)

State 163 file input/c/c_seq/p4.c line 118 function t_one thread 0
----------------------------------------------------
  j=2 (00000000000000000000000000000010)

State 170 file input/c/c_seq/p4.c line 122 function t_one thread 0
----------------------------------------------------
  wait=0 (00000000000000000000000000000000)

State 173 file input/c/c_seq/p4.c line 128 function t_one thread 0
----------------------------------------------------
  j=3 (00000000000000000000000000000011)

State 180 file input/c/c_seq/p4.c line 132 function t_one thread 0
----------------------------------------------------
  wait=0 (00000000000000000000000000000000)

State 183 file input/c/c_seq/p4.c line 138 function t_one thread 0
----------------------------------------------------
  j=4 (00000000000000000000000000000100)

State 190 file input/c/c_seq/p4.c line 142 function t_one thread 0
----------------------------------------------------
  wait=0 (00000000000000000000000000000000)

State 195 file input/c/c_seq/p4.c line 157 function t_one thread 0
----------------------------------------------------
  i=3 (00000000000000000000000000000011)

State 197 file input/c/c_seq/p4.c line 159 function t_one thread 0
----------------------------------------------------
  flag[1]=3 (00000000000000000000000000000011)

State 199 file input/c/c_seq/p4.c line 161 function t_one thread 0
----------------------------------------------------
  turn[3]=1 (00000000000000000000000000000001)

State 201 file input/c/c_seq/p4.c line 165 function t_one thread 0
----------------------------------------------------
  wait=0 (00000000000000000000000000000000)

State 203 file input/c/c_seq/p4.c line 168 function t_one thread 0
----------------------------------------------------
  j=1 (00000000000000000000000000000001)

State 208 file input/c/c_seq/p4.c line 178 function t_one thread 0
----------------------------------------------------
  j=2 (00000000000000000000000000000010)

State 215 file input/c/c_seq/p4.c line 182 function t_one thread 0
----------------------------------------------------
  wait=0 (00000000000000000000000000000000)

State 218 file input/c/c_seq/p4.c line 188 function t_one thread 0
----------------------------------------------------
  j=3 (00000000000000000000000000000011)

State 225 file input/c/c_seq/p4.c line 192 function t_one thread 0
----------------------------------------------------
  wait=0 (00000000000000000000000000000000)

State 228 file input/c/c_seq/p4.c line 198 function t_one thread 0
----------------------------------------------------
  j=4 (00000000000000000000000000000100)

State 235 file input/c/c_seq/p4.c line 202 function t_one thread 0
----------------------------------------------------
  wait=0 (00000000000000000000000000000000)

State 242 file input/c/c_seq/p4.c line 221 function t_one thread 0
----------------------------------------------------
  x_tmp=0 (00000000000000000000000000000000)

State 244 file input/c/c_seq/p4.c line 223 function t_one thread 0
----------------------------------------------------
  x_tmp=1 (00000000000000000000000000000001)

State 246 file input/c/c_seq/p4.c line 225 function t_one thread 0
----------------------------------------------------
  x=1 (00000000000000000000000000000001)

State 250 file input/c/c_seq/p4.c line 240 function t_one thread 0
----------------------------------------------------
  flag[1]=-1 (11111111111111111111111111111111)

State 253 file input/c/c_seq/p4.c line 902 function main thread 0
----------------------------------------------------
  pc[1]=59 (00000000000000000000000000111011)

State 254 file input/c/c_seq/p4.c line 903 function main thread 0
----------------------------------------------------
  active[1]=0 (00000000000000000000000000000000)

State 255 file input/c/c_seq/p4.c line 906 function main thread 0
----------------------------------------------------
  ct=2 (00000000000000000000000000000010)

State 257 file input/c/c_seq/p4.c line 908 function main thread 0
----------------------------------------------------
  cs=59 (00000000000000000000000000111011)

State 266 file input/c/c_seq/p4.c line 252 function t_two thread 0
----------------------------------------------------
  i=1 (00000000000000000000000000000001)

State 268 file input/c/c_seq/p4.c line 254 function t_two thread 0
----------------------------------------------------
  flag[2]=1 (00000000000000000000000000000001)

State 270 file input/c/c_seq/p4.c line 256 function t_two thread 0
----------------------------------------------------
  turn[1]=2 (00000000000000000000000000000010)

State 272 file input/c/c_seq/p4.c line 260 function t_two thread 0
----------------------------------------------------
  wait=0 (00000000000000000000000000000000)

State 274 file input/c/c_seq/p4.c line 263 function t_two thread 0
----------------------------------------------------
  j=1 (00000000000000000000000000000001)

State 281 file input/c/c_seq/p4.c line 267 function t_two thread 0
----------------------------------------------------
  wait=0 (00000000000000000000000000000000)

State 284 file input/c/c_seq/p4.c line 273 function t_two thread 0
----------------------------------------------------
  j=2 (00000000000000000000000000000010)

State 289 file input/c/c_seq/p4.c line 283 function t_two thread 0
----------------------------------------------------
  j=3 (00000000000000000000000000000011)

State 296 file input/c/c_seq/p4.c line 287 function t_two thread 0
----------------------------------------------------
  wait=0 (00000000000000000000000000000000)

State 299 file input/c/c_seq/p4.c line 293 function t_two thread 0
----------------------------------------------------
  j=4 (00000000000000000000000000000100)

State 306 file input/c/c_seq/p4.c line 297 function t_two thread 0
----------------------------------------------------
  wait=0 (00000000000000000000000000000000)

State 314 file input/c/c_seq/p4.c line 310 function t_two thread 0
----------------------------------------------------
  i=2 (00000000000000000000000000000010)

State 316 file input/c/c_seq/p4.c line 312 function t_two thread 0
----------------------------------------------------
  flag[2]=2 (00000000000000000000000000000010)

State 318 file input/c/c_seq/p4.c line 314 function t_two thread 0
----------------------------------------------------
  turn[2]=2 (00000000000000000000000000000010)

State 320 file input/c/c_seq/p4.c line 318 function t_two thread 0
----------------------------------------------------
  wait=0 (00000000000000000000000000000000)

State 322 file input/c/c_seq/p4.c line 321 function t_two thread 0
----------------------------------------------------
  j=1 (00000000000000000000000000000001)

State 329 file input/c/c_seq/p4.c line 325 function t_two thread 0
----------------------------------------------------
  wait=0 (00000000000000000000000000000000)

State 332 file input/c/c_seq/p4.c line 331 function t_two thread 0
----------------------------------------------------
  j=2 (00000000000000000000000000000010)

State 337 file input/c/c_seq/p4.c line 341 function t_two thread 0
----------------------------------------------------
  j=3 (00000000000000000000000000000011)

State 344 file input/c/c_seq/p4.c line 345 function t_two thread 0
----------------------------------------------------
  wait=0 (00000000000000000000000000000000)

State 347 file input/c/c_seq/p4.c line 351 function t_two thread 0
----------------------------------------------------
  j=4 (00000000000000000000000000000100)

State 354 file input/c/c_seq/p4.c line 355 function t_two thread 0
----------------------------------------------------
  wait=0 (00000000000000000000000000000000)

State 362 file input/c/c_seq/p4.c line 368 function t_two thread 0
----------------------------------------------------
  i=3 (00000000000000000000000000000011)

State 364 file input/c/c_seq/p4.c line 370 function t_two thread 0
----------------------------------------------------
  flag[2]=3 (00000000000000000000000000000011)

State 366 file input/c/c_seq/p4.c line 372 function t_two thread 0
----------------------------------------------------
  turn[3]=2 (00000000000000000000000000000010)

State 368 file input/c/c_seq/p4.c line 376 function t_two thread 0
----------------------------------------------------
  wait=0 (00000000000000000000000000000000)

State 370 file input/c/c_seq/p4.c line 379 function t_two thread 0
----------------------------------------------------
  j=1 (00000000000000000000000000000001)

State 377 file input/c/c_seq/p4.c line 383 function t_two thread 0
----------------------------------------------------
  wait=0 (00000000000000000000000000000000)

State 380 file input/c/c_seq/p4.c line 389 function t_two thread 0
----------------------------------------------------
  j=2 (00000000000000000000000000000010)

State 385 file input/c/c_seq/p4.c line 399 function t_two thread 0
----------------------------------------------------
  j=3 (00000000000000000000000000000011)

State 392 file input/c/c_seq/p4.c line 403 function t_two thread 0
----------------------------------------------------
  wait=0 (00000000000000000000000000000000)

State 395 file input/c/c_seq/p4.c line 409 function t_two thread 0
----------------------------------------------------
  j=4 (00000000000000000000000000000100)

State 402 file input/c/c_seq/p4.c line 413 function t_two thread 0
----------------------------------------------------
  wait=0 (00000000000000000000000000000000)

State 413 file input/c/c_seq/p4.c line 439 function t_two thread 0
----------------------------------------------------
  x_tmp=1 (00000000000000000000000000000001)

State 415 file input/c/c_seq/p4.c line 441 function t_two thread 0
----------------------------------------------------
  x_tmp=0 (00000000000000000000000000000000)

State 417 file input/c/c_seq/p4.c line 443 function t_two thread 0
----------------------------------------------------
  x=0 (00000000000000000000000000000000)

State 420 file input/c/c_seq/p4.c line 449 function t_two thread 0
----------------------------------------------------
  flag[2]=-1 (11111111111111111111111111111111)

State 423 file input/c/c_seq/p4.c line 911 function main thread 0
----------------------------------------------------
  pc[2]=59 (00000000000000000000000000111011)

State 424 file input/c/c_seq/p4.c line 912 function main thread 0
----------------------------------------------------
  active[2]=0 (00000000000000000000000000000000)

State 425 file input/c/c_seq/p4.c line 915 function main thread 0
----------------------------------------------------
  ct=3 (00000000000000000000000000000011)

State 427 file input/c/c_seq/p4.c line 917 function main thread 0
----------------------------------------------------
  cs=59 (00000000000000000000000000111011)

State 436 file input/c/c_seq/p4.c line 461 function t_three thread 0
----------------------------------------------------
  i=1 (00000000000000000000000000000001)

State 438 file input/c/c_seq/p4.c line 463 function t_three thread 0
----------------------------------------------------
  flag[3]=1 (00000000000000000000000000000001)

State 440 file input/c/c_seq/p4.c line 465 function t_three thread 0
----------------------------------------------------
  turn[1]=3 (00000000000000000000000000000011)

State 442 file input/c/c_seq/p4.c line 469 function t_three thread 0
----------------------------------------------------
  wait=0 (00000000000000000000000000000000)

State 444 file input/c/c_seq/p4.c line 472 function t_three thread 0
----------------------------------------------------
  j=1 (00000000000000000000000000000001)

State 451 file input/c/c_seq/p4.c line 476 function t_three thread 0
----------------------------------------------------
  wait=0 (00000000000000000000000000000000)

State 454 file input/c/c_seq/p4.c line 482 function t_three thread 0
----------------------------------------------------
  j=2 (00000000000000000000000000000010)

State 461 file input/c/c_seq/p4.c line 486 function t_three thread 0
----------------------------------------------------
  wait=0 (00000000000000000000000000000000)

State 464 file input/c/c_seq/p4.c line 492 function t_three thread 0
----------------------------------------------------
  j=3 (00000000000000000000000000000011)

State 469 file input/c/c_seq/p4.c line 502 function t_three thread 0
----------------------------------------------------
  j=4 (00000000000000000000000000000100)

State 476 file input/c/c_seq/p4.c line 506 function t_three thread 0
----------------------------------------------------
  wait=0 (00000000000000000000000000000000)

State 484 file input/c/c_seq/p4.c line 518 function t_three thread 0
----------------------------------------------------
  i=2 (00000000000000000000000000000010)

State 486 file input/c/c_seq/p4.c line 520 function t_three thread 0
----------------------------------------------------
  flag[3]=2 (00000000000000000000000000000010)

State 488 file input/c/c_seq/p4.c line 522 function t_three thread 0
----------------------------------------------------
  turn[2]=3 (00000000000000000000000000000011)

State 490 file input/c/c_seq/p4.c line 526 function t_three thread 0
----------------------------------------------------
  wait=0 (00000000000000000000000000000000)

State 492 file input/c/c_seq/p4.c line 529 function t_three thread 0
----------------------------------------------------
  j=1 (00000000000000000000000000000001)

State 499 file input/c/c_seq/p4.c line 533 function t_three thread 0
----------------------------------------------------
  wait=0 (00000000000000000000000000000000)

State 502 file input/c/c_seq/p4.c line 539 function t_three thread 0
----------------------------------------------------
  j=2 (00000000000000000000000000000010)

State 509 file input/c/c_seq/p4.c line 543 function t_three thread 0
----------------------------------------------------
  wait=0 (00000000000000000000000000000000)

State 512 file input/c/c_seq/p4.c line 549 function t_three thread 0
----------------------------------------------------
  j=3 (00000000000000000000000000000011)

State 517 file input/c/c_seq/p4.c line 559 function t_three thread 0
----------------------------------------------------
  j=4 (00000000000000000000000000000100)

State 524 file input/c/c_seq/p4.c line 563 function t_three thread 0
----------------------------------------------------
  wait=0 (00000000000000000000000000000000)

State 532 file input/c/c_seq/p4.c line 576 function t_three thread 0
----------------------------------------------------
  i=3 (00000000000000000000000000000011)

State 534 file input/c/c_seq/p4.c line 578 function t_three thread 0
----------------------------------------------------
  flag[3]=3 (00000000000000000000000000000011)

State 536 file input/c/c_seq/p4.c line 580 function t_three thread 0
----------------------------------------------------
  turn[3]=3 (00000000000000000000000000000011)

State 538 file input/c/c_seq/p4.c line 584 function t_three thread 0
----------------------------------------------------
  wait=0 (00000000000000000000000000000000)

State 540 file input/c/c_seq/p4.c line 587 function t_three thread 0
----------------------------------------------------
  j=1 (00000000000000000000000000000001)

State 547 file input/c/c_seq/p4.c line 591 function t_three thread 0
----------------------------------------------------
  wait=0 (00000000000000000000000000000000)

State 550 file input/c/c_seq/p4.c line 597 function t_three thread 0
----------------------------------------------------
  j=2 (00000000000000000000000000000010)

State 557 file input/c/c_seq/p4.c line 601 function t_three thread 0
----------------------------------------------------
  wait=0 (00000000000000000000000000000000)

State 560 file input/c/c_seq/p4.c line 607 function t_three thread 0
----------------------------------------------------
  j=3 (00000000000000000000000000000011)

State 565 file input/c/c_seq/p4.c line 617 function t_three thread 0
----------------------------------------------------
  j=4 (00000000000000000000000000000100)

State 572 file input/c/c_seq/p4.c line 621 function t_three thread 0
----------------------------------------------------
  wait=0 (00000000000000000000000000000000)

State 582 file input/c/c_seq/p4.c line 638 function t_three thread 0
----------------------------------------------------
  x_tmp=0 (00000000000000000000000000000000)

State 584 file input/c/c_seq/p4.c line 640 function t_three thread 0
----------------------------------------------------
  x_tmp=1 (00000000000000000000000000000001)

State 586 file input/c/c_seq/p4.c line 642 function t_three thread 0
----------------------------------------------------
  x=1 (00000000000000000000000000000001)

State 590 file input/c/c_seq/p4.c line 657 function t_three thread 0
----------------------------------------------------
  flag[3]=-1 (11111111111111111111111111111111)

State 593 file input/c/c_seq/p4.c line 920 function main thread 0
----------------------------------------------------
  pc[3]=59 (00000000000000000000000000111011)

State 594 file input/c/c_seq/p4.c line 921 function main thread 0
----------------------------------------------------
  active[3]=0 (00000000000000000000000000000000)

State 595 file input/c/c_seq/p4.c line 924 function main thread 0
----------------------------------------------------
  ct=4 (00000000000000000000000000000100)

State 597 file input/c/c_seq/p4.c line 926 function main thread 0
----------------------------------------------------
  cs=11 (00000000000000000000000000001011)

State 606 file input/c/c_seq/p4.c line 669 function t_four thread 0
----------------------------------------------------
  i=1 (00000000000000000000000000000001)

State 608 file input/c/c_seq/p4.c line 671 function t_four thread 0
----------------------------------------------------
  flag[4]=1 (00000000000000000000000000000001)

State 610 file input/c/c_seq/p4.c line 673 function t_four thread 0
----------------------------------------------------
  turn[1]=4 (00000000000000000000000000000100)

State 612 file input/c/c_seq/p4.c line 677 function t_four thread 0
----------------------------------------------------
  wait=0 (00000000000000000000000000000000)

State 614 file input/c/c_seq/p4.c line 680 function t_four thread 0
----------------------------------------------------
  j=1 (00000000000000000000000000000001)

State 621 file input/c/c_seq/p4.c line 684 function t_four thread 0
----------------------------------------------------
  wait=0 (00000000000000000000000000000000)

State 624 file input/c/c_seq/p4.c line 690 function t_four thread 0
----------------------------------------------------
  j=2 (00000000000000000000000000000010)

State 631 file input/c/c_seq/p4.c line 694 function t_four thread 0
----------------------------------------------------
  wait=0 (00000000000000000000000000000000)

State 634 file input/c/c_seq/p4.c line 700 function t_four thread 0
----------------------------------------------------
  j=3 (00000000000000000000000000000011)

State 685 file input/c/c_seq/p4.c line 929 function main thread 0
----------------------------------------------------
  pc[4]=11 (00000000000000000000000000001011)

State 686 file input/c/c_seq/p4.c line 930 function main thread 0
----------------------------------------------------
  active[4]=1 (00000000000000000000000000000001)

State 692 file input/c/c_seq/p4.c line 897 function main thread 0
----------------------------------------------------
  ct=1 (00000000000000000000000000000001)

State 694 file input/c/c_seq/p4.c line 906 function main thread 0
----------------------------------------------------
  ct=2 (00000000000000000000000000000010)

State 696 file input/c/c_seq/p4.c line 915 function main thread 0
----------------------------------------------------
  ct=3 (00000000000000000000000000000011)

State 698 file input/c/c_seq/p4.c line 924 function main thread 0
----------------------------------------------------
  ct=4 (00000000000000000000000000000100)

State 700 file input/c/c_seq/p4.c line 926 function main thread 0
----------------------------------------------------
  cs=27 (00000000000000000000000000011011)

State 725 file input/c/c_seq/p4.c line 704 function t_four thread 0
----------------------------------------------------
  wait=0 (00000000000000000000000000000000)

State 728 file input/c/c_seq/p4.c line 710 function t_four thread 0
----------------------------------------------------
  j=4 (00000000000000000000000000000100)

State 738 file input/c/c_seq/p4.c line 725 function t_four thread 0
----------------------------------------------------
  i=2 (00000000000000000000000000000010)

State 740 file input/c/c_seq/p4.c line 727 function t_four thread 0
----------------------------------------------------
  flag[4]=2 (00000000000000000000000000000010)

State 742 file input/c/c_seq/p4.c line 729 function t_four thread 0
----------------------------------------------------
  turn[2]=4 (00000000000000000000000000000100)

State 744 file input/c/c_seq/p4.c line 733 function t_four thread 0
----------------------------------------------------
  wait=0 (00000000000000000000000000000000)

State 746 file input/c/c_seq/p4.c line 736 function t_four thread 0
----------------------------------------------------
  j=1 (00000000000000000000000000000001)

State 753 file input/c/c_seq/p4.c line 740 function t_four thread 0
----------------------------------------------------
  wait=0 (00000000000000000000000000000000)

State 756 file input/c/c_seq/p4.c line 746 function t_four thread 0
----------------------------------------------------
  j=2 (00000000000000000000000000000010)

State 763 file input/c/c_seq/p4.c line 750 function t_four thread 0
----------------------------------------------------
  wait=0 (00000000000000000000000000000000)

State 799 file input/c/c_seq/p4.c line 929 function main thread 0
----------------------------------------------------
  pc[4]=27 (00000000000000000000000000011011)

State 800 file input/c/c_seq/p4.c line 930 function main thread 0
----------------------------------------------------
  active[4]=1 (00000000000000000000000000000001)

State 806 file input/c/c_seq/p4.c line 897 function main thread 0
----------------------------------------------------
  ct=1 (00000000000000000000000000000001)

State 808 file input/c/c_seq/p4.c line 906 function main thread 0
----------------------------------------------------
  ct=2 (00000000000000000000000000000010)

State 810 file input/c/c_seq/p4.c line 915 function main thread 0
----------------------------------------------------
  ct=3 (00000000000000000000000000000011)

State 812 file input/c/c_seq/p4.c line 924 function main thread 0
----------------------------------------------------
  ct=4 (00000000000000000000000000000100)

State 814 file input/c/c_seq/p4.c line 926 function main thread 0
----------------------------------------------------
  cs=59 (00000000000000000000000000111011)

State 850 file input/c/c_seq/p4.c line 756 function t_four thread 0
----------------------------------------------------
  j=3 (00000000000000000000000000000011)

State 857 file input/c/c_seq/p4.c line 760 function t_four thread 0
----------------------------------------------------
  wait=0 (00000000000000000000000000000000)

State 860 file input/c/c_seq/p4.c line 766 function t_four thread 0
----------------------------------------------------
  j=4 (00000000000000000000000000000100)

State 870 file input/c/c_seq/p4.c line 783 function t_four thread 0
----------------------------------------------------
  i=3 (00000000000000000000000000000011)

State 872 file input/c/c_seq/p4.c line 785 function t_four thread 0
----------------------------------------------------
  flag[4]=3 (00000000000000000000000000000011)

State 874 file input/c/c_seq/p4.c line 787 function t_four thread 0
----------------------------------------------------
  turn[3]=4 (00000000000000000000000000000100)

State 876 file input/c/c_seq/p4.c line 791 function t_four thread 0
----------------------------------------------------
  wait=0 (00000000000000000000000000000000)

State 878 file input/c/c_seq/p4.c line 794 function t_four thread 0
----------------------------------------------------
  j=1 (00000000000000000000000000000001)

State 885 file input/c/c_seq/p4.c line 798 function t_four thread 0
----------------------------------------------------
  wait=0 (00000000000000000000000000000000)

State 888 file input/c/c_seq/p4.c line 804 function t_four thread 0
----------------------------------------------------
  j=2 (00000000000000000000000000000010)

State 895 file input/c/c_seq/p4.c line 808 function t_four thread 0
----------------------------------------------------
  wait=0 (00000000000000000000000000000000)

State 898 file input/c/c_seq/p4.c line 814 function t_four thread 0
----------------------------------------------------
  j=3 (00000000000000000000000000000011)

State 905 file input/c/c_seq/p4.c line 818 function t_four thread 0
----------------------------------------------------
  wait=0 (00000000000000000000000000000000)

State 908 file input/c/c_seq/p4.c line 824 function t_four thread 0
----------------------------------------------------
  j=4 (00000000000000000000000000000100)

State 921 file input/c/c_seq/p4.c line 854 function t_four thread 0
----------------------------------------------------
  x_tmp=1 (00000000000000000000000000000001)

State 923 file input/c/c_seq/p4.c line 856 function t_four thread 0
----------------------------------------------------
  x_tmp=0 (00000000000000000000000000000000)

State 925 file input/c/c_seq/p4.c line 858 function t_four thread 0
----------------------------------------------------
  x=0 (00000000000000000000000000000000)

State 928 file input/c/c_seq/p4.c line 864 function t_four thread 0
----------------------------------------------------
  flag[4]=-1 (11111111111111111111111111111111)

State 931 file input/c/c_seq/p4.c line 929 function main thread 0
----------------------------------------------------
  pc[4]=59 (00000000000000000000000000111011)

State 932 file input/c/c_seq/p4.c line 930 function main thread 0
----------------------------------------------------
  active[4]=0 (00000000000000000000000000000000)

Violated property:
  file input/c/c_seq/p4.c line 935 function main
  OK
  0 != 0

VERIFICATION FAILED

real	0m29.547s
user	0m29.194s
sys	0m0.338s
